Energy [eV],      Intensity
402.522228093994, 0.022317207769
405.849529996406, 0.001522434927
405.928068686000, 0.004954670483
406.698407347236, 0.013903457041
407.734842051760, 0.001263620795
408.076075642478, 0.000567424744
408.223219857470, 0.006437322977
408.470218772428, 0.002997444228
408.574075622959, 0.002056661385
408.934471790852, 0.001008612818
409.166715773603, 0.000934396898
409.219543315961, 0.000553185843
409.642979102240, 0.001913729039
409.743402424922, 0.003769208968
409.919201210332, 0.001254781461
409.961817435357, 0.001192820370
410.140452467059, 0.002442131565
410.378581779531, 0.002005417120
410.491763690462, 0.000071697595
410.814571640389, 0.000373261472
410.900819590514, 0.002395150483
410.948799201147, -0.000044670857
410.951876467937, 0.000166596176
411.192549956191, 0.002168702994
411.205904184674, 0.004995832694
411.558696982794, 0.000040959744
411.714478369078, 0.000086228551
411.722202811829, 0.000103205014
411.787516292758, 0.000005990480
411.806240150043, 0.007187392068
411.877131663271, 0.000060426368
412.111810306382, 0.002017138462
412.154722902408, 0.002636186642
412.402766767728, 0.000426204488
412.588841750930, 0.000485232348
412.594660408013, 0.000527362518
412.617839311611, 0.000635681487
412.709342867094, 0.000378078852
412.761201897680, 0.000678825098
412.784356869674, 0.002334100387