


                     eT - an electronic structure program

  ------------------------------------------------------------------------
   Author list in alphabetical order:
  ------------------------------------------------------------------------
   J. H. Andersen, A. Balbi, S. Coriani, S. D. Folkestad, T. Giovannini, 
   L. Goletto, T. S. Haugland, A. Hutcheson, I-M. Høyvik, E. F. Kjønstad, 
   H. Koch, T. Moitra, R. H. Myhre, A. C. Paul, M. Scavino, A. Skeidsvoll, 
   Å. H. Tveten
  ------------------------------------------------------------------------


  :: Input file
  ================

     Note: geometry section is excluded from this print

     system
       name: HF benchmark small amylose
       charge: 0
       multiplicity: 1
     end system

     print
        timing print level: verbose
        output print level: verbose
     end print

     do
       ground state
     end do

     memory
       available: 2000
       unit: GB
     end memory

     method
       hf
     end method

     solver scf
       gradient threshold: 1.0d-7
       energy threshold: 1.0d0
     end solver scf


  Running on 8 OMP thread(s)
  Memory available for calculation: 2.000000 TB


  :: Molecular system specifications
  =====================================

     Name:             hf benchmark small amylose
     Charge:           0
     Multiplicity:     1
     Coordinate units: angstrom

     Pure basis functions:       2050
     Cartesian basis functions:  2160
     Primitive basis functions:  4564

     Nuclear repulsion energy (a.u.):          23942.648730846882
     Bohr/angstrom value (CODATA 2010):            0.529177210920

     ==============================================================================
                                     Geometry (angstrom)
     ==============================================================================
        Atom           X                  Y                  Z         # in input
     ==============================================================================
        Basis: cc-pvdz
        1 H      2.825000000000     3.361000000000    -0.617000000000        1
        2 H      4.531000000000     5.346000000000    -3.122000000000        2
        3 H      1.199000000000     1.675000000000    -1.669000000000        3
        4 H      2.275000000000     5.205000000000    -2.964000000000        4
        5 H      2.809000000000     3.368000000000    -4.433000000000        5
        6 H      0.639000000000    -1.360000000000    -4.993000000000        6
        7 H      5.936000000000     3.297000000000    -4.447000000000        7
        8 H      3.056000000000     1.357000000000    -5.050000000000        8
        9 H      1.797000000000    -0.205000000000    -2.615000000000        9
       10 H      1.842000000000    -1.619000000000    -2.982000000000       10
       11 H      5.706000000000     1.429000000000    -3.603000000000       11
       12 H      4.138000000000    -0.478000000000    -2.896000000000       12
       13 O      2.327000000000     5.366000000000    -0.390000000000       13
       14 O      4.168000000000     4.552000000000    -2.469000000000       14
       15 O      1.080000000000     2.854000000000    -3.372000000000       15
       16 O      3.190000000000     1.954000000000    -3.086000000000       16
       17 O      1.262000000000    -0.610000000000    -4.505000000000       17
       18 O      5.150000000000     2.826000000000    -5.039000000000       18
       19 O      4.008000000000    -1.101000000000    -4.871000000000       19
       20 C      2.229000000000     4.130000000000    -1.108000000000       20
       21 C      0.634000000000     2.475000000000    -2.060000000000       21
       22 C      2.763000000000     4.340000000000    -2.515000000000       22
       23 C      2.484000000000     3.142000000000    -3.418000000000       23
       24 C      3.660000000000     1.160000000000    -4.164000000000       24
       25 C      2.158000000000    -0.780000000000    -3.419000000000       25
       26 C      5.094000000000     1.499000000000    -4.502000000000       26
       27 C      3.555000000000    -0.310000000000    -3.760000000000       27
       28 C      5.403000000000    -0.924000000000    -5.146000000000       28
       29 H     -7.985000000000     2.190000000000     4.509000000000       29
       30 H     -2.684000000000    -2.377000000000     5.538000000000       30
       31 H     -5.540000000000    -0.313000000000     5.496000000000       31
       32 H     -6.971000000000     0.164000000000     2.724000000000       32
       33 H     -6.918000000000     1.605000000000     2.491000000000       33
       34 H     -2.988000000000    -1.001000000000     4.034000000000       34
       35 H     -1.117000000000     0.879000000000     6.500000000000       35
       36 H     -4.620000000000     0.489000000000     2.724000000000       36
       37 H     -3.381000000000     0.837000000000     6.416000000000       37
       38 H     -2.841000000000     2.695000000000     4.975000000000       38
       39 H     -5.130000000000     4.475000000000     0.620000000000       39
       40 H      0.279000000000     2.619000000000     4.783000000000       40
       41 H     -2.630000000000     3.780000000000     3.168000000000       41
       42 H     -4.041000000000     1.848000000000     1.109000000000       42
       43 H     -4.024000000000     2.550000000000    -0.172000000000       43
       44 H     -0.044000000000     2.269000000000     2.776000000000       44
       45 H      1.747000000000     5.417000000000     2.783000000000       45
       46 H     -1.699000000000     2.108000000000     0.819000000000       46
       47 H     -0.514000000000     5.267000000000     2.796000000000       47
       48 H     -0.008000000000     5.285000000000     0.437000000000       48
       49 H     -2.292000000000     2.882000000000    -3.611000000000       49
       50 H      3.116000000000     5.168000000000     0.335000000000       50
       51 H      0.196000000000     4.531000000000    -1.532000000000       51
       52 H     -1.137000000000     1.684000000000    -1.254000000000       52
       53 H     -1.124000000000     1.105000000000    -2.594000000000       53
       54 H      7.387000000000     0.716000000000    -6.732000000000       54
       55 H      5.134000000000     0.695000000000    -6.491000000000       55
       56 H      5.734000000000    -1.578000000000    -5.952000000000       56
       57 H      3.699000000000    -4.978000000000    -2.536000000000       57
       58 H      8.862000000000    -1.551000000000    -5.948000000000       58
       59 H      6.043000000000    -3.293000000000    -4.749000000000       59
       60 H      4.798000000000    -2.364000000000    -2.002000000000       60
       61 H      4.884000000000    -3.519000000000    -1.113000000000       61
       62 H      8.672000000000    -2.038000000000    -3.953000000000       62
       63 H     10.409000000000    -4.901000000000    -5.335000000000       63
       64 H      7.148000000000    -2.692000000000    -1.993000000000       64
       65 H      8.154000000000    -4.782000000000    -5.140000000000       65
       66 H      8.809000000000    -5.737000000000    -3.025000000000       66
       67 H      6.826000000000    -5.182000000000     1.786000000000       67
       68 H     11.935000000000    -5.636000000000    -3.087000000000       68
       69 H      9.151000000000    -5.832000000000    -0.936000000000       69
       70 H      7.846000000000    -3.127000000000     0.036000000000       70
       71 H      7.954000000000    -3.133000000000     1.492000000000       71
       72 H     11.735000000000    -4.366000000000    -1.474000000000       72
       73 H     13.564000000000    -7.168000000000    -0.089000000000       73
       74 H     10.205000000000    -3.260000000000     0.268000000000       74
       75 H     11.305000000000    -7.001000000000    -0.031000000000       75
       76 H     11.960000000000    -5.901000000000     2.013000000000       76
       77 H      9.905000000000    -1.817000000000     4.557000000000       77
       78 H     15.082000000000    -5.806000000000     1.852000000000       78
       79 H     12.278000000000    -4.302000000000     3.367000000000       79
       80 H     10.891000000000    -1.909000000000     1.848000000000       80
       81 H     10.982000000000    -0.760000000000     2.746000000000       81
       82 H     14.829000000000    -3.759000000000     1.843000000000       82
       83 H     16.716000000000    -4.340000000000     4.879000000000       83
       84 H     13.249000000000    -1.746000000000     2.062000000000       84
       85 H     14.453000000000    -4.250000000000     4.814000000000       85
       86 H     15.054000000000    -1.945000000000     5.193000000000       86
       87 H     12.859000000000     2.516000000000     3.562000000000       87
       88 H     18.174000000000    -1.932000000000     4.976000000000       88
       89 H     15.313000000000     0.113000000000     4.759000000000       89
       90 H     13.880000000000     0.347000000000     1.956000000000       90
       91 H     13.928000000000     1.763000000000     1.601000000000       91
       92 H     17.866000000000    -0.690000000000     3.359000000000       92
       93 H     19.732000000000     1.398000000000     5.656000000000       93
       94 H     16.230000000000     0.677000000000     1.927000000000       94
       95 H     17.468000000000     1.344000000000     5.577000000000       95
       96 H     18.001000000000     3.073000000000     3.983000000000       96
       97 H     15.708000000000     4.468000000000    -0.508000000000       97
       98 H     21.123000000000     2.990000000000     3.796000000000       98
       99 H     18.210000000000     4.000000000000     2.089000000000       99
      100 H     16.805000000000     1.897000000000     0.203000000000      100
      101 H     16.820000000000     2.486000000000    -1.133000000000      101
      102 H     20.801000000000     2.470000000000     1.828000000000      102
      103 H     22.583000000000     5.612000000000     1.565000000000      103
      104 H     19.146000000000     2.136000000000    -0.109000000000      104
      105 H     20.321000000000     5.457000000000     1.591000000000      105
      106 H     20.828000000000     5.275000000000    -0.760000000000      106
      107 H     18.551000000000     2.529000000000    -4.589000000000      107
      108 H     23.952000000000     5.158000000000    -0.853000000000      108
      109 H     21.034000000000     4.356000000000    -2.658000000000      109
      110 H     19.709000000000     1.539000000000    -2.138000000000      110
      111 H     19.724000000000     0.847000000000    -3.424000000000      111
      112 H     23.668000000000     3.277000000000    -1.647000000000      112
      113 H     25.367000000000     5.045000000000    -4.312000000000      113
      114 H     22.046000000000     1.502000000000    -2.551000000000      114
      115 H     23.111000000000     4.912000000000    -4.143000000000      115
      116 H     23.650000000000     2.958000000000    -5.451000000000      116
      117 H     23.775000000000     1.443000000000    -2.952000000000      117
      118 O     -7.387000000000     1.299000000000     4.325000000000      118
      119 O     -3.434000000000    -1.696000000000     5.940000000000      119
      120 O     -1.532000000000     0.455000000000     5.586000000000      120
      121 O     -4.629000000000     1.852000000000     4.287000000000      121
      122 O     -2.562000000000     1.725000000000     3.260000000000      122
      123 O     -4.506000000000     3.797000000000     1.202000000000      123
      124 O     -0.494000000000     3.335000000000     4.503000000000      124
      125 O      1.354000000000     4.426000000000     2.561000000000      125
      126 O     -1.764000000000     4.178000000000     0.705000000000      126
      127 O      0.318000000000     3.343000000000     0.144000000000      127
      128 O     -1.656000000000     2.941000000000    -2.728000000000      128
      129 O      7.038000000000     0.734000000000    -5.699000000000      129
      130 O      6.137000000000    -1.373000000000    -4.014000000000      130
      131 O      4.296000000000    -4.117000000000    -2.837000000000      131
      132 O      8.097000000000    -2.328000000000    -5.928000000000      132
      133 O     10.047000000000    -4.084000000000    -4.709000000000      133
      134 O      7.058000000000    -4.636000000000    -2.712000000000      134
      135 O      9.184000000000    -4.071000000000    -2.001000000000      135
      136 O      7.403000000000    -4.875000000000     0.913000000000      136
      137 O     11.191000000000    -6.117000000000    -2.451000000000      137
      138 O     13.174000000000    -6.183000000000    -0.344000000000      138
      139 O     10.176000000000    -5.023000000000     1.360000000000      139
      140 O     12.277000000000    -4.061000000000     1.323000000000      140
      141 O     10.484000000000    -2.302000000000     3.772000000000      141
      142 O     14.344000000000    -5.620000000000     2.633000000000      142
      143 O     16.302000000000    -3.946000000000     3.951000000000      143
      144 O     13.255000000000    -1.967000000000     4.125000000000      144
      145 O     15.330000000000    -1.351000000000     3.312000000000      145
      146 O     13.461000000000     1.614000000000     3.454000000000      146
      147 O     17.422000000000    -1.222000000000     5.319000000000      147
      148 O     19.318000000000     0.896000000000     4.781000000000      148
      149 O     16.217000000000     2.170000000000     3.369000000000      149
      150 O     18.285000000000     1.961000000000     2.356000000000      150
      151 O     16.334000000000     3.844000000000     0.130000000000      151
      152 O     20.348000000000     3.678000000000     3.457000000000      152
      153 O     22.193000000000     4.604000000000     1.429000000000      153
      154 O     19.075000000000     4.190000000000    -0.400000000000      154
      155 O     21.159000000000     3.316000000000    -0.887000000000      155
      156 O     19.187000000000     2.665000000000    -3.713000000000      156
      157 O     23.163000000000     5.292000000000    -1.592000000000      157
      158 O     25.006000000000     4.309000000000    -3.595000000000      158
      159 O     21.923000000000     2.532000000000    -4.349000000000      159
      160 O     24.035000000000     1.664000000000    -3.987000000000      160
      161 C     -4.996000000000    -0.497000000000     4.570000000000      161
      162 C     -6.565000000000     1.005000000000     3.206000000000      162
      163 C     -3.539000000000    -0.694000000000     4.922000000000      163
      164 C     -5.143000000000     0.689000000000     3.617000000000      164
      165 C     -2.940000000000     0.599000000000     5.448000000000      165
      166 C     -3.216000000000     1.778000000000     4.521000000000      166
      167 C     -2.071000000000     2.949000000000     2.736000000000      167
      168 C     -3.663000000000     2.755000000000     0.735000000000      168
      169 C     -0.614000000000     3.144000000000     3.088000000000      169
      170 C     -2.238000000000     2.923000000000     1.217000000000      170
      171 C     -0.055000000000     4.369000000000     2.382000000000      171
      172 C     -0.353000000000     4.353000000000     0.887000000000      172
      173 C      0.782000000000     3.695000000000    -1.149000000000      173
      174 C     -0.780000000000     1.956000000000    -2.204000000000      174
      175 C      5.639000000000     0.531000000000    -5.540000000000      175
      176 C      6.642000000000    -2.699000000000    -4.058000000000      176
      177 C      5.184000000000    -3.340000000000    -2.048000000000      177
      178 C      8.070000000000    -2.721000000000    -4.551000000000      178
      179 C      6.571000000000    -3.285000000000    -2.647000000000      179
      180 C      8.653000000000    -4.119000000000    -4.433000000000      180
      181 C      8.451000000000    -4.708000000000    -3.040000000000      181
      182 C      9.724000000000    -4.907000000000    -0.988000000000      182
      183 C      8.260000000000    -3.753000000000     0.773000000000      183
      184 C     11.159000000000    -5.273000000000    -1.294000000000      184
      185 C      9.653000000000    -4.155000000000     0.341000000000      185
      186 C     11.777000000000    -6.022000000000    -0.127000000000      186
      187 C     11.575000000000    -5.290000000000     1.197000000000      187
      188 C     12.828000000000    -3.760000000000     2.597000000000      188
      189 C     11.312000000000    -1.701000000000     2.788000000000      189
      190 C     14.275000000000    -4.190000000000     2.677000000000      190
      191 C     12.720000000000    -2.253000000000     2.821000000000      191
      192 C     14.900000000000    -3.712000000000     3.977000000000      192
      193 C     14.662000000000    -2.224000000000     4.215000000000      193
      194 C     15.857000000000    -0.148000000000     3.851000000000      194
      195 C     14.284000000000     1.228000000000     2.365000000000      195
      196 C     17.314000000000    -0.310000000000     4.219000000000      196
      197 C     15.706000000000     0.953000000000     2.801000000000      197
      198 C     17.909000000000     1.025000000000     4.633000000000      198
      199 C     17.629000000000     2.119000000000     3.607000000000      199
      200 C     18.772000000000     3.138000000000     1.730000000000      200
      201 C     17.180000000000     2.769000000000    -0.247000000000      201
      202 C     20.228000000000     3.367000000000     2.063000000000      202
      203 C     18.604000000000     2.982000000000     0.218000000000      203
      204 C     20.783000000000     4.528000000000     1.256000000000      204
      205 C     20.486000000000     4.384000000000    -0.233000000000      205
      206 C     21.622000000000     3.558000000000    -2.207000000000      206
      207 C     20.065000000000     1.730000000000    -3.108000000000      207
      208 C     23.068000000000     3.998000000000    -2.202000000000      208
      209 C     21.478000000000     2.265000000000    -3.009000000000      209
      210 C     23.602000000000     4.089000000000    -3.622000000000      210
      211 C     23.326000000000     2.818000000000    -4.419000000000      211
      212 H     -5.388170000000    -1.364210000000     4.081070000000      212
     ==============================================================================

     ==============================================================================
                                     Geometry (a.u.)
     ==============================================================================
        Atom           X                  Y                  Z         # in input
     ==============================================================================
        Basis: cc-pvdz
        1 H      5.338476301896     6.351369504663    -1.165961018857        1
        2 H      8.562349070404    10.102475861925    -5.899724960892        2
        3 H      2.265781623354     3.165291258646    -3.153952901899        3
        4 H      4.299126933386     9.836024478361    -5.601148233211        4
        5 H      5.308240683903     6.364597587535    -8.377155910197        5
        6 H      1.207534993597    -2.570027529408    -9.435402539953        6
        7 H     11.217414275418     6.230427032691    -8.403612075941        7
        8 H      5.775003036671     2.564358351035    -9.543116929054        8
        9 H      3.395837845843    -0.387393855536    -4.941633815738        9
       10 H      3.480875521449    -3.059466595671    -5.635163303453       10
       11 H     10.782777266768     2.700418632003    -6.808683226808       11
       12 H      7.819686703450    -0.903289087542    -5.472646856740       12
       13 O      4.397392691863    10.140270384416    -0.736993188580       13
       14 O      7.876378487187     8.602033319020    -4.665733801551       14
       15 O      2.040904214530     5.393278359509    -6.372156492033       15
       16 O      6.028226337363     3.692524847400    -5.831694820408       16
       17 O      2.384834369201    -1.152732935985    -8.513216191166       17
       18 O      9.732089541510     5.340366028021    -9.522329941683       18
       19 O      7.574022307257    -2.080588463146    -9.204855952756       19
       20 C      4.212199531656     7.804568894454    -2.093816546018       20
       21 C      1.198086362974     4.677072158299    -3.892835816604       21
       22 C      5.221313282173     8.201411380612    -4.752661203281       22
       23 C      4.694079693420     5.937519483383    -6.459083893763       23
       24 C      6.916397615908     2.192082304495    -7.868819582689       24
       25 C      4.078028976811    -1.473986377161    -6.460973619888       25
       26 C      9.626264878534     2.832699460723    -8.507547012792       26
       27 C      6.717976372829    -0.585815098615    -7.105370228365       27
       28 C     10.210190251025    -1.746106939098    -9.724530637012       28
       29 H    -15.089463104652     4.138500212797     8.520775095664       29
       30 H     -5.072024918333    -4.491878998091    10.465303277841       30
       31 H    -10.469082730090    -0.591484276989    10.385934780610       31
       32 H    -13.173280814343     0.309915084429     5.147613963315       32
       33 H    -13.073125329741     3.033010429927     4.707307776292       33
       34 H     -5.646501660200    -1.891615850690     7.623155186495       34
       35 H     -2.110824081139     1.661069263493    12.283219809673       35
       36 H     -8.730534695491     0.924076074912     5.147613963315       36
       37 H     -6.389164027154     1.581700766261    12.124482815209       37
       38 H     -5.368711919889     5.092811905703     9.401387469711       38
       39 H     -9.694295019019     8.456524407429     1.171630197230       39
       40 H      0.527233588754     4.949192720236     9.038560053795       40
       41 H     -4.969979707606     7.143164750856     5.986652362622       41
       42 H     -7.636383269367     3.492213878196     2.095706272143       42
       43 H     -7.604257925250     4.818801617641    -0.325032893425       43
       44 H     -0.083147949481     4.287788576638     5.245879721793       44
       45 H      3.301351539615    10.236646416769     5.259107804665       45
       46 H     -3.210644685636     3.983542670583     1.547685696019       46
       47 H     -0.971319228026     9.953187498084     5.283674244284       47
       48 H     -0.015117808997     9.987202568326     0.825810316435       48
       49 H     -4.331252277503     5.446190690997    -6.823801035804       49
       50 H      5.888386604145     9.766104611752     0.633058251729       50
       51 H      0.370386320415     8.562349070404    -2.895060422834       51
       52 H     -2.148618603630     3.182298793768    -2.369716560205       52
       53 H     -2.124052164011     2.088147367644    -4.901949567122       53
       54 H     13.959406882162     1.353043905189   -12.721636270572       54
       55 H      9.701853923517     1.313359656573   -12.266212274552       55
       56 H     10.835689598256    -2.981987824564   -11.247649893411       56
       57 H      6.990096934766    -9.407056648085    -4.792345451897       57
       58 H     16.746752915896    -2.930965219200   -11.240090988913       58
       59 H     11.419614970747    -6.222868128193    -8.974309365559       59
       60 H      9.066905945663    -4.467312558472    -3.783231701379       60
       61 H      9.229422392376    -6.649946232344    -2.103265176641       61
       62 H     16.387704952228    -3.851261841864    -7.470087370406       62
       63 H     19.670159230598    -9.261547736493   -10.081688874555       63
       64 H     13.507762338391    -5.087142727329    -3.766224166258       64
       65 H     15.408826819704    -9.036670327670    -9.713192280264       65
       66 H     16.646597431294   -10.841358776630    -5.716421526809       66
       67 H     12.899270526281    -9.792560777496     3.375050858473       67
       68 H     22.553881296684   -10.650496438049    -5.833584546532       68
       69 H     17.292883765895   -11.020882758463    -1.768783652593       69
       70 H     14.826791173337    -5.909173591515     0.068030140484       70
       71 H     15.030881594791    -5.920511948262     2.819471377851       71
       72 H     22.175936071771    -8.250544259851    -2.785456307609       72
       73 H     25.632245153601   -13.545556860882    -0.168185625086       73
       74 H     19.284655101186    -6.160507166082     0.506446601383       74
       75 H     21.363353838208   -13.229972598080    -0.058581509862       75
       76 H     22.601124449798   -11.151273861058     3.804018688749       76
       77 H     18.717737263817    -3.433632368335     8.611481949643       77
       78 H     28.500849410690   -10.971749879225     3.499772782694       78
       79 H     23.202057357410    -8.129601787879     6.362707861411       79
       80 H     20.581007222638    -3.607487171795     3.492213878196       80
       81 H     20.752972299974    -1.436191854669     5.189187938056       81
       82 H     28.022748701175    -7.103480502240     3.482765247573       82
       83 H     31.588661898230    -8.201411380612     9.219973761753       83
       84 H     25.036981424363    -3.299461813491     3.896615268853       84
       85 H     27.312211678339    -8.031336029402     9.097141563656       85
       86 H     28.447937079202    -3.675517312279     9.813347764866       86
       87 H     24.299988235782     4.754550929406     6.731204455701       87
       88 H     34.343882587845    -3.650950872660     9.403277195836       88
       89 H     28.937376145465     0.213539052076     8.993206626805       89
       90 H     26.229398608963     0.655734965224     3.696304299649       90
       91 H     26.320105462942     3.331587157608     3.025451525429       91
       92 H     33.761846941479    -1.303911025950     6.347590052414       92
       93 H     37.288075889918     2.641837122142    10.688290960540       93
       94 H     30.670255001691     1.279344586331     3.641502242037       94
       95 H     33.009735943902     2.539791911415    10.539002596699       95
       96 H     34.016959968296     5.807128380788     7.526779154143       96
       97 H     29.683817964668     8.443296324557    -0.959980871279       97
       98 H     39.916684929188     5.650281112450     7.173400368849       98
       99 H     34.411912728330     7.558904498260     3.947637874216       99
      100 H     31.756847523316     3.584810458300     0.383614403287      100
      101 H     31.785193415184     4.697859145669    -2.141059699132      101
      102 H     39.308193117078     4.667623527676     3.454419355705      102
      103 H     42.675685071053    10.605143011059     2.957421384944      103
      104 H     36.180696380923     4.036455002071    -0.205980147578      104
      105 H     38.401124577287    10.312235461752     3.006554264183      105
      106 H     39.359215722441     9.968305307081    -1.436191854669      106
      107 H     35.056309336806     4.779117369025    -8.671953185629      107
      108 H     45.262720135582     9.747207350507    -1.611936384254      108
      109 H     39.748499304102     8.231646998605    -5.022892039094      109
      110 H     37.244612189053     2.908288505706    -4.040234454320      110
      111 H     37.272958080921     1.600598027507    -6.470422250511      111
      112 H     44.726037916206     6.192632510200    -3.112378927159      112
      113 H     47.936682601842     9.533668298431    -8.148499049125      113
      114 H     41.660902142161     2.838368639097    -4.820691343765      114
      115 H     43.673460464823     9.282334723864    -7.829135334073      115
      116 H     44.692022845964     5.589809876463   -10.300897105004      116
      117 H     44.928238611534     2.726874797747    -5.578471519716      117
      118 O    -13.959406882162     2.454754235810     8.173065488744      118
      119 O     -6.489319511756    -3.204975507262    11.224973179916      119
      120 O     -2.895060422834     0.859825386677    10.556010131820      120
      121 O     -8.747542230612     3.499772782694     8.101255896010      121
      122 O     -4.841478331136     3.259777564875     6.160507166082      122
      123 O     -8.515105917290     7.175290094974     2.271450801727      123
      124 O     -0.933524705535     6.302236625424     8.509436738916      124
      125 O      2.558689172661     8.363927827325     4.839588605011      125
      126 O     -3.333476883733     7.895275748433     1.332256917818      126
      127 O      0.600932907612     6.317354434421     0.272120561937      127
      128 O     -3.129386462280     5.557684532346    -5.155172867813      128
      129 O     13.299892464689     1.387058975431   -10.769549183896      129
      130 O     11.597249226456    -2.594593969028    -7.585360664004      130
      131 O      8.118263431132    -7.780002454834    -5.361153015391      131
      132 O     15.301112430603    -4.399282417987   -11.202296466422      132
      133 O     18.986078373505    -7.717641492724    -8.898720320577      133
      134 O     13.337686987180    -8.760770313484    -5.124937249820      134
      135 O     17.355244728006    -7.693075053104    -3.781341975255      135
      136 O     13.989642500155    -9.212414857255     1.725319951728      136
      137 O     21.147925060008   -11.559454703964    -4.631718731309      137
      138 O     24.895251965020   -11.684176628186    -0.650065786850      138
      139 O     19.229853043574    -9.492094323690     2.570027529408      139
      140 O     23.200167631285    -7.674177791859     2.500107662800      140
      141 O     19.811888689940    -4.350149538749     7.128046941859      141
      142 O     27.106231530761   -10.620260820056     4.975648885980      142
      143 O     30.806315282660    -7.456859287534     7.466307918157      143
      144 O     25.048319781110    -3.717091287019     7.795120263831      144
      145 O     28.969501489582    -2.553019994287     6.258772924559      145
      146 O     25.437603362770     3.050017965048     6.527114034248      146
      147 O     32.922808542173    -2.309245324219    10.051453256562      147
      148 O     36.505729274348     1.693194607610     9.034780601546      148
      149 O     30.645688562072     4.100705690306     6.366487313660      149
      150 O     34.553642187672     3.705752930272     4.452194749475      150
      151 O     30.866786518646     7.264107222828     0.245664396193      151
      152 O     38.452147182650     6.950412686150     6.532783212621      152
      153 O     41.938691882472     8.700299077498     2.700418632003      153
      154 O     36.046525826079     7.917952461928    -0.755890449826      154
      155 O     39.984715069672     6.266331829058    -1.676187072489      155
      156 O     36.258175152030     5.036120121966    -7.016553100510      156
      157 O     43.771726223301    10.000430651198    -3.008443990308      157
      158 O     47.254491470874     8.142829870751    -6.793565417811      158
      159 O     41.428465828840     4.784786547399    -8.218418915733      159
      160 O     45.419567403921     3.144504271276    -7.534338058641      160
      161 C     -9.441071718327    -0.939193883909     8.636048389262      161
      162 C    -12.406052007770     1.899174755188     6.058461955356      162
      163 C     -6.687740754836    -1.311469930448     9.301231985109      163
      164 C     -9.718861458638     1.302021299825     6.835139392552      164
      165 C     -5.555794806221     1.131945948614    10.295227926630      165
      166 C     -6.077359216601     3.359933049477     8.543451809159      166
      167 C     -3.913622803974     5.572802341342     5.170290676810      167
      168 C     -6.922066794282     5.206195473177     1.388948701555      168
      169 C     -1.160291840483     5.941298935633     5.835474272657      169
      170 C     -4.229207066777     5.523669462104     2.299796693596      170
      171 C     -0.103934936851     8.256213438225     4.501327628714      171
      172 C     -0.667073321971     8.225977820232     1.676187072489      172
      173 C      1.477765829410     6.982538030268    -2.171295317125      173
      174 C     -1.473986377161     3.696304299649    -4.164956378541      174
      175 C     10.656165616422     1.003444572144   -10.469082730090      175
      176 C     12.551560919361    -5.100370810201    -7.668508613485      176
      177 C      9.796340229745    -6.311685256047    -3.870159103109      177
      178 C     15.250089825240    -5.141944784942    -8.600143592896      178
      179 C     12.417390364517    -6.207750319196    -5.002105051724      179
      180 C     16.351800155861    -7.783781907083    -8.377155910197      180
      181 C     15.970075478699    -8.896830594452    -5.744767418678      181
      182 C     18.375696835271    -9.272886093241    -1.867049411070      182
      183 C     15.609137788907    -7.092142145493     1.460758294289      183
      184 C     21.087453824022    -9.964525854832    -2.445305605187      184
      185 C     18.241526280427    -7.851812047568     0.644396608477      185
      186 C     22.255304569003   -11.379930722131    -0.239995217820      186
      187 C     21.873579891841    -9.996651198949     2.262002171104      187
      188 C     24.241406725921    -7.105370228365     4.907618745495      188
      189 C     21.376581921080    -3.214424137885     5.268556435287      189
      190 C     26.975840428166    -7.917952461928     5.058796835461      190
      191 C     24.037316304468    -4.257552958645     5.330917397398      191
      192 C     28.156919256019    -7.014663374386     7.515440797395      192
      193 C     27.707164438373    -4.202750901033     7.965195615042      193
      194 C     29.965387157228    -0.279679466436     7.277335305700      194
      195 C     26.992847963287     2.320583680966     4.469202284596      195
      196 C     32.718718120719    -0.585815098615     7.972754519540      196
      197 C     29.680038512419     1.800908996711     5.293122874907      197
      198 C     33.843105164836     1.936969277679     8.755101135110      198
      199 C     33.313981849957     4.004329657953     6.816242131306      199
      200 C     35.473938810335     5.929960578885     3.269226195498      200
      201 C     32.465494820028     5.232651638921    -0.466762352768      201
      202 C     38.225380047702     6.362707861411     3.898504994978      202
      203 C     35.156464821408     5.635163303453     0.411960295155      203
      204 C     39.274178046836     8.556679892031     2.373496012454      204
      205 C     38.712929387840     8.284559330093    -0.440306187024      205
      206 C     40.859658265346     6.723645551202    -4.170625556915      206
      207 C     37.917354689398     3.269226195498    -5.873268795148      207
      208 C     43.592202241467     7.555125046011    -4.161176926292      208
      209 C     40.587537703408     4.280229672140    -5.686185908816      209
      210 C     44.601315991985     7.727090123347    -6.844588023175      210
      211 C     44.079751581605     5.325248219024    -8.350699744453      211
      212 H    -10.182165612598    -2.577983276393     7.712104595179      212
     ==============================================================================


  :: RHF wavefunction
  ======================

  - Cholesky decomposition of AO overlap to get linearly independent orbitals:

  - Orbital details:

     Number of occupied orbitals:       431
     Number of virtual orbitals:       1619
     Number of molecular orbitals:     2050
     Number of atomic orbitals:        2050


  :: Hartree-Fock engine
  =========================

  Drives the calculation of the Hartree-Fock state.

  This is a RHF ground state calculation.
  The following tasks will be performed:

     1) Generate initial SAD density
     2) Calculation of reference state (SCF-DIIS algorithm)


  1) Generate initial SAD density
     Generated atomic density for H  using UHF/cc-pvdz
     Generated atomic density for O  using UHF/cc-pvdz
     Generated atomic density for C  using UHF/cc-pvdz


  2) Calculation of reference state (SCF-DIIS algorithm)

   - Self-consistent field DIIS Hartree-Fock solver
  ----------------------------------------------------

  A DIIS-accelerated Roothan-Hall self-consistent field solver. A least-square 
  DIIS fit is performed on the previous Fock matrices and associated gradients. 
  Following the Roothan-Hall update of the density, the DIIS-fitted Fock 
  matrix is used to get the next orbital coefficients.

  - Hartree-Fock solver settings:

     DIIS dimension:                         8
     Cumulative Fock threshold:       0.10E+01

     Energy threshold:              0.1000E+01
     Gradient threshold:            0.1000E-06

     Coulomb screening threshold:   0.1000E-12
     Exchange screening threshold:  0.1000E-10
     Fock precision:                0.1000E-25
     Integral cutoff:               0.1000E-12

  - Setting initial AO density to SAD

     Energy of initial guess:             -6112.645537701886
     Number of electrons in guess:          862.000000000000

  Storing DIIS records in memory.

  Iteration       Energy (a.u.)      Max(grad.)    Delta E (a.u.)
  ---------------------------------------------------------------
     1         -6071.445585164593     0.8555E-01     0.6071E+04
  Switching to Fock construction using density differences.
     2         -6073.208390374366     0.5111E-01     0.1763E+01
     3         -6073.660727905499     0.1432E-01     0.4523E+00
     4         -6073.701277972408     0.2108E-02     0.4055E-01
     5         -6073.702535424022     0.9702E-03     0.1257E-02
     6         -6073.702680747261     0.3446E-03     0.1453E-03
     7         -6073.702706509103     0.1254E-03     0.2576E-04
     8         -6073.702708920327     0.3139E-04     0.2411E-05
     9         -6073.702709274156     0.9734E-05     0.3538E-06
    10         -6073.702709298925     0.4862E-05     0.2477E-07
    11         -6073.702709304394     0.1706E-05     0.5470E-08
    12         -6073.702709304861     0.4434E-06     0.4666E-09
    13         -6073.702709304909     0.1460E-06     0.4820E-10
    14         -6073.702709305109     0.6700E-07     0.2001E-09
  ---------------------------------------------------------------
  Convergence criterion met in 14 iterations!

  - Summary of RHF wavefunction energetics (a.u.):

     HOMO-LUMO gap:                  0.527079167469
     Nuclear repulsion energy:   23942.648730846882
     Electronic energy:         -30016.351440151993
     Total energy:               -6073.702709305109

  - Molecular orbital energies

  -------------------------------------------------------------------------------------------
     1 -20.577246456396   514   0.300984611249  1027   1.344728719762  1540   2.283106366480
     2 -20.571659139299   515   0.303179315261  1028   1.346668128527  1541   2.289023951053
     3 -20.570344054161   516   0.305414746422  1029   1.346760065073  1542   2.293033854584
     4 -20.569625024382   517   0.305828758716  1030   1.348245834498  1543   2.296865018165
     5 -20.569609193625   518   0.307303916300  1031   1.349577919946  1544   2.297817023417
     6 -20.566276921716   519   0.308154564282  1032   1.352521152259  1545   2.299665049802
     7 -20.565921997970   520   0.310085373735  1033   1.354723791539  1546   2.302624274248
     8 -20.565189161312   521   0.311400017132  1034   1.355923072564  1547   2.303127587810
     9 -20.564569329895   522   0.314131078081  1035   1.356508949732  1548   2.304469452726
    10 -20.564472581206   523   0.314626354342  1036   1.357956675702  1549   2.307416503908
    11 -20.564376454399   524   0.317773113996  1037   1.358280227867  1550   2.309639460202
    12 -20.564061255079   525   0.318845523175  1038   1.366330393599  1551   2.313450751845
    13 -20.563390045488   526   0.321015424124  1039   1.366759886758  1552   2.318379710324
    14 -20.563320391097   527   0.322794334768  1040   1.368466327098  1553   2.319069065327
    15 -20.563191792521   528   0.324811976568  1041   1.371639350300  1554   2.319666870609
    16 -20.563175894035   529   0.329095331034  1042   1.373983928863  1555   2.321642670208
    17 -20.562609229400   530   0.331893594599  1043   1.376858191367  1556   2.323360240046
    18 -20.562607161588   531   0.335954807865  1044   1.378331363863  1557   2.324023170024
    19 -20.562591215004   532   0.341047888235  1045   1.380621366098  1558   2.325119480588
    20 -20.561041154240   533   0.344789746925  1046   1.381555568983  1559   2.326019584140
    21 -20.560934245419   534   0.346586225886  1047   1.382052225781  1560   2.327852484351
    22 -20.555653712899   535   0.348000590153  1048   1.385021558650  1561   2.329027688164
    23 -20.554405468715   536   0.352980478367  1049   1.387877194143  1562   2.341616858513
    24 -20.554362384266   537   0.355169598675  1050   1.390640551194  1563   2.343520162714
    25 -20.553802297178   538   0.355915421770  1051   1.394402342651  1564   2.344027717282
    26 -20.551315884535   539   0.358013300157  1052   1.397116139702  1565   2.348301316830
    27 -20.550155486632   540   0.359088871485  1053   1.398707548648  1566   2.350750785318
    28 -20.549595487217   541   0.360103563119  1054   1.400951872786  1567   2.351225119923
    29 -20.549422143851   542   0.361544682963  1055   1.404271591866  1568   2.351945795057
    30 -20.549181305779   543   0.363273420539  1056   1.405403962483  1569   2.352834934358
    31 -20.549078950784   544   0.364265222523  1057   1.409163391662  1570   2.353347503883
    32 -20.548138072641   545   0.365261256876  1058   1.410796258488  1571   2.354105948299
    33 -20.547022624744   546   0.368630683331  1059   1.412393478905  1572   2.355942039669
    34 -20.545925961746   547   0.372109568728  1060   1.412714451917  1573   2.361043171582
    35 -20.545737881977   548   0.375319362096  1061   1.414448601760  1574   2.363010096961
    36 -20.545633639798   549   0.377098999334  1062   1.416548623960  1575   2.364741968637
    37 -20.545004095751   550   0.377520854647  1063   1.417048392101  1576   2.365613462191
    38 -20.544679406844   551   0.378682467866  1064   1.417608207271  1577   2.367416185086
    39 -20.543905465273   552   0.379552000645  1065   1.418727426574  1578   2.368505735892
    40 -20.541874058227   553   0.379756521707  1066   1.419523115782  1579   2.368731682184
    41 -20.535566840521   554   0.381477567944  1067   1.420116941802  1580   2.370846233802
    42 -20.532574763106   555   0.382770213118  1068   1.424420490980  1581   2.372500333574
    43 -20.529212297964   556   0.388156964596  1069   1.425857344702  1582   2.374629717939
    44 -20.527668581742   557   0.390325319585  1070   1.429386708834  1583   2.379068045138
    45 -20.526993585706   558   0.390443881577  1071   1.431574572567  1584   2.382192203583
    46 -20.526800420748   559   0.392410662545  1072   1.433200236379  1585   2.384343022704
    47 -20.526769114958   560   0.393342917362  1073   1.435141807234  1586   2.385180022464
    48 -20.526057267062   561   0.394018895681  1074   1.436985319590  1587   2.388747580407
    49 -20.524793974324   562   0.394486665453  1075   1.438456007401  1588   2.391667336721
    50 -20.523917844755   563   0.394945498095  1076   1.439760138446  1589   2.394783245880
    51 -11.336568743904   564   0.396066370032  1077   1.440727232900  1590   2.395207898023
    52 -11.332450028789   565   0.397571195696  1078   1.445977751780  1591   2.396632390576
    53 -11.326252445865   566   0.397953538046  1079   1.447086940132  1592   2.397783538774
    54 -11.323888781924   567   0.400405570896  1080   1.449506073882  1593   2.398442150199
    55 -11.322938963472   568   0.402656870430  1081   1.451764364779  1594   2.400274143953
    56 -11.322470894904   569   0.405168232835  1082   1.453328374277  1595   2.402801666201
    57 -11.322393113652   570   0.407700255703  1083   1.454128815439  1596   2.404207580568
    58 -11.321923218473   571   0.410449160837  1084   1.454963802776  1597   2.405903785170
    59 -11.320834954286   572   0.412575964423  1085   1.456651306407  1598   2.406492549126
    60 -11.315647857574   573   0.413472851809  1086   1.457387368273  1599   2.410837671832
    61 -11.295784836225   574   0.415809369197  1087   1.462245345285  1600   2.414455476677
    62 -11.290093165694   575   0.418772686159  1088   1.467645537208  1601   2.415934211189
    63 -11.289343931755   576   0.420395692413  1089   1.478926903093  1602   2.417631789335
    64 -11.287881294082   577   0.421301275607  1090   1.482940894718  1603   2.421126348513
    65 -11.286599348906   578   0.423074707826  1091   1.484012412904  1604   2.422637341141
    66 -11.281808927933   579   0.424185762193  1092   1.484887237318  1605   2.424796384633
    67 -11.279972950154   580   0.426468907286  1093   1.486121445118  1606   2.425886825106
    68 -11.279519323887   581   0.427216585466  1094   1.487337667173  1607   2.426738807621
    69 -11.279308109131   582   0.428126856307  1095   1.489084841544  1608   2.428603167764
    70 -11.279054176054   583   0.430373489715  1096   1.490220777396  1609   2.431955908011
    71 -11.278958356613   584   0.432619654353  1097   1.494558768760  1610   2.442080864970
    72 -11.278838046075   585   0.435925745647  1098   1.497132242685  1611   2.460052477708
    73 -11.278612624122   586   0.438311099746  1099   1.498528472376  1612   2.464623629782
    74 -11.278253964053   587   0.439672863369  1100   1.499488110062  1613   2.466737727767
    75 -11.276674023072   588   0.440578074556  1101   1.500718264752  1614   2.470159476639
    76 -11.275655554645   589   0.446564416647  1102   1.502210896574  1615   2.471347550509
    77 -11.274922928087   590   0.449121530793  1103   1.502845423593  1616   2.471500406154
    78 -11.274430180491   591   0.454225025247  1104   1.505748503284  1617   2.473396885040
    79 -11.274316411994   592   0.459332557022  1105   1.507785610548  1618   2.474235542147
    80 -11.273511789708   593   0.461477371504  1106   1.509633559022  1619   2.476210035972
    81 -11.273470495477   594   0.462500998047  1107   1.511152974688  1620   2.477244846562
    82 -11.273359348250   595   0.463030607111  1108   1.516876393981  1621   2.478733574064
    83 -11.273118727558   596   0.463766220193  1109   1.517627098372  1622   2.481119848125
    84 -11.272707152026   597   0.466261645301  1110   1.521858283091  1623   2.483284644213
    85 -11.272696658674   598   0.466605306518  1111   1.524519471861  1624   2.484566338960
    86 -11.272475708220   599   0.469760840231  1112   1.527365429178  1625   2.486935047948
    87 -11.272389849195   600   0.470124736043  1113   1.532835761705  1626   2.488408673619
    88 -11.272191915214   601   0.471977632254  1114   1.533697560329  1627   2.489473796673
    89 -11.271715097997   602   0.472447971928  1115   1.536134059755  1628   2.492353415342
    90 -11.271511834554   603   0.473968630613  1116   1.536919881839  1629   2.494075904080
    91 -11.271419035053   604   0.476005052811  1117   1.537918100871  1630   2.496120993404
    92 -11.271365840636   605   0.476722006677  1118   1.540741504423  1631   2.510712616279
    93 -11.270548128826   606   0.478103957019  1119   1.541885823861  1632   2.512195074899
    94 -11.270138828340   607   0.479459665862  1120   1.547668625660  1633   2.515388731378
    95 -11.269888769405   608   0.480037797697  1121   1.548588347550  1634   2.519556412710
    96 -11.269570557284   609   0.482069450385  1122   1.550713340845  1635   2.522761099887
    97 -11.269114064039   610   0.486542906205  1123   1.552038598389  1636   2.525029200988
    98 -11.268302736645   611   0.489055739434  1124   1.554063657877  1637   2.528619909156
    99 -11.267790011029   612   0.491209529901  1125   1.555397844983  1638   2.535567626727
   100 -11.265901522268   613   0.491808320921  1126   1.557264804047  1639   2.536207403539
   101 -11.256713310856   614   0.494320996579  1127   1.558342124197  1640   2.541264233085
   102 -11.253287018796   615   0.497408354892  1128   1.560078343426  1641   2.545230722955
   103 -11.251680264461   616   0.497895556544  1129   1.560551318981  1642   2.547596590184
   104 -11.250730936762   617   0.500775681291  1130   1.563090685029  1643   2.549665253919
   105 -11.250506026772   618   0.502298495048  1131   1.564576236255  1644   2.552196108567
   106 -11.250443048556   619   0.505180230793  1132   1.565859556092  1645   2.552411517126
   107 -11.250354336347   620   0.507166956393  1133   1.567243442650  1646   2.555834695612
   108 -11.249698367769   621   0.509788736782  1134   1.567658841892  1647   2.557889755305
   109 -11.248832943034   622   0.513069537139  1135   1.569226254476  1648   2.560211801330
   110 -11.205975719713   623   0.514310958069  1136   1.569549276942  1649   2.563991375707
   111  -1.420245066227   624   0.515168761128  1137   1.570957053742  1650   2.568510315155
   112  -1.412967109237   625   0.520627056383  1138   1.578477503472  1651   2.568906377425
   113  -1.411377321748   626   0.529233625402  1139   1.579963061285  1652   2.581582780143
   114  -1.409833995305   627   0.530665919258  1140   1.580912546745  1653   2.582848546671
   115  -1.408141688305   628   0.532368999442  1141   1.585530529739  1654   2.587941985150
   116  -1.406881069759   629   0.534507662327  1142   1.591471466673  1655   2.589709618969
   117  -1.404796407150   630   0.536352904441  1143   1.591867066361  1656   2.592704944834
   118  -1.402434768933   631   0.537502841801  1144   1.593725094253  1657   2.594941726427
   119  -1.400189685423   632   0.538125933422  1145   1.595382447533  1658   2.598519961270
   120  -1.397251969087   633   0.538904493487  1146   1.596053140906  1659   2.599706908736
   121  -1.360047436517   634   0.541103056744  1147   1.598607170460  1660   2.603821424942
   122  -1.355525995780   635   0.548464126649  1148   1.599457379591  1661   2.604959222468
   123  -1.353577095031   636   0.554057759123  1149   1.601673472279  1662   2.609032918581
   124  -1.351670642692   637   0.555470470206  1150   1.602191882672  1663   2.612426146711
   125  -1.349690758992   638   0.556419956347  1151   1.604729161071  1664   2.613017567023
   126  -1.348130562949   639   0.557186612951  1152   1.605597744475  1665   2.613119021065
   127  -1.347195092932   640   0.559271877790  1153   1.606940664453  1666   2.614734348989
   128  -1.346907439360   641   0.562584317878  1154   1.607669035453  1667   2.615628887093
   129  -1.346346965971   642   0.566490478555  1155   1.609724401374  1668   2.616201333406
   130  -1.344592986912   643   0.568773170396  1156   1.611479143689  1669   2.617367261568
   131  -1.341532463048   644   0.571956204479  1157   1.612380147687  1670   2.619248534107
   132  -1.339678949075   645   0.580995828969  1158   1.613608899401  1671   2.621856133804
   133  -1.338786450858   646   0.584730778265  1159   1.616486683647  1672   2.631758669165
   134  -1.337876251061   647   0.586498527339  1160   1.618028619859  1673   2.635898456359
   135  -1.336657194832   648   0.587947256838  1161   1.620491435804  1674   2.637694035097
   136  -1.334408651381   649   0.590147656010  1162   1.622048070516  1675   2.640019048881
   137  -1.331786751731   650   0.591533533368  1163   1.624197737348  1676   2.641713544950
   138  -1.329985998350   651   0.593754713180  1164   1.625721114402  1677   2.644518704651
   139  -1.328704130316   652   0.594832359376  1165   1.628675443345  1678   2.647094887500
   140  -1.326608082774   653   0.645149830164  1166   1.632160113823  1679   2.653370306508
   141  -1.324371693210   654   0.650845717536  1167   1.635325268973  1680   2.657567877497
   142  -1.321756024010   655   0.652931686199  1168   1.637421013445  1681   2.666560576868
   143  -1.320872001709   656   0.655237714000  1169   1.639872505182  1682   2.676694078966
   144  -1.319762235657   657   0.657279840077  1170   1.642612696146  1683   2.683628909519
   145  -1.319054595734   658   0.659508916539  1171   1.644592936620  1684   2.686719568606
   146  -1.318844231427   659   0.661499823014  1172   1.646349253357  1685   2.691545866019
   147  -1.318478539731   660   0.662952530859  1173   1.647359852013  1686   2.698242569085
   148  -1.317909473140   661   0.663969866781  1174   1.648317805865  1687   2.705622987189
   149  -1.316214842095   662   0.665121981919  1175   1.648998320923  1688   2.712503537249
   150  -1.312505887383   663   0.666636461566  1176   1.649213413154  1689   2.717600201512
   151  -1.308215476672   664   0.668905091910  1177   1.649629403790  1690   2.719709029686
   152  -1.305208879196   665   0.670598153427  1178   1.651094357263  1691   2.720879832807
   153  -1.301804472329   666   0.672749055288  1179   1.656508000724  1692   2.722863349712
   154  -1.299938468210   667   0.674279942982  1180   1.659363052922  1693   2.724816046979
   155  -1.299451218808   668   0.674862500190  1181   1.661155693993  1694   2.729224587473
   156  -1.299154935062   669   0.675904189121  1182   1.663445086382  1695   2.734693196515
   157  -1.298635707104   670   0.676319087380  1183   1.666510938466  1696   2.739345103109
   158  -1.298411740455   671   0.678151507034  1184   1.669483803351  1697   2.741978861531
   159  -1.297061752225   672   0.678480173239  1185   1.672913736819  1698   2.744202010075
   160  -1.296233480415   673   0.680169516929  1186   1.673632095604  1699   2.744486320296
   161  -1.074619306282   674   0.684525999445  1187   1.677076455989  1700   2.751341890547
   162  -1.063940192576   675   0.686571314789  1188   1.678559459699  1701   2.754110589277
   163  -1.060404815494   676   0.688416252410  1189   1.679989261402  1702   2.755192005512
   164  -1.059116703090   677   0.689007372924  1190   1.680766390729  1703   2.760347918323
   165  -1.058577143985   678   0.689729399256  1191   1.683034327044  1704   2.761457342692
   166  -1.057881484054   679   0.690888981112  1192   1.686001139617  1705   2.762494613926
   167  -1.057335196255   680   0.691578557920  1193   1.688468807822  1706   2.763325402807
   168  -1.056610372040   681   0.692802914297  1194   1.689343406427  1707   2.764064827288
   169  -1.055300246441   682   0.694578867239  1195   1.691615020341  1708   2.765299932805
   170  -1.052807117697   683   0.696243063105  1196   1.693752971524  1709   2.767925743141
   171  -1.036270877488   684   0.697419642630  1197   1.696644145276  1710   2.770252079862
   172  -1.026457940387   685   0.698003221366  1198   1.697188811710  1711   2.783056853028
   173  -1.022128411586   686   0.700894645500  1199   1.699120939895  1712   2.791120995265
   174  -1.020511740710   687   0.703821527691  1200   1.699767919019  1713   2.793863000355
   175  -1.018426631106   688   0.707553491176  1201   1.702446886565  1714   2.795082739401
   176  -1.015978138377   689   0.711405272108  1202   1.704832916642  1715   2.796838631418
   177  -1.013472354200   690   0.714526470519  1203   1.705632394742  1716   2.799430522448
   178  -1.011048810850   691   0.717095179146  1204   1.709382539527  1717   2.800105487955
   179  -1.008987670480   692   0.717605999477  1205   1.710662640181  1718   2.801442711737
   180  -1.006264041119   693   0.720995683551  1206   1.712312978806  1719   2.803010356119
   181  -0.950155986893   694   0.723672643363  1207   1.713652319467  1720   2.803680025939
   182  -0.943027411010   695   0.725471729266  1208   1.715166141364  1721   2.811564494364
   183  -0.941256555012   696   0.725789111360  1209   1.716305278349  1722   2.816811390721
   184  -0.938977663065   697   0.727112840902  1210   1.717010291116  1723   2.817980732868
   185  -0.936335398010   698   0.728286772742  1211   1.719954188679  1724   2.820171921720
   186  -0.933192638242   699   0.730408381765  1212   1.720841212107  1725   2.823387291156
   187  -0.929616435979   700   0.731983390427  1213   1.722931876795  1726   2.826588315735
   188  -0.925755519190   701   0.733727412376  1214   1.723439083662  1727   2.829465132792
   189  -0.921686250075   702   0.735070686685  1215   1.726620834363  1728   2.832150468457
   190  -0.918409210544   703   0.737341644075  1216   1.728764557697  1729   2.834552588188
   191  -0.881805005840   704   0.738629380404  1217   1.731518105292  1730   2.836615687036
   192  -0.875897291534   705   0.739258888668  1218   1.732269495520  1731   2.856057457895
   193  -0.870889687037   706   0.744815984256  1219   1.733992453206  1732   2.858653080879
   194  -0.864981226553   707   0.747036997249  1220   1.735735599536  1733   2.865121686377
   195  -0.858844426433   708   0.748495968330  1221   1.737567202177  1734   2.868731779542
   196  -0.852754108038   709   0.750580992697  1222   1.738395744569  1735   2.872651049825
   197  -0.848308348063   710   0.750889689368  1223   1.739953577996  1736   2.873544963560
   198  -0.845837545291   711   0.753173773300  1224   1.740426425385  1737   2.875975174425
   199  -0.841067992551   712   0.753477706484  1225   1.741696463276  1738   2.877954315258
   200  -0.837534368320   713   0.754742196158  1226   1.742909015976  1739   2.879078652931
   201  -0.836055431102   714   0.757120119891  1227   1.744908418259  1740   2.880047289119
   202  -0.833595563013   715   0.757739504190  1228   1.746247124410  1741   2.880589567763
   203  -0.832389395676   716   0.759708127506  1229   1.748862716655  1742   2.886489311714
   204  -0.830997914656   717   0.760525573451  1230   1.750488596114  1743   2.893681260288
   205  -0.830270541426   718   0.761254036271  1231   1.751164192597  1744   2.895542040814
   206  -0.829991755421   719   0.763011905765  1232   1.753894317533  1745   2.897753409795
   207  -0.829664435892   720   0.763556672922  1233   1.758650391497  1746   2.899657915643
   208  -0.829129878428   721   0.764679393960  1234   1.760376308049  1747   2.900984000505
   209  -0.827748867149   722   0.765425823204  1235   1.763742417069  1748   2.903843931278
   210  -0.821838107852   723   0.766302014360  1236   1.764661270787  1749   2.907278813892
   211  -0.791483641963   724   0.767029846088  1237   1.765548617747  1750   2.915466408704
   212  -0.784594053986   725   0.769803086052  1238   1.766503611702  1751   2.915817917164
   213  -0.780417502034   726   0.771773737309  1239   1.767426055130  1752   2.929117922429
   214  -0.778780141011   727   0.774933465962  1240   1.768586632596  1753   2.937602660374
   215  -0.778152576941   728   0.776744965131  1241   1.769047320390  1754   2.939234226098
   216  -0.777489408675   729   0.779757614756  1242   1.770206348681  1755   2.945626873123
   217  -0.776504927416   730   0.780547414093  1243   1.771687425354  1756   2.946454335166
   218  -0.775011164025   731   0.781682313773  1244   1.774417484341  1757   2.950385889550
   219  -0.773435047712   732   0.782852302853  1245   1.780115868118  1758   2.951617460072
   220  -0.764118342639   733   0.783977835188  1246   1.783342179819  1759   2.952885604872
   221  -0.723477826142   734   0.785503454523  1247   1.785498341662  1760   2.953620681730
   222  -0.715040960648   735   0.786633978799  1248   1.786470531024  1761   2.953836241955
   223  -0.710379517571   736   0.789607200395  1249   1.790850973872  1762   2.955179800615
   224  -0.708268284159   737   0.790299407721  1250   1.792349266399  1763   2.956171373119
   225  -0.706383851762   738   0.791232032618  1251   1.793133650093  1764   2.959271536119
   226  -0.706058580706   739   0.793492617302  1252   1.794377031968  1765   2.969131563342
   227  -0.704677411218   740   0.794676396391  1253   1.794816630112  1766   2.976983456389
   228  -0.704016747268   741   0.798617427772  1254   1.795753747017  1767   2.979755633771
   229  -0.703021295305   742   0.799210432962  1255   1.797891468960  1768   2.985537543650
   230  -0.702876431157   743   0.803085459745  1256   1.799496608208  1769   2.988468304527
   231  -0.701825781590   744   0.804122844639  1257   1.800315635516  1770   2.988699948289
   232  -0.698090746544   745   0.805392550985  1258   1.801359201156  1771   2.999174497686
   233  -0.697079638614   746   0.806685815422  1259   1.803705814300  1772   3.004075895928
   234  -0.696526162355   747   0.808198853964  1260   1.805077377865  1773   3.004402332757
   235  -0.695055621243   748   0.809296552397  1261   1.806705494104  1774   3.009746299443
   236  -0.694507938545   749   0.810151917942  1262   1.808703194418  1775   3.010746485030
   237  -0.693833213816   750   0.811676498319  1263   1.811987644822  1776   3.014217726686
   238  -0.693249207571   751   0.812697068230  1264   1.814329217073  1777   3.015787427583
   239  -0.691920907469   752   0.813443130802  1265   1.820177443519  1778   3.019160616500
   240  -0.691318904843   753   0.814334153867  1266   1.823474081543  1779   3.020829289930
   241  -0.690355497467   754   0.816769938912  1267   1.827351725844  1780   3.024449871913
   242  -0.688984628536   755   0.820686363472  1268   1.828081009076  1781   3.036578205720
   243  -0.687335290926   756   0.821761147188  1269   1.829446469765  1782   3.045476893733
   244  -0.685318251687   757   0.824963873175  1270   1.835578945134  1783   3.049915786446
   245  -0.684611915679   758   0.826741422818  1271   1.835947914932  1784   3.051270472352
   246  -0.681697201091   759   0.828502896792  1272   1.837345742008  1785   3.053502659129
   247  -0.680077322085   760   0.830035549584  1273   1.838696767443  1786   3.059496616688
   248  -0.676448825829   761   0.832885166263  1274   1.841114090741  1787   3.065860463388
   249  -0.675144239189   762   0.834901667999  1275   1.844101918477  1788   3.072259450520
   250  -0.674482938849   763   0.836413761278  1276   1.847343172694  1789   3.077827145693
   251  -0.672316178137   764   0.837455952281  1277   1.849158008657  1790   3.081599668376
   252  -0.670826507056   765   0.839830431822  1278   1.852244548011  1791   3.105064376598
   253  -0.668275217362   766   0.840769699866  1279   1.852667538362  1792   3.117404758349
   254  -0.667046230345   767   0.840879572548  1280   1.854580008716  1793   3.120924975773
   255  -0.664259992737   768   0.842656428746  1281   1.856779575321  1794   3.122736513603
   256  -0.662551149843   769   0.843812792698  1282   1.858712219057  1795   3.123888450280
   257  -0.661235710192   770   0.844735849624  1283   1.860558772293  1796   3.124918786287
   258  -0.660018508008   771   0.845733940904  1284   1.862635176593  1797   3.125996205305
   259  -0.659641157822   772   0.846697889144  1285   1.866336584421  1798   3.127569663879
   260  -0.657716394240   773   0.848111916829  1286   1.869528499154  1799   3.129265960390
   261  -0.657215993339   774   0.848289440529  1287   1.871272642183  1800   3.131244796635
   262  -0.654256896915   775   0.849587271373  1288   1.873045216724  1801   3.143695226774
   263  -0.653660800227   776   0.851148856242  1289   1.875511154486  1802   3.151428515035
   264  -0.650177971800   777   0.851684469786  1290   1.876509337222  1803   3.154524410974
   265  -0.649644297731   778   0.852445082446  1291   1.877832780288  1804   3.157410093508
   266  -0.647499725407   779   0.852794778477  1292   1.879364940634  1805   3.160882168493
   267  -0.645415213394   780   0.854263029746  1293   1.880876452300  1806   3.164885893477
   268  -0.643396153268   781   0.854550506734  1294   1.881623496355  1807   3.168949248779
   269  -0.639669273842   782   0.855419551805  1295   1.884381450647  1808   3.172653774416
   270  -0.637871695010   783   0.856022036813  1296   1.886964839887  1809   3.175779530758
   271  -0.637256278966   784   0.856908906150  1297   1.887568906902  1810   3.178408600164
   272  -0.632025575803   785   0.857329096685  1298   1.889273529343  1811   3.192332401036
   273  -0.627515775862   786   0.857827422549  1299   1.891031205004  1812   3.196685404607
   274  -0.625223914373   787   0.859165071165  1300   1.891837881472  1813   3.201097062196
   275  -0.625006791974   788   0.860300226500  1301   1.893697576534  1814   3.202817828443
   276  -0.624345154201   789   0.861704314679  1302   1.895621997738  1815   3.203381797425
   277  -0.623682387303   790   0.862799737248  1303   1.896937868064  1816   3.203764487078
   278  -0.623247869086   791   0.862942283980  1304   1.898551607202  1817   3.204069230802
   279  -0.622901493320   792   0.864373962490  1305   1.899931730118  1818   3.204806395974
   280  -0.622147351889   793   0.866263407212  1306   1.901086780133  1819   3.206597032979
   281  -0.619255516696   794   0.869688330685  1307   1.902138369290  1820   3.211422142783
   282  -0.614997658647   795   0.872597869783  1308   1.902337993336  1821   3.218899581037
   283  -0.613325427244   796   0.873162834354  1309   1.903648194776  1822   3.225242744948
   284  -0.612133430174   797   0.874239862881  1310   1.904232547119  1823   3.229100282511
   285  -0.611146988673   798   0.876753358972  1311   1.904972529624  1824   3.232542987984
   286  -0.610575707260   799   0.878380628402  1312   1.906272093885  1825   3.233299718507
   287  -0.607793559011   800   0.879908916495  1313   1.906609960126  1826   3.233811206053
   288  -0.605066851545   801   0.880742044798  1314   1.908180406199  1827   3.234653713144
   289  -0.604016008935   802   0.881298168764  1315   1.910545072732  1828   3.235592606077
   290  -0.601262270116   803   0.881522041804  1316   1.913279343899  1829   3.236328026186
   291  -0.599024224226   804   0.882028543353  1317   1.914746671950  1830   3.237035775226
   292  -0.598435061429   805   0.882402541712  1318   1.916360677246  1831   3.238789992103
   293  -0.595999518837   806   0.885834697491  1319   1.917735100947  1832   3.241306386571
   294  -0.593397526032   807   0.887617180127  1320   1.918474233885  1833   3.247386326952
   295  -0.592282118423   808   0.888374270938  1321   1.918897305218  1834   3.250187085390
   296  -0.586896901794   809   0.889320002830  1322   1.920307298799  1835   3.251642086780
   297  -0.585400623681   810   0.890866798710  1323   1.921277566746  1836   3.252394991626
   298  -0.583037729332   811   0.892852727833  1324   1.922131569490  1837   3.252929951156
   299  -0.581964497587   812   0.894130632781  1325   1.924312423747  1838   3.253523999350
   300  -0.580874382842   813   0.894850561167  1326   1.925452775427  1839   3.254322503856
   301  -0.580344406582   814   0.895815991868  1327   1.926952724929  1840   3.255320046617
   302  -0.578318631171   815   0.897037784440  1328   1.929583361635  1841   3.258148938095
   303  -0.577232300350   816   0.898227645125  1329   1.930135807581  1842   3.259260658766
   304  -0.575361824315   817   0.898842917128  1330   1.931721865595  1843   3.262225113366
   305  -0.575167214008   818   0.902555003699  1331   1.932092555299  1844   3.264805888771
   306  -0.573767183931   819   0.903774596541  1332   1.934866366662  1845   3.266935340282
   307  -0.572031376972   820   0.904141134949  1333   1.938037694898  1846   3.268617167952
   308  -0.570343759919   821   0.904331335556  1334   1.938544371071  1847   3.268959654386
   309  -0.568916944051   822   0.904614510796  1335   1.939572990053  1848   3.269899964219
   310  -0.567194879035   823   0.904861446852  1336   1.942990772924  1849   3.270942714642
   311  -0.566759327129   824   0.905878436247  1337   1.945212854057  1850   3.271648583978
   312  -0.566046213145   825   0.906100949425  1338   1.946315940800  1851   3.272915584355
   313  -0.565222576423   826   0.908039411127  1339   1.947619859789  1852   3.297180921514
   314  -0.564577770335   827   0.909445676453  1340   1.947897313425  1853   3.302087302423
   315  -0.563536803813   828   0.910021925192  1341   1.949719350261  1854   3.304878757042
   316  -0.562855870410   829   0.910498949604  1342   1.950180884828  1855   3.308036058788
   317  -0.559666249787   830   0.911380944324  1343   1.950984404442  1856   3.310658008236
   318  -0.554949025796   831   0.912003456895  1344   1.951644415293  1857   3.313337866051
   319  -0.552467974991   832   0.912264279023  1345   1.955265878910  1858   3.315912961751
   320  -0.551444694652   833   0.913840074674  1346   1.956987301966  1859   3.318624010877
   321  -0.548059542959   834   0.914097196286  1347   1.958685350511  1860   3.320958023622
   322  -0.544009470135   835   0.915751240690  1348   1.960252989726  1861   3.329666750497
   323  -0.540444460641   836   0.917543391802  1349   1.960902210707  1862   3.333509025081
   324  -0.540252461639   837   0.918884280054  1350   1.963240283967  1863   3.338631659705
   325  -0.539489455772   838   0.920565623173  1351   1.967145822877  1864   3.339057734214
   326  -0.538157392896   839   0.922328067754  1352   1.968607885422  1865   3.340089002766
   327  -0.537436341081   840   0.923674315380  1353   1.969780174301  1866   3.341554434439
   328  -0.537052722557   841   0.924139401283  1354   1.971341922649  1867   3.343675485667
   329  -0.536656567582   842   0.925235096297  1355   1.971478209293  1868   3.345469036177
   330  -0.535758127280   843   0.927646495896  1356   1.973188808183  1869   3.346455536162
   331  -0.535270472934   844   0.928543771557  1357   1.974469217300  1870   3.346851987074
   332  -0.533597349628   845   0.929758209440  1358   1.976462588733  1871   3.348635042877
   333  -0.532322101985   846   0.931435837868  1359   1.977597149662  1872   3.351125187195
   334  -0.529413025065   847   0.931583274658  1360   1.979135490836  1873   3.352396627789
   335  -0.526525451091   848   0.931723735406  1361   1.980047441651  1874   3.353378034454
   336  -0.524485629163   849   0.932962743443  1362   1.981042632120  1875   3.355542984276
   337  -0.522449327514   850   0.934069805194  1363   1.983881445634  1876   3.356275679234
   338  -0.521347391036   851   0.935501386311  1364   1.986387609754  1877   3.359103824830
   339  -0.520065335624   852   0.935876075833  1365   1.988382278463  1878   3.362001371328
   340  -0.517815843275   853   0.937994527946  1366   1.991038795829  1879   3.363935923399
   341  -0.513787517089   854   0.938398415395  1367   1.991322832559  1880   3.372039703764
   342  -0.513133643032   855   0.939423938148  1368   1.993817437633  1881   3.375931623325
   343  -0.510477349999   856   0.940549586207  1369   1.994823295591  1882   3.387550609405
   344  -0.508935312549   857   0.941711349251  1370   1.998429517492  1883   3.390440055706
   345  -0.506855507467   858   0.942268232132  1371   2.002111156367  1884   3.392151486971
   346  -0.505559833765   859   0.943570162556  1372   2.004486360019  1885   3.394494199020
   347  -0.504861391134   860   0.945728530129  1373   2.004814341783  1886   3.397260417724
   348  -0.504374839174   861   0.947412697208  1374   2.007902804832  1887   3.400385225552
   349  -0.503860227384   862   0.948423539409  1375   2.009838611513  1888   3.403876624171
   350  -0.503076810209   863   0.948826020502  1376   2.011879214116  1889   3.406562527429
   351  -0.499889134061   864   0.951617250950  1377   2.013454222148  1890   3.407357580927
   352  -0.499752017346   865   0.954038056835  1378   2.014823286545  1891   3.411269819557
   353  -0.497960506981   866   0.954341154600  1379   2.015767399395  1892   3.415557556919
   354  -0.497574426255   867   0.958189275897  1380   2.017813829802  1893   3.418197737744
   355  -0.494902348196   868   0.963398214084  1381   2.018225500475  1894   3.420748247127
   356  -0.492609266451   869   0.963586664120  1382   2.021155924213  1895   3.422762483138
   357  -0.491794775715   870   0.964597020376  1383   2.023091018862  1896   3.424469999583
   358  -0.491269817361   871   0.965239281875  1384   2.024217001068  1897   3.425882830043
   359  -0.490922030754   872   0.967295523754  1385   2.025720708728  1898   3.426960673323
   360  -0.490229050342   873   0.970012977756  1386   2.026574031467  1899   3.427577955846
   361  -0.489391474379   874   0.971207055134  1387   2.028907179478  1900   3.428565455542
   362  -0.488153579180   875   0.972831372618  1388   2.029942767583  1901   3.432279787037
   363  -0.486344345042   876   0.973067140490  1389   2.031440932370  1902   3.435215813464
   364  -0.484838873211   877   0.975191914047  1390   2.037830030140  1903   3.436900753833
   365  -0.484188988247   878   0.975956134327  1391   2.040386176317  1904   3.442499942740
   366  -0.484109366466   879   0.976816931133  1392   2.042861119539  1905   3.445564611821
   367  -0.482758337639   880   0.977663297160  1393   2.043401689280  1906   3.446933786419
   368  -0.480499617192   881   0.977804542088  1394   2.044566255224  1907   3.447354096157
   369  -0.477568318293   882   0.982383861578  1395   2.045484315475  1908   3.447922626682
   370  -0.474843033791   883   0.985937502847  1396   2.045970768893  1909   3.448580649934
   371  -0.473937654395   884   0.990168354383  1397   2.047771343746  1910   3.448959628856
   372  -0.470656319499   885   0.993339954565  1398   2.048234048360  1911   3.450182178032
   373  -0.468731050524   886   0.998008164137  1399   2.049197193634  1912   3.459376063897
   374  -0.465869128264   887   1.001095174923  1400   2.051444605142  1913   3.462009370323
   375  -0.464782467459   888   1.002992358852  1401   2.053720050024  1914   3.462617970708
   376  -0.463936740355   889   1.009007396184  1402   2.055242755957  1915   3.464181622126
   377  -0.462809373113   890   1.011220414910  1403   2.056891452398  1916   3.468130780962
   378  -0.461439891571   891   1.012517751829  1404   2.057043325185  1917   3.473353474643
   379  -0.459845694478   892   1.014551955581  1405   2.057645211360  1918   3.479224751762
   380  -0.458120296510   893   1.016765359650  1406   2.058902790503  1919   3.484705659326
   381  -0.456747661850   894   1.017610358687  1407   2.060321685354  1920   3.487492304092
   382  -0.456145418551   895   1.019065766297  1408   2.061235947632  1921   3.491792949899
   383  -0.455592197005   896   1.019529451469  1409   2.063513422625  1922   3.498721952262
   384  -0.453681869661   897   1.020463736129  1410   2.070574221847  1923   3.500832110874
   385  -0.453098830250   898   1.024126964731  1411   2.075303513648  1924   3.504227202707
   386  -0.452565141466   899   1.029307268748  1412   2.075755163838  1925   3.505831102789
   387  -0.451986125212   900   1.032378550571  1413   2.078238307899  1926   3.508006938577
   388  -0.451605785514   901   1.034357227986  1414   2.080329799246  1927   3.511930603059
   389  -0.451263987673   902   1.036363275397  1415   2.081834804916  1928   3.514106678974
   390  -0.450575091807   903   1.038673880681  1416   2.083474672102  1929   3.516105369762
   391  -0.449773663592   904   1.039776568246  1417   2.085737676676  1930   3.517562295969
   392  -0.448044157406   905   1.041843951874  1418   2.087667000045  1931   3.519259442253
   393  -0.446173067263   906   1.043766657839  1419   2.090994703381  1932   3.520415611943
   394  -0.441065900356   907   1.047972354595  1420   2.091138491469  1933   3.521899532914
   395  -0.438858221917   908   1.051325916827  1421   2.095639714465  1934   3.522775158693
   396  -0.436472470401   909   1.053705262637  1422   2.097913145884  1935   3.525249697323
   397  -0.434335817161   910   1.054342702397  1423   2.099685134986  1936   3.525539410892
   398  -0.432610424522   911   1.055031874634  1424   2.102248336804  1937   3.528539102533
   399  -0.431393967960   912   1.059626367112  1425   2.104450297714  1938   3.531326296850
   400  -0.430589308887   913   1.066770175390  1426   2.105740858216  1939   3.533904606985
   401  -0.429067542199   914   1.069291133115  1427   2.110091751245  1940   3.536391600618
   402  -0.428909168994   915   1.072912853262  1428   2.111395598395  1941   3.544421722877
   403  -0.422427134403   916   1.076172059287  1429   2.115826583941  1942   3.588180535726
   404  -0.419798398983   917   1.079291404549  1430   2.116163115171  1943   3.592447721563
   405  -0.417866643676   918   1.081181521909  1431   2.121088998569  1944   3.597840458048
   406  -0.417296515373   919   1.085121085129  1432   2.121610510304  1945   3.603239179984
   407  -0.415786501379   920   1.088825537054  1433   2.125029981859  1946   3.608186273549
   408  -0.414406314985   921   1.093536584941  1434   2.126255551183  1947   3.612040993126
   409  -0.412928509007   922   1.100109062332  1435   2.128109103549  1948   3.615070458596
   410  -0.412636057523   923   1.107753030398  1436   2.128697947032  1949   3.617178361388
   411  -0.411262985807   924   1.115046261354  1437   2.130044624327  1950   3.618675196247
   412  -0.411053534591   925   1.118844269696  1438   2.131259989434  1951   3.624329692354
   413  -0.410475330415   926   1.121962262551  1439   2.132053723783  1952   3.637369124653
   414  -0.409749363253   927   1.125416409278  1440   2.133389165920  1953   3.641462110983
   415  -0.409131344504   928   1.129807810593  1441   2.136409300372  1954   3.644022384126
   416  -0.408128983610   929   1.132739073339  1442   2.136632039616  1955   3.647204120667
   417  -0.406171841060   930   1.134102658879  1443   2.138619219412  1956   3.648025467804
   418  -0.404725683412   931   1.139500750510  1444   2.139583427544  1957   3.649045893628
   419  -0.403398183838   932   1.143080627912  1445   2.141501297383  1958   3.650502005973
   420  -0.402184096469   933   1.144549308033  1446   2.142400844552  1959   3.651974755154
   421  -0.400301408579   934   1.146790651638  1447   2.144812953583  1960   3.652142637109
   422  -0.399020487918   935   1.147567394757  1448   2.145407058809  1961   3.653554233206
   423  -0.398481656213   936   1.154949685710  1449   2.147895410938  1962   3.656674974862
   424  -0.397390566413   937   1.161219102156  1450   2.149247546664  1963   3.658263204384
   425  -0.396140057650   938   1.166717164486  1451   2.150600039740  1964   3.661821208108
   426  -0.395620837103   939   1.171195814173  1452   2.151966739431  1965   3.666517354592
   427  -0.394187610436   940   1.172777701800  1453   2.154721095793  1966   3.671874672545
   428  -0.393226343253   941   1.173811775096  1454   2.156389190289  1967   3.677530750518
   429  -0.391904343050   942   1.175086536195  1455   2.157932109481  1968   3.682961253781
   430  -0.389637921145   943   1.178188882205  1456   2.159267183714  1969   3.687211368412
   431  -0.384867810632   944   1.180215138177  1457   2.161026747115  1970   3.690202865831
   432   0.142211356837   945   1.181497187805  1458   2.162022202644  1971   3.690843536446
   433   0.147048558917   946   1.183951216152  1459   2.162764477134  1972   3.691674961509
   434   0.147999374037   947   1.186830024855  1460   2.165415425208  1973   3.696244845212
   435   0.149415664718   948   1.187362802598  1461   2.166125701303  1974   3.699659308097
   436   0.151008409049   949   1.191143442331  1462   2.167974388499  1975   3.700851179049
   437   0.152747433654   950   1.191520639395  1463   2.168506716882  1976   3.705226829310
   438   0.153758180061   951   1.195304225389  1464   2.170203143317  1977   3.707155051946
   439   0.154644913492   952   1.196664252751  1465   2.170531509363  1978   3.708070710360
   440   0.156162491681   953   1.197731704196  1466   2.171405791527  1979   3.709383501224
   441   0.157860683923   954   1.199511648833  1467   2.172953076865  1980   3.710703398270
   442   0.158497831512   955   1.203761412153  1468   2.173902645021  1981   3.711594326572
   443   0.164637922198   956   1.205490836903  1469   2.174893415379  1982   3.712061394059
   444   0.167979940889   957   1.208821007749  1470   2.175905320424  1983   3.713756542387
   445   0.169677453520   958   1.210547918655  1471   2.177641071186  1984   3.714414384334
   446   0.172222363195   959   1.212245157239  1472   2.180519731467  1985   3.715773185953
   447   0.175068835616   960   1.213188379965  1473   2.181421224363  1986   3.719119709683
   448   0.175956195722   961   1.215483250032  1474   2.181899171406  1987   3.721412327847
   449   0.178422270768   962   1.216811205571  1475   2.183181235626  1988   3.722563276177
   450   0.181554225543   963   1.218561021682  1476   2.183356120614  1989   3.723860180361
   451   0.184452005123   964   1.220308524188  1477   2.183897193124  1990   3.733764906025
   452   0.185441657020   965   1.221935427634  1478   2.184178403703  1991   3.750192673407
   453   0.186859100474   966   1.223072467258  1479   2.185765195378  1992   3.754294671079
   454   0.187725962183   967   1.224585748607  1480   2.191525578148  1993   3.763521409894
   455   0.188182370359   968   1.225595173485  1481   2.191858180187  1994   3.767242081430
   456   0.189397845256   969   1.227924036288  1482   2.196220280292  1995   3.768401334562
   457   0.190369893763   970   1.229016687788  1483   2.197241339804  1996   3.769548321685
   458   0.191617853102   971   1.230053631232  1484   2.197828861536  1997   3.771301467912
   459   0.192473756767   972   1.230272293851  1485   2.201257133528  1998   3.773432641866
   460   0.193079450828   973   1.230898411854  1486   2.202162364252  1999   3.775149450622
   461   0.194091300884   974   1.231518829671  1487   2.203468127133  2000   3.779953788065
   462   0.196113299524   975   1.233664379864  1488   2.204898919601  2001   3.799262045203
   463   0.202549435413   976   1.238440041961  1489   2.206283780279  2002   3.832799914731
   464   0.208434097642   977   1.242580954598  1490   2.207681401717  2003   3.835850646940
   465   0.208788348252   978   1.243476293742  1491   2.208334998346  2004   3.839545320342
   466   0.210371838362   979   1.246833936862  1492   2.208895704920  2005   3.843076326708
   467   0.213781628586   980   1.248971219747  1493   2.209469084813  2006   3.846007180301
   468   0.217820738086   981   1.250996580191  1494   2.210721781259  2007   3.848153369428
   469   0.220347798761   982   1.252210099639  1495   2.212453704395  2008   3.849720593953
   470   0.224796726253   983   1.253824832162  1496   2.214286834396  2009   3.851241821472
   471   0.225915980437   984   1.254598851622  1497   2.214956020631  2010   3.855936733214
   472   0.229678691178   985   1.255803968413  1498   2.215763482593  2011   3.878817542726
   473   0.231759798816   986   1.256659381522  1499   2.217267188284  2012   3.894835434031
   474   0.232906374961   987   1.257210692726  1500   2.218266903519  2013   3.897373815528
   475   0.234158543604   988   1.257497295652  1501   2.218972909059  2014   3.898815300131
   476   0.234674261874   989   1.258278688334  1502   2.219509281047  2015   3.900727752728
   477   0.235081571567   990   1.259179367894  1503   2.222938237809  2016   3.902292283544
   478   0.235570600124   991   1.259918273303  1504   2.225826002175  2017   3.903927092779
   479   0.236735410618   992   1.262672471265  1505   2.228606583558  2018   3.905396483015
   480   0.239432223162   993   1.265889198364  1506   2.230542297482  2019   3.906361963594
   481   0.240068988450   994   1.267937352191  1507   2.231563510896  2020   3.932656949177
   482   0.242871401714   995   1.268872219706  1508   2.233654872202  2021   3.951067523153
   483   0.245840188555   996   1.268978588904  1509   2.234673028004  2022   3.953753948706
   484   0.249170218795   997   1.270844996889  1510   2.235438759476  2023   3.955127767245
   485   0.250059451913   998   1.273648187727  1511   2.236625105020  2024   3.956183689769
   486   0.251103389501   999   1.277920422627  1512   2.237995226080  2025   3.957065298263
   487   0.251316340627  1000   1.282810038585  1513   2.238438832203  2026   3.958473402002
   488   0.252434333384  1001   1.287918507397  1514   2.240148493628  2027   3.959951790357
   489   0.254470288202  1002   1.291921525100  1515   2.240687960830  2028   3.961628855548
   490   0.257170505764  1003   1.293591258704  1516   2.241080287671  2029   3.963421497823
   491   0.260841779602  1004   1.297983983043  1517   2.243172978504  2030   3.966116559770
   492   0.264819945734  1005   1.299526611630  1518   2.243681439047  2031   3.982688519070
   493   0.266701886881  1006   1.301267324428  1519   2.246075415668  2032   3.985945754390
   494   0.270453505952  1007   1.301970999716  1520   2.246483368112  2033   3.986480335593
   495   0.274238624222  1008   1.302686481836  1521   2.248589799890  2034   3.987851229895
   496   0.275549131128  1009   1.303551059255  1522   2.250381531112  2035   3.988108225093
   497   0.277718435147  1010   1.304517815374  1523   2.252868403027  2036   3.989358202113
   498   0.278687227702  1011   1.306086011129  1524   2.254070249282  2037   3.990759057729
   499   0.279784128968  1012   1.307651555405  1525   2.254917178554  2038   3.991906798284
   500   0.281021209138  1013   1.311085673552  1526   2.256089092737  2039   3.994138655499
   501   0.281830642683  1014   1.311154801816  1527   2.256702895578  2040   3.995736716452
   502   0.284521502496  1015   1.314792567271  1528   2.257855464129  2041   4.020115102712
   503   0.284657855690  1016   1.318262567700  1529   2.259797269057  2042   4.025622458676
   504   0.289018290487  1017   1.321361421553  1530   2.259994771595  2043   4.028967672624
   505   0.290862375670  1018   1.328402918956  1531   2.260808377978  2044   4.030778002633
   506   0.293162963117  1019   1.331799567192  1532   2.263324055076  2045   4.032825466340
   507   0.294312372973  1020   1.333320442420  1533   2.266665979228  2046   4.034918082021
   508   0.295118656833  1021   1.334073434820  1534   2.268457871230  2047   4.036926706761
   509   0.295423958954  1022   1.335522065003  1535   2.269441898122  2048   4.039189211567
   510   0.296286957313  1023   1.335781002092  1536   2.271416902967  2049   4.040945250206
   511   0.297324265622  1024   1.337973821336  1537   2.273323792886  2050   4.042463362916
   512   0.298584394527  1025   1.338157038559  1538   2.275256081553
   513   0.299613238251  1026   1.340251533942  1539   2.280316073207
  -------------------------------------------------------------------------------------------

  - Timings for the RHF ground state calculation

     Total wall time (sec):           5200.37218
     Total cpu time (sec):           41528.81661

  eT terminated successfully!
