  -------------------------------------------------------------
  Configuration date:  2024-01-11 04:06:49 UTC -05:00
  Git branch:          development
  Git hash:            91743d085d1019614ab8924a0c6d2c00f498e6d8
  Fortran compiler:    GNU 10.2.0
  C compiler:          GNU 10.2.0
  C++ compiler:        GNU 10.2.0
  LAPACK type:         MKL
  BLAS type:           MKL
  OEI type:            libcint
  ERI type:            libcint
  64-bit integers:     ON
  OpenMP:              ON
  PCM:                 OFF
  Forced batching:     OFF
  Runtime checks:      OFF
  Initializing to NAN: OFF
  -------------------------------------------------------------

  Description                                         wall[s]          cpu[s]  cpu/wall
  -------------------------------------------------------------------------------------
  One-electron integrals (overlap)                       0.01            0.18     18.46
  Cholesky decomposition of AO overlap                   0.06            0.50      8.84
  Time initializing AO tool                              1.03            2.50      2.43


  Generating initial SAD density
  ==============================
  SAD generation time                                    0.12            2.26     19.55
  Generating initial SAD density                         1.01            3.27      3.25


  Determining reference state
  ===========================
  One-electron integrals (hamiltonian)                   0.07            1.32     20.02
  AO G construction                                      6.76          134.83     19.95
  One-electron integrals (hamiltonian)                   0.04            0.86     20.09
  AO G construction                                     81.16         1620.03     19.96
  One-electron integrals (hamiltonian)                   0.04            0.86     20.08
  SCF diagonalization                                    0.10            1.90     18.99
  SCF iteration 1                                       81.35         1623.75     19.96
  AO G construction                                     78.34         1563.55     19.96
  One-electron integrals (hamiltonian)                   0.04            0.86     20.03
  SCF diagonalization                                    0.09            1.81     19.18
  SCF iteration 2                                       78.52         1567.07     19.96
  AO G construction                                     74.94         1495.72     19.96
  One-electron integrals (hamiltonian)                   0.04            0.86     20.03
  SCF diagonalization                                    0.09            1.70     18.96
  SCF iteration 3                                       75.12         1499.20     19.96
  AO G construction                                     73.50         1467.45     19.97
  One-electron integrals (hamiltonian)                   0.04            0.86     19.94
  SCF diagonalization                                    0.09            1.69     19.08
  SCF iteration 4                                       73.67         1470.84     19.96
  AO G construction                                     69.92         1396.05     19.97
  One-electron integrals (hamiltonian)                   0.04            0.86     20.03
  SCF diagonalization                                    0.09            1.75     19.03
  SCF iteration 5                                       70.10         1399.54     19.96
  AO G construction                                     67.01         1337.85     19.96
  One-electron integrals (hamiltonian)                   0.04            0.86     20.02
  SCF diagonalization                                    0.09            1.74     19.26
  SCF iteration 6                                       67.18         1341.24     19.96
  AO G construction                                     64.47         1287.23     19.97
  One-electron integrals (hamiltonian)                   0.04            0.84     19.65
  SCF diagonalization                                    0.09            1.78     19.12
  SCF iteration 7                                       64.65         1290.64     19.96
  AO G construction                                     61.65         1230.82     19.97
  One-electron integrals (hamiltonian)                   0.04            0.84     19.66
  SCF diagonalization                                    0.09            1.74     19.17
  SCF iteration 8                                       61.82         1234.18     19.96
  AO G construction                                     59.11         1180.05     19.97
  One-electron integrals (hamiltonian)                   0.04            0.84     19.65
  SCF diagonalization                                    0.09            1.76     19.08
  SCF iteration 9                                       59.28         1183.47     19.96
  AO G construction                                     55.79         1113.82     19.96
  One-electron integrals (hamiltonian)                   0.04            0.86     20.08
  SCF diagonalization                                    0.09            1.74     18.99
  SCF iteration 10                                      55.96         1117.19     19.96
  AO G construction                                     52.49         1047.88     19.97
  One-electron integrals (hamiltonian)                   0.04            0.86     20.05
  SCF diagonalization                                    0.08            1.63     19.27
  SCF iteration 11                                      52.66         1051.24     19.96
  AO G construction                                     50.74         1013.05     19.96
  One-electron integrals (hamiltonian)                   0.04            0.84     19.64
  SCF diagonalization                                    0.09            1.70     19.05
  SCF iteration 12                                      50.92         1016.39     19.96
  AO G construction                                     48.19          962.08     19.96
  One-electron integrals (hamiltonian)                   0.04            0.84     19.61
  SCF diagonalization                                    0.09            1.72     19.09
  SCF iteration 13                                      48.37          965.51     19.96
  AO G construction                                     47.44          947.10     19.96
  One-electron integrals (hamiltonian)                   0.04            0.86     20.06
  SCF diagonalization                                    0.09            1.73     19.18
  SCF iteration 14                                      47.61          950.50     19.96
  AO G construction                                     45.95          917.37     19.97
  One-electron integrals (hamiltonian)                   0.04            0.84     19.64
  SCF diagonalization                                    0.09            1.78     19.31
  SCF iteration 15                                      46.12          920.82     19.96
  AO G construction                                     44.62          890.76     19.96
  One-electron integrals (hamiltonian)                   0.04            0.86     20.04
  SCF diagonalization                                    0.09            1.75     18.94
  SCF iteration 16                                      44.79          894.20     19.96
  AO G construction                                     43.41          866.67     19.97
  One-electron integrals (hamiltonian)                   0.04            0.84     19.64
  SCF diagonalization                                    0.09            1.71     19.14
  SCF iteration 17                                      43.58          870.01     19.96
  AO G construction                                     43.65          871.18     19.96
  One-electron integrals (hamiltonian)                   0.04            0.86     20.06
  SCF iteration 18                                      43.73          872.93     19.96
  SCF solver                                          1065.44        21268.80     19.96
  Determining reference state                         1072.45        21408.54     19.96
  AO G construction                                     66.82         1334.06     19.96
  One-electron integrals (hamiltonian)                   0.04            0.85     19.71
  One-electron integrals (dipole)                        0.01            0.18     20.01
  One-electron integrals (quadrupole)                    0.01            0.16     19.78
  AO G construction                                     66.27         1323.05     19.96
  One-electron integrals (overlap)                       0.01            0.19     20.93
  One-electron integrals (hamiltonian)                   0.04            0.90     19.98


  Cholesky-decomposing electron repulsion integrals
  =================================================
  Cholesky: time to determine auxiliary basis           10.66          141.21     13.25
  Cholesky: time to construct (J|K), 
  decompose, and invert                                  0.92            7.20      7.80
  Diagonal test                                         94.09         1813.64     19.28
  Construct and write Cholesky vectors                  21.30          418.58     19.65
  Cholesky decomposition of ERIs                       127.37         2388.55     18.75
  Cholesky-decomposing electron repulsion 
  integrals                                            128.12         2401.63     18.75


  Determining CC cluster amplitudes
  =================================
  One-electron integrals (hamiltonian)                   0.04            0.82     20.11
  Fock matrix construction (T1 basis)                    1.03           19.79     19.25
  Calculate energy                                      12.49          245.86     19.69
  Construct CCS Omega                                    0.00            0.02    252.40
  Construct CCSD Omega                                2173.24        40798.57     18.77
  T1 transform cholesky                                 24.05           74.02      3.08
  DIIS CC GS iteration 1                              2233.57        41225.58     18.46
  One-electron integrals (hamiltonian)                   0.06            1.08     19.20
  Fock matrix construction (T1 basis)                    1.41           25.72     18.27
  Calculate energy                                      13.82          270.99     19.61
  Construct CCS Omega                                    0.00            0.00      1.12
  Construct CCSD Omega                                2039.75        39239.08     19.24
  T1 transform cholesky                                  4.45           65.26     14.67
  DIIS CC GS iteration 2                              2088.70        39701.24     19.01
  One-electron integrals (hamiltonian)                   0.05            1.05     19.99
  Fock matrix construction (T1 basis)                    1.30           24.10     18.55
  Calculate energy                                      12.81          253.16     19.77
  Construct CCS Omega                                    0.00            0.00      1.14
  Construct CCSD Omega                                2062.90        38984.11     18.90
  T1 transform cholesky                                  5.45           61.39     11.27
  DIIS CC GS iteration 3                              2113.84        39431.57     18.65
  One-electron integrals (hamiltonian)                   0.06            1.23     19.72
  Fock matrix construction (T1 basis)                    1.24           23.72     19.19
  Calculate energy                                      13.61          266.67     19.60
  Construct CCS Omega                                    0.00            0.00      1.10
  Construct CCSD Omega                                2026.40        39082.48     19.29
  T1 transform cholesky                                  5.22           67.00     12.82
  DIIS CC GS iteration 4                              2087.00        39575.36     18.96
  One-electron integrals (hamiltonian)                   0.06            1.10     19.55
  Fock matrix construction (T1 basis)                    1.24           23.31     18.77
  Calculate energy                                      12.82          253.40     19.76
  Construct CCS Omega                                    0.00            0.00      1.11
  Construct CCSD Omega                                2009.59        38881.84     19.35
  T1 transform cholesky                                  3.84           61.04     15.88
  DIIS CC GS iteration 5                              2080.37        39391.49     18.93
  One-electron integrals (hamiltonian)                   0.06            1.15     19.40
  Fock matrix construction (T1 basis)                    1.63           25.63     15.68
  Calculate energy                                      13.25          257.13     19.40
  Construct CCS Omega                                    0.00            0.00      1.06
  Construct CCSD Omega                                1993.95        38478.84     19.30
  T1 transform cholesky                                  4.57           64.80     14.18
  DIIS CC GS iteration 6                              2065.66        39013.07     18.89
  One-electron integrals (hamiltonian)                   0.05            1.05     20.12
  Fock matrix construction (T1 basis)                    1.38           24.31     17.58
  Calculate energy                                      13.26          254.75     19.21
  Construct CCS Omega                                    0.00            0.01     28.29
  Construct CCSD Omega                                2004.10        38659.97     19.29
  T1 transform cholesky                                  5.01           63.56     12.69
  DIIS CC GS iteration 7                              2079.30        39188.81     18.85
  One-electron integrals (hamiltonian)                   0.05            1.06     19.79
  Fock matrix construction (T1 basis)                    1.28           23.76     18.61
  Calculate energy                                      14.09          275.83     19.57
  Construct CCS Omega                                    0.00            0.00      1.01
  Construct CCSD Omega                                2014.59        38777.23     19.25
  T1 transform cholesky                                  3.27           59.69     18.27
  DIIS CC GS iteration 8                              2098.93        39352.54     18.75
  One-electron integrals (hamiltonian)                   0.05            1.06     19.97
  Fock matrix construction (T1 basis)                    1.19           22.73     19.07
  Calculate energy                                      12.99          257.38     19.81
  Construct CCS Omega                                    0.00            0.00      1.13
  Construct CCSD Omega                                2105.72        39976.86     18.98
  T1 transform cholesky                                  3.35           59.37     17.74
  DIIS CC GS iteration 9                              2191.00        40518.32     18.49
  One-electron integrals (hamiltonian)                   0.06            1.13     19.76
  Fock matrix construction (T1 basis)                    1.23           23.17     18.81
  Calculate energy                                      13.25          259.21     19.56
  Construct CCS Omega                                    0.00            0.00      1.11
  Construct CCSD Omega                                2028.36        39003.86     19.23
  T1 transform cholesky                                  5.54           69.34     12.51
  DIIS CC GS iteration 10                             2112.81        39556.23     18.72
  One-electron integrals (hamiltonian)                   0.05            1.09     20.03
  Fock matrix construction (T1 basis)                    1.31           24.04     18.31
  Calculate energy                                      13.91          271.04     19.49
  Construct CCS Omega                                    0.00            0.00     29.27
  Construct CCSD Omega                                2035.46        38919.10     19.12
  T1 transform cholesky                                  4.29           62.75     14.62
  DIIS CC GS iteration 11                             2121.50        39503.95     18.62
  One-electron integrals (hamiltonian)                   0.05            1.01     19.97
  Fock matrix construction (T1 basis)                    1.20           22.48     18.68
  Calculate energy                                      13.09          259.01     19.78
  Construct CCS Omega                                    0.00            0.00      1.07
  Construct CCSD Omega                                2123.82        39800.08     18.74
  T1 transform cholesky                                  4.06           61.24     15.07
  DIIS CC GS iteration 12                             2211.27        40338.33     18.24
  One-electron integrals (hamiltonian)                   0.06            1.16     19.90
  Fock matrix construction (T1 basis)                    1.24           23.31     18.82
  Calculate energy                                      13.05          258.55     19.81
  Construct CCS Omega                                    0.00            0.00      1.09
  Construct CCSD Omega                                2025.83        39296.86     19.40
  T1 transform cholesky                                 16.45           68.73      4.18
  DIIS CC GS iteration 13                             2122.37        39869.21     18.79
  One-electron integrals (hamiltonian)                   0.06            1.19     19.81
  Fock matrix construction (T1 basis)                    1.32           24.53     18.57
  Calculate energy                                      13.26          257.75     19.44
  Construct CCS Omega                                    0.00            0.00      1.11
  Construct CCSD Omega                                2132.37        40304.11     18.90
  T1 transform cholesky                                  5.84           74.93     12.82
  DIIS CC GS iteration 14                             2221.43        40884.18     18.40
  One-electron integrals (hamiltonian)                   0.05            1.03     19.98
  Fock matrix construction (T1 basis)                    1.26           23.31     18.49
  Calculate energy                                      13.32          260.05     19.52
  Construct CCS Omega                                    0.00            0.00      1.08
  Construct CCSD Omega                                2007.56        39049.39     19.45
  DIIS CC GS iteration 15                             2027.31        39354.53     19.41
  CC GS solver total                                 31893.81       597146.57     18.72
  Determining CC cluster amplitudes                  31893.81       597146.57     18.72


  Determining CC multipliers
  ==========================
  One-electron integrals (hamiltonian)                   0.09            1.27     14.16
  Fock matrix construction (T1 basis)                    1.33           24.80     18.70
  Time preparing for CCSD Jacobian transpose           943.83        17511.03     18.55
  Jacobian transpose CCS                                 1.75           23.93     13.67
  Jacobian transpose CCSD                             2552.75        49959.61     19.57
  Linear davidson solver iteration 1                  2590.37        50066.60     19.33
  Jacobian transpose CCS                                 1.05           19.27     18.40
  Jacobian transpose CCSD                             2568.46        50096.30     19.50
  Linear davidson solver iteration 2                  2620.06        50253.72     19.18
  Jacobian transpose CCS                                 1.29           22.97     17.84
  Jacobian transpose CCSD                             2558.59        50116.20     19.59
  Linear davidson solver iteration 3                  2635.17        50336.86     19.10
  Jacobian transpose CCS                                 1.12           19.81     17.66
  Jacobian transpose CCSD                             2566.72        50082.19     19.51
  Linear davidson solver iteration 4                  2657.72        50346.79     18.94
  Jacobian transpose CCS                                 1.18           21.41     18.17
  Jacobian transpose CCSD                             2570.15        50233.52     19.54
  Linear davidson solver iteration 5                  2672.15        50545.16     18.92
  Jacobian transpose CCS                                 1.53           22.82     14.88
  Jacobian transpose CCSD                             2615.64        50892.07     19.46
  Linear davidson solver iteration 6                  2736.92        51255.90     18.73
  Jacobian transpose CCS                                 1.51           22.56     14.89
  Jacobian transpose CCSD                             2628.77        51038.35     19.42
  Linear davidson solver iteration 7                  2777.65        51471.15     18.53
  Jacobian transpose CCS                                 1.23           22.64     18.40
  Jacobian transpose CCSD                             2604.75        50781.55     19.50
  Linear davidson solver iteration 8                  2760.89        51243.35     18.56
  Jacobian transpose CCS                                 1.24           21.72     17.47
  Jacobian transpose CCSD                             2601.92        50733.36     19.50
  Linear davidson solver iteration 9                  2790.03        51259.54     18.37
  Jacobian transpose CCS                                 1.26           22.46     17.75
  Jacobian transpose CCSD                             2638.58        51158.01     19.39
  Linear davidson solver iteration 10                 2844.32        51741.25     18.19
  Jacobian transpose CCS                                 1.16           20.97     18.01
  Jacobian transpose CCSD                             2620.81        51065.21     19.48
  Linear davidson solver iteration 11                 2820.74        51676.55     18.32
  Jacobian transpose CCS                                 1.32           21.70     16.46
  Jacobian transpose CCSD                             2707.39        52399.54     19.35
  Linear davidson solver iteration 12                 2929.01        53057.43     18.11
  Jacobian transpose CCS                                 1.32           21.88     16.58
  Jacobian transpose CCSD                             2623.50        51055.40     19.46
  Linear davidson solver iteration 13                 2878.47        51781.17     17.99
  Jacobian transpose CCS                                 1.51           22.90     15.15
  Jacobian transpose CCSD                             2659.56        51530.51     19.38
  Linear davidson solver iteration 14                 2936.03        52311.01     17.82
  Jacobian transpose CCS                                 1.23           21.69     17.57
  Jacobian transpose CCSD                             2645.89        51115.24     19.32
  Linear davidson solver iteration 15                 2848.68        51616.34     18.12
  Linear davidson solver total                       42474.53       786791.82     18.52
  Determining CC multipliers                         42516.81       786868.51     18.51


  Determining CC excited state amplitudes
  =======================================
  One-electron integrals (hamiltonian)                   0.08            1.32     16.21
  Fock matrix construction (T1 basis)                    1.69           28.49     16.82
  Prepare for Jacobian CCSD                            951.28        18250.39     19.19
  Jacobian CCS transformation                            1.58           24.03     15.22
  Jacobian doubles transformation                       33.93          630.50     18.58
  Jacobian CCSD transformation                        2643.08        51517.47     19.49
  Jacobian CCS transformation                            1.06           19.38     18.29
  Jacobian doubles transformation                       33.67          621.11     18.45
  Jacobian CCSD transformation                        2642.34        51496.59     19.49
  Jacobian CCS transformation                            1.17           19.88     17.02
  Jacobian doubles transformation                       32.85          618.48     18.83
  Jacobian CCSD transformation                        2630.05        51342.62     19.52
  Jacobian CCS transformation                            1.29           20.46     15.90
  Jacobian doubles transformation                       33.81          623.90     18.45
  Jacobian CCSD transformation                        2675.49        51935.30     19.41
  Eigen davidson solver iteration 1                  10740.83       206834.19     19.26
  Jacobian CCS transformation                            1.25           23.03     18.43
  Jacobian doubles transformation                       34.20          623.64     18.23
  Jacobian CCSD transformation                        2644.80        51542.97     19.49
  Jacobian CCS transformation                            1.22           20.42     16.77
  Jacobian doubles transformation                       32.96          612.23     18.58
  Jacobian CCSD transformation                        2676.74        51959.75     19.41
  Jacobian CCS transformation                            1.18           19.99     16.91
  Jacobian doubles transformation                       33.68          622.74     18.49
  Jacobian CCSD transformation                        2639.13        51390.41     19.47
  Jacobian CCS transformation                            1.03           18.94     18.45
  Jacobian doubles transformation                       32.45          607.89     18.73
  Jacobian CCSD transformation                        2631.51        51320.73     19.50
  Eigen davidson solver iteration 2                  10844.96       207158.65     19.10
  Jacobian CCS transformation                            1.55           22.98     14.81
  Jacobian doubles transformation                       33.43          619.19     18.52
  Jacobian CCSD transformation                        2661.09        51673.23     19.42
  Jacobian CCS transformation                            1.12           19.73     17.60
  Jacobian doubles transformation                       32.36          604.51     18.68
  Jacobian CCSD transformation                        2669.98        51762.66     19.39
  Jacobian CCS transformation                            1.38           22.53     16.30
  Jacobian doubles transformation                       33.04          611.24     18.50
  Jacobian CCSD transformation                        2652.62        51611.74     19.46
  Jacobian CCS transformation                            1.02           18.86     18.53
  Jacobian doubles transformation                       32.33          604.78     18.71
  Jacobian CCSD transformation                        2631.09        51361.66     19.52
  Eigen davidson solver iteration 3                  10946.27       207734.11     18.98
  Jacobian CCS transformation                            1.75           23.90     13.66
  Jacobian doubles transformation                       33.68          617.01     18.32
  Jacobian CCSD transformation                        2697.94        52320.00     19.39
  Jacobian CCS transformation                            1.13           19.54     17.26
  Jacobian doubles transformation                       32.81          611.56     18.64
  Jacobian CCSD transformation                        2648.09        51374.04     19.40
  Jacobian CCS transformation                            1.10           20.04     18.20
  Jacobian doubles transformation                       32.90          609.51     18.53
  Jacobian CCSD transformation                        2658.11        51682.55     19.44
  Jacobian CCS transformation                            1.01           19.01     18.75
  Jacobian doubles transformation                       32.63          607.71     18.62
  Jacobian CCSD transformation                        2643.61        51527.06     19.49
  Eigen davidson solver iteration 4                  11055.96       208559.80     18.86
  Jacobian CCS transformation                            1.24           22.60     18.24
  Jacobian doubles transformation                       33.09          618.29     18.69
  Jacobian CCSD transformation                        2713.33        52396.88     19.31
  Jacobian CCS transformation                            1.00           18.75     18.66
  Jacobian doubles transformation                       32.53          609.10     18.73
  Jacobian CCSD transformation                        2635.79        51396.38     19.50
  Jacobian CCS transformation                            1.08           19.53     18.15
  Jacobian doubles transformation                       32.79          613.43     18.71
  Jacobian CCSD transformation                        2642.22        51525.05     19.50
  Jacobian CCS transformation                            1.13           20.09     17.72
  Jacobian doubles transformation                       33.35          618.57     18.55
  Jacobian CCSD transformation                        2623.97        51263.63     19.54
  Eigen davidson solver iteration 5                  11099.41       208588.02     18.79
  Jacobian CCS transformation                            1.80           24.88     13.79
  Jacobian doubles transformation                       34.43          619.36     17.99
  Jacobian CCSD transformation                        2764.70        52595.73     19.02
  Jacobian CCS transformation                            1.05           19.14     18.27
  Jacobian doubles transformation                       33.21          609.94     18.36
  Jacobian CCSD transformation                        2669.06        51729.25     19.38
  Jacobian CCS transformation                            1.00           18.64     18.60
  Jacobian doubles transformation                       32.35          604.38     18.68
  Jacobian CCSD transformation                        2629.31        51306.01     19.51
  Jacobian CCS transformation                            1.01           18.91     18.75
  Jacobian doubles transformation                       32.31          605.26     18.73
  Jacobian CCSD transformation                        2631.71        51336.52     19.51
  Eigen davidson solver iteration 6                  11277.56       209382.51     18.57
  Jacobian CCS transformation                            1.55           26.13     16.85
  Jacobian doubles transformation                       33.53          619.98     18.49
  Jacobian CCSD transformation                        2705.44        52269.29     19.32
  Jacobian CCS transformation                            1.24           20.66     16.60
  Jacobian doubles transformation                       32.63          607.10     18.60
  Jacobian CCSD transformation                        2669.97        51795.88     19.40
  Jacobian CCS transformation                            1.28           20.71     16.20
  Jacobian doubles transformation                       32.55          608.12     18.68
  Jacobian CCSD transformation                        2630.13        51229.59     19.48
  Jacobian CCS transformation                            1.00           18.34     18.30
  Jacobian doubles transformation                       31.94          599.65     18.77
  Jacobian CCSD transformation                        2632.58        51385.30     19.52
  Eigen davidson solver iteration 7                  11286.58       209444.58     18.56
  Jacobian CCS transformation                            1.75           24.35     13.93
  Jacobian doubles transformation                       34.45          625.56     18.16
  Jacobian CCSD transformation                        2720.44        52484.57     19.29
  Jacobian CCS transformation                            1.04           19.16     18.47
  Jacobian doubles transformation                       32.24          605.47     18.78
  Jacobian CCSD transformation                        2688.72        52029.16     19.35
  Jacobian CCS transformation                            1.15           19.61     17.02
  Jacobian doubles transformation                       33.08          608.22     18.39
  Jacobian CCSD transformation                        2641.38        51430.85     19.47
  Jacobian CCS transformation                            1.13           20.09     17.78
  Jacobian doubles transformation                       32.36          604.41     18.68
  Jacobian CCSD transformation                        2631.24        51327.92     19.51
  Eigen davidson solver iteration 8                  11482.62       210489.84     18.33
  Jacobian CCS transformation                            2.04           25.64     12.56
  Jacobian doubles transformation                       33.97          615.50     18.12
  Jacobian CCSD transformation                        2728.44        52423.99     19.21
  Jacobian CCS transformation                            1.14           20.42     17.84
  Jacobian doubles transformation                       32.20          604.69     18.78
  Jacobian CCSD transformation                        2632.12        51341.25     19.51
  Jacobian CCS transformation                            1.09           19.52     17.97
  Jacobian doubles transformation                       32.75          610.59     18.65
  Jacobian CCSD transformation                        2661.06        51764.70     19.45
  Jacobian CCS transformation                            1.19           20.06     16.85
  Jacobian doubles transformation                       32.76          609.72     18.61
  Jacobian CCSD transformation                        2634.45        51466.32     19.54
  Eigen davidson solver iteration 9                  11547.67       210577.22     18.24
  Jacobian CCS transformation                            1.65           24.63     14.88
  Jacobian doubles transformation                       34.04          620.35     18.22
  Jacobian CCSD transformation                        2756.20        52835.10     19.17
  Jacobian CCS transformation                            1.13           19.82     17.51
  Jacobian doubles transformation                       32.15          604.37     18.80
  Jacobian CCSD transformation                        2650.73        51641.04     19.48
  Jacobian CCS transformation                            2.03           26.46     13.05
  Jacobian doubles transformation                       33.55          617.85     18.42
  Jacobian CCSD transformation                        2675.78        52008.55     19.44
  Jacobian CCS transformation                            1.15           19.67     17.11
  Jacobian doubles transformation                       32.35          606.25     18.74
  Jacobian CCSD transformation                        2660.72        51761.25     19.45
  Eigen davidson solver iteration 10                 11680.51       212097.65     18.16
  Jacobian CCS transformation                            1.29           22.57     17.44
  Jacobian doubles transformation                       32.39          609.42     18.81
  Jacobian CCSD transformation                        2797.80        53228.65     19.03
  Jacobian CCS transformation                            1.00           18.63     18.67
  Jacobian doubles transformation                       32.35          606.16     18.74
  Jacobian CCSD transformation                        2675.24        51903.72     19.40
  Jacobian CCS transformation                            1.16           19.70     17.01
  Jacobian doubles transformation                       32.72          610.18     18.65
  Jacobian CCSD transformation                        2664.85        51742.07     19.42
  Jacobian CCS transformation                            1.09           19.59     18.05
  Jacobian doubles transformation                       32.18          605.70     18.82
  Jacobian CCSD transformation                        2673.38        51895.23     19.41
  Eigen davidson solver iteration 11                 11844.63       212937.78     17.98
  Jacobian CCS transformation                            1.76           25.89     14.74
  Jacobian doubles transformation                       33.66          615.59     18.29
  Jacobian CCSD transformation                        2753.92        52738.10     19.15
  Jacobian CCS transformation                            1.08           19.32     17.84
  Jacobian doubles transformation                       32.24          605.07     18.77
  Jacobian CCSD transformation                        2647.40        51542.62     19.47
  Jacobian CCS transformation                            1.02           18.96     18.51
  Jacobian doubles transformation                       32.14          605.63     18.84
  Jacobian CCSD transformation                        2643.25        51509.32     19.49
  Jacobian CCS transformation                            1.01           19.18     18.90
  Jacobian doubles transformation                       32.27          604.69     18.74
  Jacobian CCSD transformation                        2662.70        51778.33     19.45
  Eigen davidson solver iteration 12                 11869.83       212384.42     17.89
  Jacobian CCS transformation                            1.45           24.63     16.95
  Jacobian doubles transformation                       33.86          622.80     18.40
  Jacobian CCSD transformation                        2776.46        52917.37     19.06
  Jacobian CCS transformation                            1.02           18.96     18.67
  Jacobian doubles transformation                       32.29          606.14     18.77
  Jacobian CCSD transformation                        2637.50        51481.53     19.52
  Jacobian CCS transformation                            1.00           18.74     18.68
  Jacobian doubles transformation                       32.19          603.55     18.75
  Jacobian CCSD transformation                        2662.83        51739.65     19.43
  Jacobian CCS transformation                            1.01           18.80     18.69
  Jacobian doubles transformation                       31.90          600.69     18.83
  Jacobian CCSD transformation                        2670.10        51907.63     19.44
  Eigen davidson solver iteration 13                 12010.25       213426.43     17.77
  Jacobian CCS transformation                            1.77           24.53     13.89
  Jacobian doubles transformation                       33.76          614.15     18.19
  Jacobian CCSD transformation                        2929.68        54505.20     18.60
  Jacobian CCS transformation                            1.24           19.94     16.15
  Jacobian doubles transformation                       32.54          609.45     18.73
  Jacobian CCSD transformation                        2657.95        51587.15     19.41
  Jacobian CCS transformation                            1.06           19.32     18.26
  Jacobian doubles transformation                       32.36          608.21     18.79
  Jacobian CCSD transformation                        2632.30        51376.89     19.52
  Jacobian CCS transformation                            1.21           19.84     16.41
  Jacobian doubles transformation                       32.89          615.73     18.72
  Jacobian CCSD transformation                        2626.19        51271.24     19.52
  Eigen davidson solver iteration 14                 12300.64       214803.87     17.46
  Jacobian CCS transformation                            1.63           24.05     14.77
  Jacobian doubles transformation                       32.83          609.10     18.56
  Jacobian CCSD transformation                        2947.72        55300.24     18.76
  Jacobian CCS transformation                            1.14           19.76     17.34
  Jacobian doubles transformation                       32.78          612.84     18.70
  Jacobian CCSD transformation                        2660.14        51643.54     19.41
  Jacobian CCS transformation                            1.09           19.51     17.97
  Jacobian doubles transformation                       32.08          604.13     18.83
  Jacobian CCSD transformation                        2626.41        51281.84     19.53
  Jacobian CCS transformation                            1.01           18.70     18.52
  Jacobian doubles transformation                       32.13          604.72     18.82
  Jacobian CCSD transformation                        2626.83        51307.62     19.53
  Eigen davidson solver iteration 15                 12380.61       215442.86     17.40
  Jacobian CCS transformation                            1.44           23.74     16.44
  Jacobian doubles transformation                       32.71          610.29     18.66
  Jacobian CCSD transformation                        2871.74        54666.14     19.04
  Jacobian CCS transformation                            1.42           21.98     15.52
  Jacobian doubles transformation                       32.41          606.10     18.70
  Jacobian CCSD transformation                        2654.36        51546.03     19.42
  Jacobian CCS transformation                            1.20           20.10     16.71
  Jacobian doubles transformation                       32.04          601.69     18.78
  Jacobian CCSD transformation                        2673.44        51779.12     19.37
  Jacobian CCS transformation                            1.01           19.03     18.86
  Jacobian doubles transformation                       31.52          597.31     18.95
  Jacobian CCSD transformation                        2637.87        51439.78     19.50
  Eigen davidson solver iteration 16                 12462.32       216100.34     17.34
  Jacobian CCS transformation                            1.62           22.57     13.96
  Jacobian doubles transformation                       33.21          614.07     18.49
  Jacobian CCSD transformation                        2945.29        55326.99     18.78
  Jacobian CCS transformation                            1.10           19.55     17.83
  Jacobian doubles transformation                       31.65          599.19     18.93
  Jacobian CCSD transformation                        2675.96        51799.88     19.36
  Jacobian CCS transformation                            1.18           19.88     16.90
  Jacobian doubles transformation                       31.95          600.17     18.79
  Jacobian CCSD transformation                        2635.20        51328.06     19.48
  Jacobian CCS transformation                            1.14           20.51     17.98
  Jacobian doubles transformation                       31.92          600.33     18.81
  Jacobian CCSD transformation                        2620.29        51143.41     19.52
  Eigen davidson solver iteration 17                 12583.82       216497.13     17.20
  Jacobian CCS transformation                            1.32           21.28     16.12
  Jacobian doubles transformation                       34.21          621.21     18.16
  Jacobian CCSD transformation                        2784.79        53344.65     19.16
  Jacobian CCS transformation                            1.21           20.93     17.27
  Jacobian doubles transformation                       32.21          603.41     18.73
  Jacobian CCSD transformation                        2635.01        51274.72     19.46
  Jacobian CCS transformation                            1.03           19.03     18.50
  Jacobian doubles transformation                       31.85          601.34     18.88
  Jacobian CCSD transformation                        2636.48        51508.66     19.54
  Jacobian CCS transformation                            1.12           19.54     17.44
  Jacobian doubles transformation                       32.40          608.77     18.79
  Jacobian CCSD transformation                        2632.79        51425.80     19.53
  Eigen davidson solver iteration 18                 12590.28       215443.16     17.11
  Jacobian CCS transformation                            1.46           22.20     15.17
  Jacobian doubles transformation                       33.64          617.02     18.34
  Jacobian CCSD transformation                        2818.42        53920.52     19.13
  Jacobian CCS transformation                            1.10           19.77     18.02
  Jacobian doubles transformation                       32.30          608.21     18.83
  Jacobian CCSD transformation                        2667.59        51782.99     19.41
  Jacobian CCS transformation                            1.01           19.07     18.91
  Jacobian doubles transformation                       32.03          602.60     18.81
  Jacobian CCSD transformation                        2636.71        51458.13     19.52
  Jacobian CCS transformation                            1.00           18.70     18.62
  Jacobian doubles transformation                       32.11          602.26     18.76
  Jacobian CCSD transformation                        2623.89        51334.76     19.56
  Eigen davidson solver iteration 19                 12752.04       215109.26     16.87
  Jacobian CCS transformation                            1.38           21.61     15.70
  Jacobian doubles transformation                       32.66          611.61     18.73
  Jacobian CCSD transformation                        2797.75        53829.32     19.24
  Jacobian CCS transformation                            1.11           19.41     17.56
  Jacobian doubles transformation                       32.20          602.93     18.72
  Jacobian CCSD transformation                        2658.48        51629.51     19.42
  Jacobian CCS transformation                            1.04           19.43     18.64
  Jacobian doubles transformation                       31.91          601.33     18.85
  Jacobian CCSD transformation                        2650.58        51566.41     19.45
  Eigen davidson solver iteration 20                 10224.78       164184.03     16.06
  Jacobian CCS transformation                            1.18           20.35     17.30
  Jacobian doubles transformation                       32.46          606.85     18.70
  Jacobian CCSD transformation                        2761.19        53326.78     19.31
  Jacobian CCS transformation                            1.13           19.97     17.61
  Jacobian doubles transformation                       32.62          611.98     18.76
  Jacobian CCSD transformation                        2662.64        51641.22     19.39
  Jacobian CCS transformation                            1.07           19.64     18.40
  Jacobian doubles transformation                       32.57          613.53     18.84
  Jacobian CCSD transformation                        2638.97        51453.71     19.50
  Eigen davidson solver iteration 21                 10179.79       163976.95     16.11
  Jacobian CCS transformation                            1.35           21.95     16.29
  Jacobian doubles transformation                       33.49          618.54     18.47
  Jacobian CCSD transformation                        2778.91        53284.94     19.17
  Jacobian CCS transformation                            1.12           19.49     17.47
  Jacobian doubles transformation                       32.23          607.01     18.83
  Jacobian CCSD transformation                        2682.51        51977.17     19.38
  Jacobian CCS transformation                            1.07           19.47     18.19
  Jacobian doubles transformation                       32.17          606.04     18.84
  Jacobian CCSD transformation                        2646.01        51619.73     19.51
  Eigen davidson solver iteration 22                 10380.56       164947.49     15.89
  Jacobian CCS transformation                            1.17           20.22     17.29
  Jacobian doubles transformation                       32.70          612.39     18.73
  Jacobian CCSD transformation                        2735.73        53027.04     19.38
  Jacobian CCS transformation                            1.34           21.40     15.95
  Jacobian doubles transformation                       32.42          607.53     18.74
  Jacobian CCSD transformation                        2630.27        51304.06     19.51
  Jacobian CCS transformation                            1.22           19.96     16.38
  Jacobian doubles transformation                       32.56          607.02     18.64
  Jacobian CCSD transformation                        2628.52        51302.43     19.52
  Eigen davidson solver iteration 23                 10318.41       162626.04     15.76
  Jacobian CCS transformation                            1.18           20.93     17.79
  Jacobian doubles transformation                       32.76          613.92     18.74
  Jacobian CCSD transformation                        2752.76        53209.04     19.33
  Jacobian CCS transformation                            1.07           19.43     18.16
  Jacobian doubles transformation                       32.60          611.32     18.75
  Jacobian CCSD transformation                        2659.60        51613.81     19.41
  Eigen davidson solver iteration 24                  7713.97       111727.85     14.48
  Jacobian CCS transformation                            1.19           20.67     17.31
  Jacobian doubles transformation                       33.17          619.96     18.69
  Jacobian CCSD transformation                        2763.02        53389.11     19.32
  Jacobian CCS transformation                            1.19           19.95     16.71
  Jacobian doubles transformation                       32.62          607.94     18.64
  Jacobian CCSD transformation                        2687.97        52023.74     19.35
  Eigen davidson solver iteration 25                  7715.28       112320.87     14.56
  Jacobian CCS transformation                            1.37           21.11     15.38
  Jacobian doubles transformation                       32.48          607.80     18.72
  Jacobian CCSD transformation                        2823.27        54147.07     19.18
  Jacobian CCS transformation                            1.12           19.61     17.47
  Jacobian doubles transformation                       32.47          609.89     18.78
  Jacobian CCSD transformation                        2643.32        51443.85     19.46
  Eigen davidson solver iteration 26                  7889.76       111740.32     14.16
  Jacobian CCS transformation                            1.32           20.73     15.69
  Jacobian doubles transformation                       32.62          609.72     18.69
  Jacobian CCSD transformation                        2732.70        53032.27     19.41
  Eigen davidson solver iteration 27                  5048.05        59013.03     11.69
  Jacobian CCS transformation                            1.62           22.15     13.66
  Jacobian doubles transformation                       32.85          607.15     18.48
  Jacobian CCSD transformation                        2797.64        53408.30     19.09
  Eigen davidson solver iteration 28                  5158.69        59495.74     11.53
  Jacobian CCS transformation                            1.40           20.44     14.60
  Jacobian doubles transformation                       32.85          610.24     18.57
  Jacobian CCSD transformation                        2718.35        52534.40     19.33
  Eigen davidson solver iteration 29                  5150.89        58757.87     11.41
  Jacobian CCS transformation                            1.24           20.87     16.87
  Jacobian doubles transformation                       32.48          610.42     18.80
  Jacobian CCSD transformation                        2825.78        54071.45     19.14
  Eigen davidson solver iteration 30                  5285.26        60364.55     11.42
  Jacobian CCS transformation                            1.32           21.71     16.44
  Jacobian doubles transformation                       32.77          615.61     18.79
  Jacobian CCSD transformation                        2728.53        52847.03     19.37
  Eigen davidson solver iteration 31                  5228.74        59277.01     11.34
  Jacobian CCS transformation                            1.21           20.55     17.05
  Jacobian doubles transformation                       32.58          605.80     18.60
  Jacobian CCSD transformation                        2762.49        53183.61     19.25
  Eigen davidson solver iteration 32                  4425.50        57199.04     12.92
  Jacobian CCS transformation                            1.35           19.37     14.34
  Jacobian doubles transformation                       33.03          615.02     18.62
  Jacobian CCSD transformation                        2801.23        53634.35     19.15
  Jacobian CCS transformation                            0.96           17.63     18.42
  Jacobian doubles transformation                       32.31          608.51     18.83
  Jacobian CCSD transformation                        2635.43        51367.12     19.49
  Jacobian CCS transformation                            1.01           17.97     17.75
  Jacobian doubles transformation                       32.02          601.72     18.79
  Jacobian CCSD transformation                        2666.21        51780.12     19.42
  Jacobian CCS transformation                            0.94           17.41     18.44
  Jacobian doubles transformation                       32.22          604.83     18.77
  Jacobian CCSD transformation                        2663.34        51708.76     19.42
  Eigen davidson solver iteration 33                 10891.41       208854.51     19.18
  Jacobian CCS transformation                            0.95           17.49     18.50
  Jacobian doubles transformation                       31.90          603.05     18.90
  Jacobian CCSD transformation                        2676.87        51922.04     19.40
  Eigen davidson solver iteration 34                  2798.72        52317.32     18.69
  Jacobian CCS transformation                            1.07           17.81     16.57
  Jacobian doubles transformation                       32.02          600.92     18.77
  Jacobian CCSD transformation                        2627.82        51290.20     19.52
  Eigen davidson solver iteration 35                  2765.78        51737.16     18.71
  Jacobian CCS transformation                            1.06           17.99     16.92
  Jacobian doubles transformation                       32.42          609.72     18.81
  Jacobian CCSD transformation                        2650.32        51621.96     19.48
  Eigen davidson solver iteration 36                  2794.70        52111.92     18.65
  Jacobian CCS transformation                            1.01           16.36     16.22
  Jacobian doubles transformation                       32.21          604.36     18.76
  Jacobian CCSD transformation                        2630.77        51263.00     19.49
  Eigen davidson solver iteration 37                  2806.67        51840.45     18.47
  Jacobian CCS transformation                            1.11           18.73     16.88
  Jacobian doubles transformation                       32.13          605.66     18.85
  Jacobian CCSD transformation                        2663.51        51716.86     19.42
  Eigen davidson solver iteration 38                  2850.50        52309.13     18.35
  Jacobian CCS transformation                            1.07           17.44     16.26
  Jacobian doubles transformation                       31.89          600.58     18.84
  Jacobian CCSD transformation                        2658.24        51724.70     19.46
  Eigen davidson solver iteration 39                  2874.82        52379.97     18.22
  Jacobian CCS transformation                            0.96           16.65     17.40
  Jacobian doubles transformation                       31.70          595.29     18.78
  Jacobian CCSD transformation                        2675.57        51878.72     19.39
  Eigen davidson solver iteration 40                  2915.52        52602.24     18.04
  Jacobian CCS transformation                            1.04           18.01     17.26
  Jacobian doubles transformation                       31.78          599.48     18.86
  Jacobian CCSD transformation                        2679.20        51924.34     19.38
  Eigen davidson solver iteration 41                  2938.89        52705.91     17.93
  Jacobian CCS transformation                            1.02           17.42     17.16
  Jacobian doubles transformation                       31.69          599.18     18.91
  Jacobian CCSD transformation                        2670.41        51863.92     19.42
  Eigen davidson solver iteration 42                  2944.81        52688.80     17.89
  Jacobian CCS transformation                            0.86           15.85     18.50
  Jacobian doubles transformation                       31.64          596.10     18.84
  Jacobian CCSD transformation                        2691.41        52362.72     19.46
  Eigen davidson solver iteration 43                  2983.89        53246.46     17.84
  Jacobian CCS transformation                            0.91           15.95     17.45
  Jacobian doubles transformation                       32.23          601.46     18.66
  Jacobian CCSD transformation                        2667.05        51728.51     19.40
  Eigen davidson solver iteration 44                  2976.81        52668.76     17.69
  Jacobian CCS transformation                            0.97           17.04     17.62
  Jacobian doubles transformation                       31.96          601.87     18.83
  Jacobian CCSD transformation                        2680.29        52114.57     19.44
  Eigen davidson solver iteration 45                  2998.11        53092.42     17.71
  Jacobian CCS transformation                            0.99           16.25     16.42
  Jacobian doubles transformation                       31.90          597.99     18.75
  Jacobian CCSD transformation                        2700.18        52266.79     19.36
  Eigen davidson solver iteration 46                  3052.32        53313.73     17.47
  Jacobian CCS transformation                            0.96           17.05     17.84
  Jacobian doubles transformation                       31.80          599.65     18.86
  Jacobian CCSD transformation                        2726.22        52588.67     19.29
  Eigen davidson solver iteration 47                  3085.49        53657.39     17.39
  Jacobian CCS transformation                            0.83           15.63     18.74
  Jacobian doubles transformation                       31.60          596.55     18.88
  Jacobian CCSD transformation                        2733.88        52573.48     19.23
  Eigen davidson solver iteration 48                  3107.10        53714.97     17.29
  Jacobian CCS transformation                            0.98           16.77     17.10
  Jacobian doubles transformation                       32.04          600.41     18.74
  Jacobian CCSD transformation                        2734.43        52547.05     19.22
  Eigen davidson solver iteration 49                  3126.20        53728.51     17.19
  Jacobian CCS transformation                            0.91           15.92     17.51
  Jacobian doubles transformation                       32.46          607.18     18.71
  Jacobian CCSD transformation                        2680.01        51967.59     19.39
  Eigen davidson solver iteration 50                  3113.21        53226.55     17.10
  Jacobian CCS transformation                            1.03           17.42     16.85
  Jacobian doubles transformation                       32.13          601.17     18.71
  Jacobian CCSD transformation                        2679.77        51938.77     19.38
  Eigen davidson solver iteration 51                  3103.71        53236.15     17.15
  Jacobian CCS transformation                            0.99           17.38     17.59
  Jacobian doubles transformation                       32.41          608.77     18.78
  Jacobian CCSD transformation                        2753.35        52145.33     18.94
  Eigen davidson solver iteration 52                  3234.45        53533.69     16.55
  Jacobian CCS transformation                            1.01           17.34     17.19
  Jacobian doubles transformation                       32.26          605.50     18.77
  Jacobian CCSD transformation                        2766.55        52736.89     19.06
  Eigen davidson solver iteration 53                  3225.43        54118.41     16.78
  Jacobian CCS transformation                            1.01           17.31     17.10
  Jacobian doubles transformation                       32.08          600.80     18.73
  Jacobian CCSD transformation                        2735.30        52213.91     19.09
  Eigen davidson solver iteration 54                  3214.49        53675.62     16.70
  Jacobian CCS transformation                            0.98           16.11     16.41
  Jacobian doubles transformation                       32.24          604.85     18.76
  Jacobian CCSD transformation                        2782.10        52653.13     18.93
  Eigen davidson solver iteration 55                  3284.33        54161.08     16.49
  Jacobian CCS transformation                            0.82           15.43     18.74
  Jacobian doubles transformation                       32.27          597.39     18.51
  Jacobian CCSD transformation                        2674.63        51756.41     19.35
  Eigen davidson solver iteration 56                  3208.16        53337.68     16.63
  Jacobian CCS transformation                            0.81           15.25     18.87
  Jacobian doubles transformation                       32.05          602.70     18.80
  Jacobian CCSD transformation                        2778.22        52665.22     18.96
  Eigen davidson solver iteration 57                  3311.64        54289.54     16.39
  Jacobian CCS transformation                            1.10           18.09     16.47
  Jacobian doubles transformation                       32.66          609.67     18.67
  Jacobian CCSD transformation                        2779.28        52773.59     18.99
  Eigen davidson solver iteration 58                  3328.30        54438.16     16.36
  Jacobian CCS transformation                            1.04           16.20     15.51
  Jacobian doubles transformation                       32.73          607.45     18.56
  Jacobian CCSD transformation                        2830.60        53384.07     18.86
  Eigen davidson solver iteration 59                  3396.75        55092.30     16.22
  Jacobian CCS transformation                            0.91           15.89     17.55
  Jacobian doubles transformation                       33.53          618.24     18.44
  Jacobian CCSD transformation                        2808.35        53480.62     19.04
  Eigen davidson solver iteration 60                  3386.54        55232.98     16.31
  Jacobian CCS transformation                            0.92           15.89     17.20
  Jacobian doubles transformation                       32.57          609.34     18.71
  Jacobian CCSD transformation                        2881.23        53626.58     18.61
  Eigen davidson solver iteration 61                  3483.65        55437.35     15.91
  Jacobian CCS transformation                            1.00           16.76     16.79
  Jacobian doubles transformation                       32.54          610.01     18.75
  Jacobian CCSD transformation                        2743.43        52567.76     19.16
  Eigen davidson solver iteration 62                  3388.19        54526.51     16.09
  Jacobian CCS transformation                            1.02           18.32     17.88
  Jacobian doubles transformation                       32.27          606.60     18.80
  Jacobian CCSD transformation                        2810.57        53742.74     19.12
  Eigen davidson solver iteration 63                  3499.73        55785.46     15.94
  Jacobian CCS transformation                            1.02           17.73     17.31
  Jacobian doubles transformation                       32.65          609.48     18.67
  Jacobian CCSD transformation                        2746.54        52653.21     19.17
  Eigen davidson solver iteration 64                  3433.79        54751.44     15.94
  Jacobian CCS transformation                            1.06           17.94     16.97
  Jacobian doubles transformation                       32.44          608.58     18.76
  Jacobian CCSD transformation                        2781.70        52891.90     19.01
  Eigen davidson solver iteration 65                  3279.72        54148.32     16.51
  Eigen davidson solver total                       429407.20      7309200.84     17.02
  Determining CC excited state amplitudes           429537.60      7309399.58     17.02


  Determining CC excited state amplitudes
  =======================================
  One-electron integrals (hamiltonian)                   0.10            1.31     13.05
  Fock matrix construction (T1 basis)                    1.50           27.34     18.21
  Time preparing for CCSD Jacobian transpose           904.39        17439.53     19.28
  Jacobian transpose CCS                                 1.06           18.95     17.82
  Jacobian transpose CCSD                             2588.57        50652.94     19.57
  Jacobian transpose CCS                                 1.05           18.67     17.73
  Jacobian transpose CCSD                             2584.42        50504.76     19.54
  Jacobian transpose CCS                                 0.98           17.81     18.13
  Jacobian transpose CCSD                             2575.04        50467.19     19.60
  Jacobian transpose CCS                                 0.97           17.97     18.52
  Jacobian transpose CCSD                             2587.61        50624.88     19.56
  Eigen davidson solver iteration 1                  10497.69       202885.92     19.33
  Jacobian transpose CCS                                 1.09           18.74     17.13
  Jacobian transpose CCSD                             2570.23        50376.08     19.60
  Jacobian transpose CCS                                 0.99           18.22     18.44
  Jacobian transpose CCSD                             2577.22        50465.33     19.58
  Jacobian transpose CCS                                 0.96           17.88     18.66
  Jacobian transpose CCSD                             2585.04        50621.30     19.58
  Jacobian transpose CCS                                 0.96           18.09     18.76
  Jacobian transpose CCSD                             2585.46        50662.70     19.60
  Eigen davidson solver iteration 2                  10556.08       203112.40     19.24
  Jacobian transpose CCS                                 1.05           18.45     17.55
  Jacobian transpose CCSD                             2612.58        51045.37     19.54
  Jacobian transpose CCS                                 0.98           18.19     18.49
  Jacobian transpose CCSD                             2584.18        50443.69     19.52
  Jacobian transpose CCS                                 1.01           18.28     18.11
  Jacobian transpose CCSD                             2569.53        50308.02     19.58
  Jacobian transpose CCS                                 1.00           18.39     18.35
  Jacobian transpose CCSD                             2557.83        50158.37     19.61
  Eigen davidson solver iteration 3                  10672.74       203352.19     19.05
  Jacobian transpose CCS                                 1.05           18.68     17.72
  Jacobian transpose CCSD                             2599.88        50707.06     19.50
  Jacobian transpose CCS                                 1.01           18.38     18.26
  Jacobian transpose CCSD                             2575.59        50376.71     19.56
  Jacobian transpose CCS                                 0.96           17.76     18.42
  Jacobian transpose CCSD                             2570.11        50398.64     19.61
  Jacobian transpose CCS                                 0.97           17.62     18.08
  Jacobian transpose CCSD                             2570.95        50424.36     19.61
  Eigen davidson solver iteration 4                  10716.75       203600.68     19.00
  Jacobian transpose CCS                                 1.13           18.91     16.77
  Jacobian transpose CCSD                             2623.53        51040.50     19.45
  Jacobian transpose CCS                                 1.01           17.93     17.75
  Jacobian transpose CCSD                             2574.26        50406.07     19.58
  Jacobian transpose CCS                                 0.97           18.42     18.92
  Jacobian transpose CCSD                             2575.04        50502.52     19.61
  Jacobian transpose CCS                                 1.01           18.27     18.01
  Jacobian transpose CCSD                             2579.07        50603.78     19.62
  Eigen davidson solver iteration 5                  10831.72       204621.81     18.89
  Jacobian transpose CCS                                 1.03           18.00     17.53
  Jacobian transpose CCSD                             2630.24        51048.41     19.41
  Jacobian transpose CCS                                 1.04           18.71     18.04
  Jacobian transpose CCSD                             2565.33        50232.41     19.58
  Jacobian transpose CCS                                 1.01           17.61     17.50
  Jacobian transpose CCSD                             2558.06        50165.29     19.61
  Jacobian transpose CCS                                 1.05           18.43     17.48
  Jacobian transpose CCSD                             2552.31        50104.98     19.63
  Eigen davidson solver iteration 6                  10894.41       204039.12     18.73
  Jacobian transpose CCS                                 1.02           18.33     17.98
  Jacobian transpose CCSD                             2647.45        51127.95     19.31
  Jacobian transpose CCS                                 1.02           18.27     17.98
  Jacobian transpose CCSD                             2563.34        50173.71     19.57
  Jacobian transpose CCS                                 1.01           18.20     18.02
  Jacobian transpose CCSD                             2555.39        50104.39     19.61
  Jacobian transpose CCS                                 0.97           17.69     18.29
  Jacobian transpose CCSD                             2564.98        50362.13     19.63
  Eigen davidson solver iteration 7                  10957.40       204178.91     18.63
  Jacobian transpose CCS                                 0.95           17.44     18.28
  Jacobian transpose CCSD                             2629.70        51057.10     19.42
  Jacobian transpose CCS                                 1.02           18.04     17.65
  Jacobian transpose CCSD                             2569.30        50228.62     19.55
  Jacobian transpose CCS                                 1.03           18.06     17.58
  Jacobian transpose CCSD                             2570.10        50338.57     19.59
  Eigen davidson solver iteration 8                   8422.77       153516.38     18.23
  Jacobian transpose CCS                                 1.10           18.92     17.21
  Jacobian transpose CCSD                             2643.09        51225.47     19.38
  Eigen davidson solver iteration 9                   3059.12        52272.22     17.09
  Eigen davidson solver total                        87708.48      1649512.73     18.81
  Determining CC excited state amplitudes            87839.92      1649709.25     18.78


  Biorthonormalization of excited CC states
  =========================================
  Biorthonormalization of left and right states         57.29          108.14      1.89
  Biorthonormalization of excited CC states             57.29          108.14      1.89


  Determining CC EOM transition moments
  =====================================
  Ground state density                                   8.74          143.21     16.38
  Density <0|E_pq|1>                                    15.40          272.14     17.67
  Density <0|E_pq|2>                                    15.59          272.78     17.50
  Density <0|E_pq|3>                                    15.10          266.68     17.66
  Density <0|E_pq|4>                                    17.00          276.10     16.25
  Density <1|E_pq|0>                                     7.70          132.85     17.26
  Density <2|E_pq|0>                                     7.45          128.54     17.26
  Density <3|E_pq|0>                                     7.23          126.88     17.56
  Density <4|E_pq|0>                                     7.41          127.74     17.24
  One-electron integrals (dipole)                        0.02            0.26     16.76
  Determining CC EOM transition moments                124.17         1777.82     14.32
  Total time in eT                                  593307.90     10371487.53     17.48
