
- system
   charge: 1

- memory
  available: 100

- method
   hf
   ccsd

- do
  response

- cc response
   eom
   dipole length
   transition moments

- solver cc es
   singlet states: 30
   core excitation:{1}

- active space
  freeze atom cores: [1,5]

- geometry
units: bohr
basis: aug-cc-pVDZ
C     -5.184317718985    -1.868688961504     1.692028204279
C     -2.692252291811    -1.003364214732     1.870579504876
C     -1.391610405806    -0.227834167742    -0.390888635175
C      1.221672463133     0.537687770409    -0.520019468011
C      2.787271652835     0.710184084806     1.913319057673
N      5.246048841577     1.345251526363     1.764717396543
H      1.979037719836     1.130029890740    -2.349525961377
H     -2.467629886759    -0.903331159960    -1.794022130672
H      2.289605088466     0.299917043748     3.781903287983
H     -1.946097686406    -0.521749244829     3.855821181346
H      6.477275209503     1.417644725814     3.315718547436
H      5.576701583727     1.928008716406    -0.270272835251
H     -5.945039740873    -2.414103161693     3.274606070362
H     -6.159423454870    -1.892207884679     0.126311893368
