
- system
   charge: 1

- memory
  available: 100

- method
   hf
   ccsd

- do
  response

- cc response
   eom
   dipole length
   transition moments

- solver cc es
   singlet states: 30
   core excitation:{1}

- active space
  freeze atom cores: [1,5]

- geometry
units: bohr
basis: aug-cc-pVDZ
C     -5.159136418496    -1.851827274939     1.600163396949
C     -2.700882600248    -1.065333220110     2.035482608709
C     -1.200636290252    -0.199756307305    -0.211452573681
C      1.215266286373     0.516919999428    -0.379877141380
C      2.693143083423     0.767411007523     1.769133649961
N      5.154580071175     1.362253237574     1.609713427763
H      2.275427785979     1.278835446552    -2.062785470294
H     -2.051703324282    -0.536112526834    -1.993046644149
H      2.134393637060     0.352217237236     3.847709309942
H     -1.970013424193    -0.817712972343     3.764108111226
H      6.227952728787     1.171631116765     3.128185036537
H      5.748535156185     1.339977981451    -0.191381379974
H     -6.969039502234    -2.408342704469     3.134952609084
H     -5.594963846427    -1.804181134089    -0.494234419891
