
- system
   charge: 1

- memory
  available: 100

- method
   hf
   ccsd

- do
  response

- cc response
   eom
   dipole length
   transition moments

- solver cc es
   singlet states: 30
   core excitation:{1}

- active space
  freeze atom cores: [1,5]

- geometry
units: bohr
basis: aug-cc-pVDZ
C     -5.239695642559    -1.784925111079     1.663935980509
C     -2.717506521460    -1.092790516827     1.924643716681
C     -1.285947015950    -0.214366597962    -0.325450534627
C      1.279402816216     0.406462107851    -0.307881266577
C      2.828567717992     0.689427766176     1.755854712645
N      5.194796517948     1.440290424728     1.659240688812
H      1.999051189317     0.868483242769    -1.804964920984
H     -2.530288620106    -0.195257804816    -2.251633551514
H      2.244539256801     0.058906327238     3.699817396188
H     -1.746851039876    -0.921979906723     3.827509598399
H      6.021293508040     1.540320293320     3.329375505441
H      5.724311425716     2.245548395768    -0.128215425625
H     -6.492505153233    -2.323960218080     3.219164102952
H     -6.181353685642    -1.829630017658    -0.226101902357
