
- system
   charge: 1

- memory
  available: 100

- method
   hf
   ccsd

- do
  response

- cc response
   eom
   dipole length
   transition moments

- solver cc es
   singlet states: 30
   core excitation:{1}

- active space
  freeze atom cores: [1,5]

- geometry
units: bohr
basis: aug-cc-pVDZ
C     -5.111795262532    -1.754956264961     1.638910788608
C     -2.734381170851    -0.988729122493     1.935843145058
C     -1.229884421663    -0.277676342704    -0.277274333232
C      1.157559955118     0.412024335611    -0.484835724901
C      2.818442267911     0.657332251258     1.749482852242
N      5.138174831913     1.370828544617     1.744783857486
H      2.077550826891     1.324259295293    -2.286241656879
H     -2.587786673102    -0.363045325995    -1.892234760629
H      2.049486628076    -0.053011808852     3.337807247463
H     -2.099351116869    -1.029105972745     3.815551969642
H      6.197987906333     1.945126210155     3.546358769393
H      6.079899196210     2.418201449641     0.153104050382
H     -6.125478293922    -2.590637401138     3.474217845801
H     -6.185601933099    -1.770665521164     0.103382869212
