
- system
   charge: 1

- memory
  available: 100

- method
   hf
   ccsd

- do
  response

- cc response
   eom
   dipole length
   transition moments

- solver cc es
   singlet states: 30
   core excitation:{1}

- active space
  freeze atom cores: [1,5]

- geometry
units: bohr
basis: aug-cc-pVDZ
C     -5.080024768028    -1.813879194231     1.644827228305
C     -2.702430668642    -1.027891015536     1.897756279955
C     -1.266452227531    -0.266022380569    -0.260549610341
C      1.114423949856     0.602450677644    -0.349518329549
C      2.690392647254     0.791983643909     1.814054982882
N      5.174633542136     1.230362409828     1.636255229778
H      2.288439836011     0.865131806632    -2.040719270563
H     -2.439923099286    -0.408324176468    -1.927892966696
H      2.018897847557     0.580893482066     3.910688700032
H     -1.962783895969    -0.892005579217     3.887718814658
H      6.309396302020     1.942993058072     2.900643042507
H      6.265841001605     1.509404453965     0.129010783845
H     -6.100019814072    -2.561266406166     2.995257749089
H     -5.763382211148    -2.048909062515    -0.292799226973
