
- system
   charge: 1

- memory
  available: 100

- method
   hf
   ccsd

- do
  response

- cc response
   eom
   dipole length
   transition moments

- solver cc es
   singlet states: 30
   core excitation:{1}

- active space
  freeze atom cores: [1,5]

- geometry
units: bohr
basis: aug-cc-pVDZ
C     -5.143943271252    -1.929557301409     1.635739562411
C     -2.749998723449    -1.086132656125     1.913825449568
C     -1.323661634243    -0.151980628489    -0.195764008863
C      1.268258801736     0.495751190574    -0.412502860127
C      2.779574860868     0.990634957002     1.727944917908
N      5.191430414436     1.178019857022     1.673511705947
H      1.999710589567     0.947284972690    -1.759132213628
H     -2.128944011017    -0.237755195931    -1.959392440736
H      1.418716383637     1.079784869021     3.507592094311
H     -1.827444172232    -1.098436166535     4.017636385528
H      6.419575638944     1.708964191305     3.214838254792
H      6.564113172841     1.365537195311    -0.053622741115
H     -6.602649909115    -2.633538918408     3.370633143076
H     -6.345381144254    -1.799117635494    -0.373137471224
