
- system
   charge: 1

- memory
  available: 100

- method
   hf
   ccsd

- do
  response

- cc response
   eom
   dipole length
   transition moments

- solver cc es
   singlet states: 30
   core excitation:{1}

- active space
  freeze atom cores: [1,5]

- geometry
units: bohr
basis: aug-cc-pVDZ
C     -5.271213564408    -1.707900289446     1.655034803458
C     -2.725057747310    -1.112286084498     1.994042899882
C     -1.326654951057    -0.265318231151    -0.225962384900
C      1.189025464108     0.459536191429    -0.387957447352
C      2.884881876869     0.652600818109     1.672099132843
N      5.166616699193     1.473216052390     1.711947413758
H      1.976301678827     0.949247816429    -2.155801764003
H     -2.338879270705    -0.303786983990    -2.276768989159
H      2.190122525751    -0.119325163447     3.512155663550
H     -1.841813953900    -1.063045362875     3.584290598324
H      6.415178391731     1.503671592935     3.374112183109
H      6.320457302404     2.239434672777     0.278914020994
H     -6.432791520479    -2.205931322663     3.174370699079
H     -5.502147296771    -2.287201244286    -0.512922958777
