- system
  charge: 1

- do
  response

- memory
  available: 50

- method
  hf
  ccsd

- cc response
  eom
  dipole length
  transition moments

- solver cc es
  singlet states: 30
  residual threshold: 1.0d-5

- active space
  freeze core

- geometry
units: bohr
basis: aug-cc-pvdz
C     -5.341248735225    -1.707405968880     1.533630597599
C     -2.792711282385    -1.191337391409     1.926148922335
C     -1.250503391463    -0.437445730633    -0.284094417009
C      1.156802643172     0.457993041238    -0.225057169976
C      2.868897318913     0.808734683015     1.934061356092
N      5.275655964005     1.525660981080     1.518662856191
H      1.932668221678     1.072161495490    -1.889763933580
H     -2.417042910216    -0.424573856274    -2.465038176040
H      2.632561073861     0.409364383046     4.018752771087
H     -1.571058366585    -1.987083855468     3.728931656335
H      6.665840208349     1.189919688414     3.241373072742
H      5.776315683541     1.845996067827    -0.131904642134
H     -6.169547220224    -1.897373003135     3.158587699241
H     -6.270955808667    -1.078978484882    -0.111907366782
