- system
  charge: 1

- do
  response

- memory
  available: 50

- method
  hf
  ccsd

- cc response
  eom
  dipole length
  transition moments

- solver cc es
  singlet states: 30
  residual threshold: 1.0d-5

- active space
  freeze core

- geometry
units: bohr
basis: aug-cc-pvdz
C     -5.274766535512    -1.546905728914     1.627485555153
C     -2.579726124677    -1.300336518838     1.986558604117
C     -1.169756372744    -0.520668866950    -0.285241146238
C      1.190537481869     0.548744431060    -0.366840766937
C      2.790828560255     0.741582767227     1.727534151901
N      5.089516372261     1.536522397339     1.734123030909
H      1.972851092156     0.961336843060    -2.436320009790
H     -2.296216101904    -0.070429865665    -2.256333970812
H      2.012187014563     0.025676110066     3.439262203323
H     -2.042139578062    -1.844700349213     4.157514891531
H      6.332353740751     1.096488328838     3.129944555206
H      5.900571466686     1.837243234797    -0.181866602082
H     -6.148922965785    -1.940183015129     3.202884682223
H     -6.329189473519    -0.989558079856    -0.173342216511
