- system
  charge: 1

- do
  response

- memory
  available: 50

- method
  hf
  ccsd

- cc response
  eom
  dipole length
  transition moments

- solver cc es
  singlet states: 30
  residual threshold: 1.0d-5

- active space
  freeze core

- geometry
units: bohr
basis: aug-cc-pvdz
C     -5.261645645882    -1.843474394947     1.662748406508
C     -2.684915744544    -1.105947717967     1.878119520450
C     -1.244990983630    -0.243292977263    -0.281126143908
C      1.188110986525     0.513507927696    -0.375614417416
C      2.845878717609     0.802176546704     1.852418635806
N      5.180708981265     1.317029061836     1.647201091135
H      2.112627226555     0.951580810182    -2.222701565332
H     -2.261334442812    -0.412162213613    -2.112435853749
H      2.063358831765     0.465219726601     3.494058725261
H     -1.951194788178    -0.694816699607     3.900036808245
H      6.382111659985     1.601923304404     3.210594876283
H      5.880340322207     1.933849400383     0.079198919581
H     -6.406369946065    -2.494564141183     3.358297771570
H     -6.318706154895    -1.616428962326    -0.177937256841
