UNITS=BOHR
14
C     -5.111795262532    -1.754956264961     1.638910788608
C     -2.734381170851    -0.988729122493     1.935843145058
C     -1.229884421663    -0.277676342704    -0.277274333232
C      1.157559955118     0.412024335611    -0.484835724901
C      2.818442267911     0.657332251258     1.749482852242
N      5.138174831913     1.370828544617     1.744783857486
H      2.077550826891     1.324259295293    -2.286241656879
H     -2.587786673102    -0.363045325995    -1.892234760629
H      2.049486628076    -0.053011808852     3.337807247463
H     -2.099351116869    -1.029105972745     3.815551969642
H      6.197987906333     1.945126210155     3.546358769393
H      6.079899196210     2.418201449641     0.153104050382
H     -6.125478293922    -2.590637401138     3.474217845801
H     -6.185601933099    -1.770665521164     0.103382869212
# momenta
    -0.401780028299      0.498268721398     10.560366854477
     3.075599862429     -8.056152959922      0.845579014999
     3.121211019210      6.748706293901     -3.659865422136
    -7.528613483725      2.537421990525     -0.623345791987
    16.652758054527     -0.675635972970      0.520486819561
    -4.880337811407     -2.951603356543     -2.531935092569
     0.667908438208     -1.233280859929     -0.581654372343
    -0.445601457365     -0.868133897177     -2.268066400346
    -2.476682654555     -0.139286242428      0.926910788636
    -0.335133608502      1.370878945628     -0.472646877134
    -2.069909649639      2.971880601877     -0.185868608823
     3.250818749192      0.467719067424      3.439671985911
    -3.948720800830      0.822056338679     -4.428699505128
    -4.681350607602     -1.492334749419     -1.541190097215
