system
  name: HF benchmark small amylose
  charge: 0
  multiplicity: 1
end system

print
   timing print level: verbose
   output print level: verbose
end print

do
  ground state
end do

memory
  available: 2000
  unit: GB
end memory

method
  hf
end method

solver scf
  gradient threshold: 1.0d-7
  energy threshold: 1.0d0
end solver scf

geometry
basis: cc-pvdz
H          2.82500        3.36100       -0.61700
H          4.53100        5.34600       -3.12200
H          1.19900        1.67500       -1.66900
H          2.27500        5.20500       -2.96400
H          2.80900        3.36800       -4.43300
H          0.63900       -1.36000       -4.99300
H          5.93600        3.29700       -4.44700
H          3.05600        1.35700       -5.05000
H          1.79700       -0.20500       -2.61500
H          1.84200       -1.61900       -2.98200
H          5.70600        1.42900       -3.60300
H          4.13800       -0.47800       -2.89600
O          2.32700        5.36600       -0.39000
O          4.16800        4.55200       -2.46900
O          1.08000        2.85400       -3.37200
O          3.19000        1.95400       -3.08600
O          1.26200       -0.61000       -4.50500
O          5.15000        2.82600       -5.03900
O          4.00800       -1.10100       -4.87100
C          2.22900        4.13000       -1.10800
C          0.63400        2.47500       -2.06000
C          2.76300        4.34000       -2.51500
C          2.48400        3.14200       -3.41800
C          3.66000        1.16000       -4.16400
C          2.15800       -0.78000       -3.41900
C          5.09400        1.49900       -4.50200
C          3.55500       -0.31000       -3.76000
C          5.40300       -0.92400       -5.14600
H         -7.98500        2.19000        4.50900
H         -2.68400       -2.37700        5.53800
H         -5.54000       -0.31300        5.49600
H         -6.97100        0.16400        2.72400
H         -6.91800        1.60500        2.49100
H         -2.98800       -1.00100        4.03400
H         -1.11700        0.87900        6.50000
H         -4.62000        0.48900        2.72400
H         -3.38100        0.83700        6.41600
H         -2.84100        2.69500        4.97500
H         -5.13000        4.47500        0.62000
H          0.27900        2.61900        4.78300
H         -2.63000        3.78000        3.16800
H         -4.04100        1.84800        1.10900
H         -4.02400        2.55000       -0.17200
H         -0.04400        2.26900        2.77600
H          1.74700        5.41700        2.78300
H         -1.69900        2.10800        0.81900
H         -0.51400        5.26700        2.79600
H         -0.00800        5.28500        0.43700
H         -2.29200        2.88200       -3.61100
H          3.11600        5.16800        0.33500
H          0.19600        4.53100       -1.53200
H         -1.13700        1.68400       -1.25400
H         -1.12400        1.10500       -2.59400
H          7.38700        0.71600       -6.73200
H          5.13400        0.69500       -6.49100
H          5.73400       -1.57800       -5.95200
H          3.69900       -4.97800       -2.53600
H          8.86200       -1.55100       -5.94800
H          6.04300       -3.29300       -4.74900
H          4.79800       -2.36400       -2.00200
H          4.88400       -3.51900       -1.11300
H          8.67200       -2.03800       -3.95300
H         10.40900       -4.90100       -5.33500
H          7.14800       -2.69200       -1.99300
H          8.15400       -4.78200       -5.14000
H          8.80900       -5.73700       -3.02500
H          6.82600       -5.18200        1.78600
H         11.93500       -5.63600       -3.08700
H          9.15100       -5.83200       -0.93600
H          7.84600       -3.12700        0.03600
H          7.95400       -3.13300        1.49200
H         11.73500       -4.36600       -1.47400
H         13.56400       -7.16800       -0.08900
H         10.20500       -3.26000        0.26800
H         11.30500       -7.00100       -0.03100
H         11.96000       -5.90100        2.01300
H          9.90500       -1.81700        4.55700
H         15.08200       -5.80600        1.85200
H         12.27800       -4.30200        3.36700
H         10.89100       -1.90900        1.84800
H         10.98200       -0.76000        2.74600
H         14.82900       -3.75900        1.84300
H         16.71600       -4.34000        4.87900
H         13.24900       -1.74600        2.06200
H         14.45300       -4.25000        4.81400
H         15.05400       -1.94500        5.19300
H         12.85900        2.51600        3.56200
H         18.17400       -1.93200        4.97600
H         15.31300        0.11300        4.75900
H         13.88000        0.34700        1.95600
H         13.92800        1.76300        1.60100
H         17.86600       -0.69000        3.35900
H         19.73200        1.39800        5.65600
H         16.23000        0.67700        1.92700
H         17.46800        1.34400        5.57700
H         18.00100        3.07300        3.98300
H         15.70800        4.46800       -0.50800
H         21.12300        2.99000        3.79600
H         18.21000        4.00000        2.08900
H         16.80500        1.89700        0.20300
H         16.82000        2.48600       -1.13300
H         20.80100        2.47000        1.82800
H         22.58300        5.61200        1.56500
H         19.14600        2.13600       -0.10900
H         20.32100        5.45700        1.59100
H         20.82800        5.27500       -0.76000
H         18.55100        2.52900       -4.58900
H         23.95200        5.15800       -0.85300
H         21.03400        4.35600       -2.65800
H         19.70900        1.53900       -2.13800
H         19.72400        0.84700       -3.42400
H         23.66800        3.27700       -1.64700
H         25.36700        5.04500       -4.31200
H         22.04600        1.50200       -2.55100
H         23.11100        4.91200       -4.14300
H         23.65000        2.95800       -5.45100
H         23.77500        1.44300       -2.95200
O         -7.38700        1.29900        4.32500
O         -3.43400       -1.69600        5.94000
O         -1.53200        0.45500        5.58600
O         -4.62900        1.85200        4.28700
O         -2.56200        1.72500        3.26000
O         -4.50600        3.79700        1.20200
O         -0.49400        3.33500        4.50300
O          1.35400        4.42600        2.56100
O         -1.76400        4.17800        0.70500
O          0.31800        3.34300        0.14400
O         -1.65600        2.94100       -2.72800
O          7.03800        0.73400       -5.69900
O          6.13700       -1.37300       -4.01400
O          4.29600       -4.11700       -2.83700
O          8.09700       -2.32800       -5.92800
O         10.04700       -4.08400       -4.70900
O          7.05800       -4.63600       -2.71200
O          9.18400       -4.07100       -2.00100
O          7.40300       -4.87500        0.91300
O         11.19100       -6.11700       -2.45100
O         13.17400       -6.18300       -0.34400
O         10.17600       -5.02300        1.36000
O         12.27700       -4.06100        1.32300
O         10.48400       -2.30200        3.77200
O         14.34400       -5.62000        2.63300
O         16.30200       -3.94600        3.95100
O         13.25500       -1.96700        4.12500
O         15.33000       -1.35100        3.31200
O         13.46100        1.61400        3.45400
O         17.42200       -1.22200        5.31900
O         19.31800        0.89600        4.78100
O         16.21700        2.17000        3.36900
O         18.28500        1.96100        2.35600
O         16.33400        3.84400        0.13000
O         20.34800        3.67800        3.45700
O         22.19300        4.60400        1.42900
O         19.07500        4.19000       -0.40000
O         21.15900        3.31600       -0.88700
O         19.18700        2.66500       -3.71300
O         23.16300        5.29200       -1.59200
O         25.00600        4.30900       -3.59500
O         21.92300        2.53200       -4.34900
O         24.03500        1.66400       -3.98700
C         -4.99600       -0.49700        4.57000
C         -6.56500        1.00500        3.20600
C         -3.53900       -0.69400        4.92200
C         -5.14300        0.68900        3.61700
C         -2.94000        0.59900        5.44800
C         -3.21600        1.77800        4.52100
C         -2.07100        2.94900        2.73600
C         -3.66300        2.75500        0.73500
C         -0.61400        3.14400        3.08800
C         -2.23800        2.92300        1.21700
C         -0.05500        4.36900        2.38200
C         -0.35300        4.35300        0.88700
C          0.78200        3.69500       -1.14900
C         -0.78000        1.95600       -2.20400
C          5.63900        0.53100       -5.54000
C          6.64200       -2.69900       -4.05800
C          5.18400       -3.34000       -2.04800
C          8.07000       -2.72100       -4.55100
C          6.57100       -3.28500       -2.64700
C          8.65300       -4.11900       -4.43300
C          8.45100       -4.70800       -3.04000
C          9.72400       -4.90700       -0.98800
C          8.26000       -3.75300        0.77300
C         11.15900       -5.27300       -1.29400
C          9.65300       -4.15500        0.34100
C         11.77700       -6.02200       -0.12700
C         11.57500       -5.29000        1.19700
C         12.82800       -3.76000        2.59700
C         11.31200       -1.70100        2.78800
C         14.27500       -4.19000        2.67700
C         12.72000       -2.25300        2.82100
C         14.90000       -3.71200        3.97700
C         14.66200       -2.22400        4.21500
C         15.85700       -0.14800        3.85100
C         14.28400        1.22800        2.36500
C         17.31400       -0.31000        4.21900
C         15.70600        0.95300        2.80100
C         17.90900        1.02500        4.63300
C         17.62900        2.11900        3.60700
C         18.77200        3.13800        1.73000
C         17.18000        2.76900       -0.24700
C         20.22800        3.36700        2.06300
C         18.60400        2.98200        0.21800
C         20.78300        4.52800        1.25600
C         20.48600        4.38400       -0.23300
C         21.62200        3.55800       -2.20700
C         20.06500        1.73000       -3.10800
C         23.06800        3.99800       -2.20200
C         21.47800        2.26500       -3.00900
C         23.60200        4.08900       -3.62200
C         23.32600        2.81800       -4.41900
H         -5.38817       -1.36421        4.08107
end geometry