# MO, Dyson coefficients
# left Dyson orbital 1, Norm:  0.648719586030
   1,  0.648718630848
   2,  0.000000000000
   3,  0.000000000000
   4,  0.000000000000
   5,  0.000000000000
   6,  0.000000000000
   7,  0.000000000000
   8,  0.000000000000
   9,  0.000000000000
  10,  0.000000000000
  11,  0.000000000000
  12,  0.000000000000
  13,  0.000000000000
  14,  0.000000000000
  15,  0.000000000000
  16,  0.000000000000
  17,  0.000000000000
  18,  0.000000021039
  19,  0.000175519633
  20, -0.000044973124
  21, -0.000092652354
  22,  0.000000003223
  23, -0.000016908384
  24, -0.000043769672
  25, -0.000000158664
  26, -0.000036831835
  27, -0.000039038626
  28, -0.000008096713
  29,  0.000000040753
  30, -0.000142807956
  31, -0.000190620312
  32,  0.000000144147
  33,  0.000017933188
  34,  0.000000167653
  35,  0.000104996252
  36, -0.000039240137
  37, -0.000126106655
  38, -0.000003660949
  39,  0.000020935825
  40,  0.000000044095
  41, -0.000011964678
  42,  0.000043466811
  43,  0.000000022038
  44,  0.000059417209
  45, -0.000064841272
  46, -0.000106745482
  47,  0.000000004230
  48, -0.000043393731
  49, -0.000080549796
  50,  0.000084978506
  51, -0.000119610196
  52,  0.000143059349
  53, -0.000165305770
  54,  0.000000071203
  55,  0.000159889521
  56, -0.000024013067
  57,  0.000049646473
  58, -0.000000157776
  59, -0.000048271980
  60,  0.000005836235
  61, -0.000000100446
  62, -0.000067688385
  63,  0.000000048299
  64, -0.000063935133
  65,  0.000012941898
  66,  0.000000067210
  67, -0.000074113314
  68, -0.000133369291
  69, -0.000209264621
  70,  0.000015269403
  71, -0.000000012089
  72,  0.000023939853
  73,  0.000000014962
  74,  0.000019069854
  75, -0.000114041692
  76,  0.000000008140
  77,  0.000140728774
  78, -0.000000850478
  79, -0.000081470687
  80, -0.000010355358
  81,  0.000044549184
  82, -0.000000012450
  83, -0.000033528911
  84,  0.000165301763
  85,  0.000040361593
  86, -0.000019435006
  87, -0.000120065245
  88, -0.000000346313
  89, -0.000167874971
  90, -0.000012244239
  91,  0.000000585729
  92, -0.000115819094
  93, -0.000007750344
  94, -0.000194089736
  95, -0.000001441396
  96,  0.000000101829
  97, -0.000037059076
  98, -0.000038688711
  99, -0.000000376160
 100,  0.000032014410
 101, -0.000020298013
 102,  0.000057985020
 103, -0.000000027598
 104, -0.000000032520
 105,  0.000079782032
 106, -0.000032944111
 107, -0.000070617514
 108,  0.000000318793
 109, -0.000001020999
 110, -0.000118284350
 111, -0.000163395142
 112,  0.000224930391
 113, -0.000000162306
 114, -0.000000206024
 115,  0.000025065166
 116, -0.000115734470
 117, -0.000000004723
 118, -0.000219417657
 119, -0.000000181752
 120, -0.000178058570
 121,  0.000000048355
 122,  0.000023631032
 123, -0.000000012129
 124,  0.000009619350
 125, -0.000111352762
 126, -0.000000059416
 127,  0.000026726018
 128,  0.000081202976
 129,  0.000002452348
 130,  0.000005414313
 131, -0.000002542177
 132,  0.000000041938
 133,  0.000040754363
 134, -0.000000019771
 135, -0.000025533436
 136, -0.000000839648
 137,  0.000078787735
 138, -0.000007811241
 139,  0.000004481635
 140,  0.000000042930
 141, -0.000052700531
 142, -0.000005473621
 143,  0.000000048477
 144,  0.000017074494
 145, -0.000017735815
 146, -0.000000042109
 147,  0.000040086306
 148,  0.000000002084
 149, -0.000029894422
 150, -0.000069712572
 151,  0.000000024200
 152, -0.000056139296
 153, -0.000000062950
 154,  0.000058340637
 155,  0.000043874072
 156,  0.000002044918
 157, -0.000000006133
 158,  0.000004920843
 159, -0.000000062408
 160,  0.000036811316
 161, -0.000000445957
 162,  0.000012310373
 163, -0.000031956154
 164,  0.000000071151
 165,  0.000000016936
 166, -0.000024341065
 167,  0.000001049689
 168, -0.000050850288
 169,  0.000000153576
 170,  0.000177641708
 171,  0.000015307369
 172,  0.000188959292
 173,  0.000011000248
 174, -0.000000069112
 175, -0.000058566273
 176,  0.000000035746
 177,  0.000012337050
 178, -0.000010869371
 179, -0.000025835530
 180, -0.000000109715
 181,  0.000023377486
 182,  0.000057844196
 183,  0.000000063259
 184,  0.000103152172
 185, -0.000171747748
 186,  0.000285432332
 187,  0.000146598203
 188,  0.000125734975
 189, -0.000000332148
 190,  0.000182477521
 191, -0.000099071419
 192, -0.000000066837
 193,  0.000308716886
 194, -0.000102433079
 195,  0.000017699785
 196,  0.000152388398
 197, -0.000020875863
 198,  0.000066439163
 199, -0.000000855706
 200,  0.000230050745
 201,  0.000026226359
 202, -0.000061330664
 203,  0.000044388974
 204,  0.000057222362
 205, -0.000002630120

# right Dyson orbital 1, Norm:  0.767778374527
   1,  0.767777096959
   2, -0.000175246260
   3, -0.000053284796
   4,  0.000066994362
   5, -0.000097713020
   6,  0.000024973736
   7, -0.000001464580
   8, -0.000007762455
   9,  0.000013808773
  10,  0.000025693167
  11, -0.000033968529
  12,  0.000014544061
  13, -0.000023864108
  14, -0.000000017622
  15,  0.000011071200
  16, -0.000000011713
  17, -0.000000016103
  18,  0.000000025615
  19,  0.000214710673
  20, -0.000055257943
  21, -0.000113538041
  22,  0.000000003689
  23, -0.000020718974
  24, -0.000053554686
  25, -0.000000196145
  26, -0.000045490059
  27, -0.000048160687
  28, -0.000010749509
  29,  0.000000050229
  30, -0.000175247970
  31, -0.000233816387
  32,  0.000000176335
  33,  0.000022473153
  34,  0.000000205054
  35,  0.000128181511
  36, -0.000048186704
  37, -0.000154665694
  38, -0.000004990391
  39,  0.000025459428
  40,  0.000000053647
  41, -0.000014555804
  42,  0.000052579304
  43,  0.000000026397
  44,  0.000071879128
  45, -0.000079435730
  46, -0.000129970980
  47,  0.000000005135
  48, -0.000052906170
  49, -0.000099330140
  50,  0.000103282779
  51, -0.000146666512
  52,  0.000176829010
  53, -0.000202327065
  54,  0.000000087467
  55,  0.000197001605
  56, -0.000028619963
  57,  0.000060324097
  58, -0.000000195070
  59, -0.000060363964
  60,  0.000007536061
  61, -0.000000129570
  62, -0.000086173916
  63,  0.000000060055
  64, -0.000078358060
  65,  0.000014698188
  66,  0.000000077212
  67, -0.000088322579
  68, -0.000161614558
  69, -0.000254619094
  70,  0.000018840658
  71, -0.000000015033
  72,  0.000028845006
  73,  0.000000017485
  74,  0.000022800359
  75, -0.000138413580
  76,  0.000000011963
  77,  0.000172470632
  78, -0.000001029161
  79, -0.000098782925
  80, -0.000012682198
  81,  0.000055468108
  82, -0.000000017087
  83, -0.000042176269
  84,  0.000204449231
  85,  0.000050479233
  86, -0.000024066936
  87, -0.000148655764
  88, -0.000000426577
  89, -0.000207358377
  90, -0.000015008506
  91,  0.000000715603
  92, -0.000141589061
  93, -0.000011677426
  94, -0.000239635500
  95, -0.000000486736
  96,  0.000000123844
  97, -0.000044954419
  98, -0.000044518388
  99, -0.000000431605
 100,  0.000038095428
 101, -0.000031282426
 102,  0.000073453011
 103, -0.000000031323
 104, -0.000000040705
 105,  0.000097480641
 106, -0.000041125219
 107, -0.000091380669
 108,  0.000000400961
 109, -0.000001271600
 110, -0.000147049634
 111, -0.000202931352
 112,  0.000277645297
 113, -0.000000198190
 114, -0.000000248496
 115,  0.000031091506
 116, -0.000144407303
 117, -0.000000002781
 118, -0.000272717657
 119, -0.000000226403
 120, -0.000220043717
 121,  0.000000059834
 122,  0.000029430836
 123, -0.000000014169
 124,  0.000012296072
 125, -0.000140157947
 126, -0.000000076395
 127,  0.000031952543
 128,  0.000100539376
 129,  0.000000998249
 130,  0.000008749928
 131, -0.000003299074
 132,  0.000000051357
 133,  0.000052083235
 134, -0.000000027887
 135, -0.000032018755
 136, -0.000001049734
 137,  0.000098339470
 138, -0.000009452905
 139,  0.000005495840
 140,  0.000000053107
 141, -0.000064953242
 142, -0.000007085939
 143,  0.000000060530
 144,  0.000020314599
 145, -0.000021874169
 146, -0.000000051042
 147,  0.000049447576
 148,  0.000000002682
 149, -0.000037448730
 150, -0.000085727177
 151,  0.000000031049
 152, -0.000068769134
 153, -0.000000077703
 154,  0.000071747509
 155,  0.000054917051
 156,  0.000002632563
 157, -0.000000008350
 158,  0.000005583952
 159, -0.000000073727
 160,  0.000047331043
 161, -0.000000540462
 162,  0.000014866689
 163, -0.000040665031
 164,  0.000000092252
 165,  0.000000021929
 166, -0.000029717371
 167,  0.000000017487
 168, -0.000065948070
 169,  0.000000196831
 170,  0.000224356959
 171,  0.000020470826
 172,  0.000237760081
 173,  0.000013788230
 174, -0.000000086157
 175, -0.000074652852
 176,  0.000000041551
 177,  0.000014885878
 178, -0.000013860284
 179, -0.000030574054
 180, -0.000000136952
 181,  0.000028966933
 182,  0.000072426017
 183,  0.000000077655
 184,  0.000130186548
 185, -0.000215500213
 186,  0.000359407781
 187,  0.000184046333
 188,  0.000158860961
 189, -0.000000415032
 190,  0.000228667367
 191, -0.000124709783
 192, -0.000000085000
 193,  0.000388751001
 194, -0.000129166603
 195,  0.000022775840
 196,  0.000191124293
 197, -0.000027659495
 198,  0.000087673266
 199,  0.000000902408
 200,  0.000287339729
 201,  0.000033114548
 202, -0.000074899143
 203,  0.000053776062
 204,  0.000070539631
 205, -0.000002289332

# left Dyson orbital 2, Norm:  0.022520774983
   1, -0.022520206464
   2,  0.000000000000
   3,  0.000000000000
   4,  0.000000000000
   5,  0.000000000000
   6,  0.000000000000
   7,  0.000000000000
   8,  0.000000000000
   9,  0.000000000000
  10,  0.000000000000
  11,  0.000000000000
  12,  0.000000000000
  13,  0.000000000000
  14,  0.000000000000
  15,  0.000000000000
  16,  0.000000000000
  17,  0.000000000000
  18, -0.000000001754
  19, -0.000022653527
  20,  0.000006101216
  21,  0.000011738419
  22, -0.000000001906
  23,  0.000002087333
  24,  0.000005360707
  25,  0.000000016714
  26,  0.000004347449
  27,  0.000004744883
  28,  0.000001036929
  29, -0.000000004048
  30,  0.000017788379
  31,  0.000025047646
  32, -0.000000018372
  33, -0.000002350524
  34, -0.000000024167
  35, -0.000014829351
  36,  0.000004528408
  37,  0.000015924761
  38, -0.000000862280
  39, -0.000003138831
  40, -0.000000007580
  41,  0.000003082449
  42, -0.000007036733
  43, -0.000000005237
  44, -0.000011516464
  45,  0.000008864045
  46,  0.000017995872
  47, -0.000000002219
  48,  0.000007102863
  49,  0.000011885117
  50, -0.000012668923
  51,  0.000016739086
  52, -0.000016564424
  53,  0.000019940720
  54, -0.000000003405
  55, -0.000023957042
  56,  0.000002327744
  57, -0.000009646763
  58,  0.000000027089
  59,  0.000005833823
  60,  0.000000059996
  61, -0.000000002719
  62, -0.000001238565
  63, -0.000000002025
  64,  0.000006960643
  65, -0.000006376544
  66, -0.000000015080
  67,  0.000013999694
  68,  0.000017855538
  69,  0.000033212827
  70, -0.000003314381
  71,  0.000000008043
  72, -0.000005863440
  73, -0.000000005359
  74, -0.000007237640
  75,  0.000014737174
  76,  0.000000002161
  77, -0.000018157069
  78,  0.000000147468
  79,  0.000013573498
  80,  0.000001658190
  81, -0.000005268738
  82,  0.000000001628
  83,  0.000006597531
  84, -0.000024022579
  85, -0.000004999007
  86,  0.000006285763
  87,  0.000018062841
  88,  0.000000052484
  89,  0.000025358856
  90,  0.000002067783
  91, -0.000000090983
  92,  0.000016372285
  93,  0.000002237231
  94,  0.000027935290
  95,  0.000001686503
  96, -0.000000019382
  97,  0.000006330445
  98,  0.000006341587
  99,  0.000000051491
 100, -0.000003902705
 101, -0.000009682335
 102,  0.000000585602
 103,  0.000000015757
 104,  0.000000011909
 105, -0.000021960681
 106,  0.000001356003
 107, -0.000008061949
 108, -0.000000009862
 109,  0.000000088815
 110,  0.000011148836
 111,  0.000022239001
 112, -0.000026145540
 113,  0.000000024299
 114,  0.000000034454
 115, -0.000005857553
 116,  0.000007219825
 117,  0.000000004891
 118,  0.000021746307
 119,  0.000000015795
 120,  0.000022797629
 121, -0.000000007823
 122, -0.000002544040
 123, -0.000000001112
 124, -0.000002401787
 125,  0.000016120632
 126,  0.000000009355
 127,  0.000000558274
 128, -0.000008232219
 129,  0.000007609041
 130, -0.000000457146
 131, -0.000002353068
 132, -0.000000008095
 133, -0.000003611033
 134, -0.000000004119
 135,  0.000001312707
 136,  0.000000114507
 137, -0.000010885162
 138,  0.000004583942
 139,  0.000000279004
 140, -0.000000001925
 141,  0.000007037778
 142,  0.000001974699
 143,  0.000000001008
 144,  0.000000278771
 145,  0.000001292485
 146,  0.000000002176
 147, -0.000007368568
 148, -0.000000001302
 149, -0.000001341715
 150,  0.000009865594
 151, -0.000000002235
 152,  0.000008446397
 153,  0.000000007582
 154, -0.000008450992
 155, -0.000000773903
 156, -0.000003057655
 157,  0.000000000176
 158, -0.000001296877
 159,  0.000000012152
 160,  0.000002254088
 161,  0.000000093562
 162, -0.000002718489
 163, -0.000000991298
 164,  0.000000006644
 165,  0.000000002850
 166,  0.000006681576
 167, -0.000006498368
 168, -0.000003547591
 169, -0.000000016251
 170, -0.000023219695
 171,  0.000002997814
 172, -0.000034457196
 173, -0.000002091029
 174,  0.000000006164
 175,  0.000000549068
 176, -0.000000024349
 177, -0.000007762078
 178,  0.000000408605
 179,  0.000032079671
 180,  0.000000010276
 181, -0.000010971117
 182,  0.000035017050
 183,  0.000000008392
 184, -0.000011264607
 185,  0.000018423067
 186, -0.000025817532
 187, -0.000010873157
 188, -0.000008412656
 189,  0.000000016969
 190, -0.000012802202
 191,  0.000006990098
 192,  0.000000002548
 193, -0.000023122812
 194,  0.000010018167
 195,  0.000002581694
 196, -0.000012164624
 197, -0.000005948152
 198,  0.000023769377
 199,  0.000020384773
 200, -0.000049644327
 201, -0.000006934703
 202,  0.000021928195
 203, -0.000021467686
 204, -0.000014650821
 205,  0.000012700249

# right Dyson orbital 2, Norm:  0.026157784522
   1, -0.026156902053
   2,  0.000012156462
   3,  0.000002704135
   4, -0.000003219598
   5,  0.000007632753
   6, -0.000002124102
   7,  0.000000892387
   8, -0.000000760075
   9, -0.000002386411
  10, -0.000004016207
  11,  0.000003830899
  12, -0.000001294965
  13,  0.000004065865
  14,  0.000000004571
  15, -0.000000910668
  16, -0.000000004532
  17,  0.000000021031
  18, -0.000000001698
  19, -0.000029646799
  20,  0.000007980200
  21,  0.000015451730
  22, -0.000000001967
  23,  0.000002745528
  24,  0.000007033464
  25,  0.000000021952
  26,  0.000005704808
  27,  0.000006275059
  28,  0.000001301836
  29, -0.000000005268
  30,  0.000023381270
  31,  0.000032967390
  32, -0.000000024029
  33, -0.000003055646
  34, -0.000000031660
  35, -0.000019581847
  36,  0.000006104001
  37,  0.000021012683
  38, -0.000001242308
  39, -0.000004115049
  40, -0.000000009412
  41,  0.000004204931
  42, -0.000009255033
  43, -0.000000006676
  44, -0.000015318127
  45,  0.000011771603
  46,  0.000023995961
  47, -0.000000002777
  48,  0.000009567233
  49,  0.000015705038
  50, -0.000016877118
  51,  0.000022343144
  52, -0.000021738409
  53,  0.000026439823
  54, -0.000000004397
  55, -0.000031646279
  56,  0.000003126521
  57, -0.000012839982
  58,  0.000000035842
  59,  0.000007531853
  60,  0.000000037120
  61, -0.000000004047
  62, -0.000002128345
  63, -0.000000002498
  64,  0.000009151661
  65, -0.000008506721
  66, -0.000000020565
  67,  0.000018808767
  68,  0.000023654467
  69,  0.000044086203
  70, -0.000004337281
  71,  0.000000010271
  72, -0.000007757486
  73, -0.000000007218
  74, -0.000009778676
  75,  0.000019605129
  76,  0.000000002948
  77, -0.000024345002
  78,  0.000000196322
  79,  0.000018061953
  80,  0.000002296703
  81, -0.000007170632
  82,  0.000000002386
  83,  0.000008818360
  84, -0.000031976971
  85, -0.000006696758
  86,  0.000008391055
  87,  0.000023863857
  88,  0.000000069413
  89,  0.000033875728
  90,  0.000002729018
  91, -0.000000121793
  92,  0.000021859036
  93,  0.000002839374
  94,  0.000037223198
  95,  0.000002437661
  96, -0.000000025945
  97,  0.000008562436
  98,  0.000008666833
  99,  0.000000070484
 100, -0.000005095409
 101, -0.000013473405
 102,  0.000001025010
 103,  0.000000021374
 104,  0.000000015961
 105, -0.000029608973
 106,  0.000001641552
 107, -0.000011444382
 108, -0.000000011808
 109,  0.000000116915
 110,  0.000014723363
 111,  0.000029769429
 112, -0.000034671420
 113,  0.000000032506
 114,  0.000000045804
 115, -0.000007678114
 116,  0.000009385499
 117,  0.000000006675
 118,  0.000028782886
 119,  0.000000020643
 120,  0.000030469932
 121, -0.000000010248
 122, -0.000003452798
 123, -0.000000001360
 124, -0.000003112771
 125,  0.000021199802
 126,  0.000000012449
 127,  0.000000706237
 128, -0.000010935616
 129,  0.000010214668
 130, -0.000000238934
 131, -0.000003008500
 132, -0.000000010552
 133, -0.000004670200
 134, -0.000000005466
 135,  0.000001648333
 136,  0.000000152104
 137, -0.000014409784
 138,  0.000006057382
 139,  0.000000422554
 140, -0.000000002348
 141,  0.000009300934
 142,  0.000002497690
 143,  0.000000000755
 144,  0.000000206436
 145,  0.000001787438
 146,  0.000000002814
 147, -0.000009935720
 148, -0.000000001704
 149, -0.000001694358
 150,  0.000013468522
 151, -0.000000002942
 152,  0.000011577588
 153,  0.000000010094
 154, -0.000011587771
 155, -0.000001204632
 156, -0.000004102256
 157,  0.000000000528
 158, -0.000001918662
 159,  0.000000017462
 160,  0.000003129594
 161,  0.000000131479
 162, -0.000003829377
 163, -0.000001380408
 164,  0.000000009283
 165,  0.000000004164
 166,  0.000009282145
 167, -0.000009092392
 168, -0.000005082393
 169, -0.000000021838
 170, -0.000031310741
 171,  0.000004185799
 172, -0.000046641991
 173, -0.000002890051
 174,  0.000000008094
 175,  0.000000579679
 176, -0.000000032868
 177, -0.000010479802
 178,  0.000000565221
 179,  0.000043685209
 180,  0.000000013501
 181, -0.000014885151
 182,  0.000047856333
 183,  0.000000011670
 184, -0.000015086160
 185,  0.000024653289
 186, -0.000034404743
 187, -0.000014431816
 188, -0.000011117566
 189,  0.000000021927
 190, -0.000017028918
 191,  0.000009204668
 192,  0.000000004186
 193, -0.000030556177
 194,  0.000013258471
 195,  0.000003524501
 196, -0.000016114884
 197, -0.000008325713
 198,  0.000032738783
 199,  0.000027630843
 200, -0.000066441837
 201, -0.000009233580
 202,  0.000029818643
 203, -0.000029161451
 204, -0.000019866785
 205,  0.000017266227

# left Dyson orbital 3, Norm:  0.145749752104
   1, -0.145749586746
   2,  0.000000000000
   3,  0.000000000000
   4,  0.000000000000
   5,  0.000000000000
   6,  0.000000000000
   7,  0.000000000000
   8,  0.000000000000
   9,  0.000000000000
  10,  0.000000000000
  11,  0.000000000000
  12,  0.000000000000
  13,  0.000000000000
  14,  0.000000000000
  15,  0.000000000000
  16,  0.000000000000
  17,  0.000000000000
  18, -0.000000004230
  19, -0.000032998492
  20,  0.000007823607
  21,  0.000017026269
  22, -0.000000001287
  23,  0.000003223416
  24,  0.000008101705
  25,  0.000000031799
  26,  0.000007352679
  27,  0.000007345467
  28,  0.000001910441
  29, -0.000000008367
  30,  0.000027071915
  31,  0.000035498641
  32, -0.000000027178
  33, -0.000002764081
  34, -0.000000031379
  35, -0.000018751252
  36,  0.000006868018
  37,  0.000023820249
  38,  0.000001656917
  39, -0.000003692612
  40, -0.000000009138
  41,  0.000001516616
  42, -0.000007642755
  43, -0.000000003866
  44, -0.000009360159
  45,  0.000011711512
  46,  0.000018539268
  47, -0.000000001142
  48,  0.000006942028
  49,  0.000014065436
  50, -0.000014895594
  51,  0.000021478584
  52, -0.000028301663
  53,  0.000032375635
  54, -0.000000016647
  55, -0.000028347414
  56,  0.000005427565
  57, -0.000007830829
  58,  0.000000025359
  59,  0.000009441443
  60, -0.000001633432
  61,  0.000000027018
  62,  0.000017164483
  63, -0.000000011289
  64,  0.000012977820
  65, -0.000000990946
  66, -0.000000011263
  67,  0.000013204333
  68,  0.000026252742
  69,  0.000038519325
  70, -0.000002636695
  71,  0.000000001488
  72, -0.000003900156
  73, -0.000000001611
  74, -0.000001796852
  75,  0.000023101808
  76, -0.000000002689
  77, -0.000026958486
  78,  0.000000159056
  79,  0.000015389689
  80,  0.000002456474
  81, -0.000008241479
  82,  0.000000000536
  83,  0.000005111689
  84, -0.000029925435
  85, -0.000007593996
  86,  0.000001849002
  87,  0.000021618809
  88,  0.000000062883
  89,  0.000029977719
  90,  0.000002149942
  91, -0.000000109267
  92,  0.000022341928
  93, -0.000000012667
  94,  0.000036069654
  95, -0.000000329829
  96, -0.000000017478
  97,  0.000006791575
  98,  0.000008466927
  99,  0.000000087675
 100, -0.000007559787
 101,  0.000006980606
 102, -0.000014784869
 103,  0.000000001230
 104,  0.000000001750
 105, -0.000009745419
 106,  0.000007626577
 107,  0.000020482678
 108, -0.000000073658
 109,  0.000000221090
 110,  0.000025281644
 111,  0.000031004715
 112, -0.000045790133
 113,  0.000000030741
 114,  0.000000040267
 115, -0.000003675049
 116,  0.000025213755
 117, -0.000000000223
 118,  0.000045762875
 119,  0.000000037579
 120,  0.000035503961
 121, -0.000000009644
 122, -0.000004945089
 123,  0.000000002578
 124, -0.000000935790
 125,  0.000019515444
 126,  0.000000009683
 127, -0.000007710664
 128, -0.000017020664
 129, -0.000004470381
 130,  0.000000355792
 131,  0.000001392111
 132, -0.000000008699
 133, -0.000007380319
 134,  0.000000005407
 135,  0.000005970126
 136,  0.000000158194
 137, -0.000014901145
 138,  0.000000398217
 139, -0.000000975496
 140, -0.000000008093
 141,  0.000010512242
 142,  0.000000085752
 143, -0.000000012887
 144, -0.000005208496
 145,  0.000004231312
 146,  0.000000010845
 147, -0.000007438714
 148,  0.000000000167
 149,  0.000007779170
 150,  0.000014447488
 151, -0.000000004652
 152,  0.000011714746
 153,  0.000000013263
 154, -0.000012097316
 155, -0.000010497895
 156,  0.000000648980
 157,  0.000000001097
 158, -0.000001151798
 159,  0.000000013710
 160, -0.000008699604
 161,  0.000000087534
 162, -0.000002416699
 163,  0.000007284237
 164, -0.000000017033
 165, -0.000000004491
 166,  0.000003790977
 167,  0.000001057986
 168,  0.000011447543
 169, -0.000000028048
 170, -0.000032138821
 171, -0.000003302141
 172, -0.000031666018
 173, -0.000002660185
 174,  0.000000014460
 175,  0.000013184098
 176, -0.000000002167
 177, -0.000000782634
 178,  0.000002080295
 179, -0.000003743556
 180,  0.000000023032
 181, -0.000002072216
 182, -0.000026228078
 183, -0.000000018267
 184, -0.000020045617
 185,  0.000034775328
 186, -0.000058321612
 187, -0.000031206381
 188, -0.000026136515
 189,  0.000000070126
 190, -0.000039590054
 191,  0.000020847649
 192,  0.000000014991
 193, -0.000064735347
 194,  0.000020405986
 195, -0.000004331955
 196, -0.000032831985
 197,  0.000005338649
 198, -0.000019951913
 199, -0.000004685354
 200, -0.000040830448
 201, -0.000003998283
 202,  0.000009618175
 203, -0.000005320497
 204, -0.000009902471
 205, -0.000002696211

# right Dyson orbital 3, Norm:  0.296008867724
   1, -0.296008473233
   2,  0.000067662289
   3,  0.000021813678
   4, -0.000029843413
   5,  0.000045131266
   6, -0.000012168904
   7,  0.000000970292
   8,  0.000012221702
   9, -0.000001256660
  10, -0.000012589492
  11,  0.000014588577
  12, -0.000006271762
  13,  0.000012543499
  14,  0.000000008954
  15, -0.000009617578
  16,  0.000000013355
  17, -0.000000002342
  18, -0.000000009155
  19, -0.000069669440
  20,  0.000016462549
  21,  0.000036082358
  22, -0.000000002952
  23,  0.000006906138
  24,  0.000017189417
  25,  0.000000068049
  26,  0.000015674060
  27,  0.000015621698
  28,  0.000004169174
  29, -0.000000017906
  30,  0.000057398806
  31,  0.000075234286
  32, -0.000000057991
  33, -0.000005808648
  34, -0.000000066085
  35, -0.000039634823
  36,  0.000014772100
  37,  0.000050689922
  38,  0.000003678091
  39, -0.000007683622
  40, -0.000000019359
  41,  0.000003206860
  42, -0.000015937936
  43, -0.000000008186
  44, -0.000019533534
  45,  0.000024852452
  46,  0.000039309751
  47, -0.000000001975
  48,  0.000014739690
  49,  0.000029967630
  50, -0.000031520503
  51,  0.000045703295
  52, -0.000060495838
  53,  0.000069306161
  54, -0.000000036371
  55, -0.000060087335
  56,  0.000011546793
  57, -0.000016482080
  58,  0.000000053618
  59,  0.000020113910
  60, -0.000003652197
  61,  0.000000059406
  62,  0.000037069361
  63, -0.000000024177
  64,  0.000027727546
  65, -0.000001859460
  66, -0.000000024265
  67,  0.000028213742
  68,  0.000055826039
  69,  0.000081749976
  70, -0.000005589050
  71,  0.000000002382
  72, -0.000008023028
  73, -0.000000003034
  74, -0.000003905747
  75,  0.000049895001
  76, -0.000000005312
  77, -0.000057954866
  78,  0.000000343043
  79,  0.000033153652
  80,  0.000005346013
  81, -0.000017470343
  82,  0.000000001128
  83,  0.000010953252
  84, -0.000063999227
  85, -0.000016385856
  86,  0.000003753775
  87,  0.000046037029
  88,  0.000000134197
  89,  0.000064186307
  90,  0.000004781730
  91, -0.000000235932
  92,  0.000048101401
  93, -0.000000320779
  94,  0.000077477301
  95, -0.000000822369
  96, -0.000000036611
  97,  0.000014530090
  98,  0.000018481830
  99,  0.000000192018
 100, -0.000016246423
 101,  0.000015211342
 102, -0.000032235645
 103,  0.000000002380
 104,  0.000000003869
 105, -0.000020597975
 106,  0.000016272499
 107,  0.000044200805
 108, -0.000000158505
 109,  0.000000479840
 110,  0.000054850341
 111,  0.000067193736
 112, -0.000098785452
 113,  0.000000065586
 114,  0.000000085858
 115, -0.000007455061
 116,  0.000054465875
 117, -0.000000000811
 118,  0.000098883497
 119,  0.000000080825
 120,  0.000077085302
 121, -0.000000020666
 122, -0.000011091858
 123,  0.000000005866
 124, -0.000001688942
 125,  0.000040688289
 126,  0.000000020661
 127, -0.000017056048
 128, -0.000036943610
 129, -0.000009842896
 130,  0.000001916833
 131,  0.000002985532
 132, -0.000000017407
 133, -0.000015028561
 134,  0.000000011780
 135,  0.000012405710
 136,  0.000000339893
 137, -0.000031859239
 138,  0.000000941502
 139, -0.000001919010
 140, -0.000000017154
 141,  0.000022823795
 142, -0.000000021089
 143, -0.000000030444
 144, -0.000011787561
 145,  0.000009570857
 146,  0.000000022981
 147, -0.000016518317
 148,  0.000000000326
 149,  0.000016530931
 150,  0.000031744928
 151, -0.000000010288
 152,  0.000025905183
 153,  0.000000028676
 154, -0.000026471172
 155, -0.000022326790
 156,  0.000001462387
 157,  0.000000002855
 158, -0.000002543769
 159,  0.000000029688
 160, -0.000018510036
 161,  0.000000187686
 162, -0.000005184519
 163,  0.000015557006
 164, -0.000000036516
 165, -0.000000009840
 166,  0.000007753261
 167,  0.000001961624
 168,  0.000024029833
 169, -0.000000060166
 170, -0.000069243203
 171, -0.000006513480
 172, -0.000068932236
 173, -0.000005869897
 174,  0.000000031083
 175,  0.000028609058
 176, -0.000000005037
 177, -0.000001943709
 178,  0.000004491974
 179, -0.000007147483
 180,  0.000000050667
 181, -0.000004778059
 182, -0.000057594891
 183, -0.000000039520
 184, -0.000043583388
 185,  0.000075430348
 186, -0.000127207173
 187, -0.000068250154
 188, -0.000056920081
 189,  0.000000150483
 190, -0.000086903587
 191,  0.000045549314
 192,  0.000000033095
 193, -0.000141508151
 194,  0.000044272852
 195, -0.000009297358
 196, -0.000072320230
 197,  0.000011178669
 198, -0.000042941407
 199, -0.000010336895
 200, -0.000088852935
 201, -0.000008394912
 202,  0.000021993407
 203, -0.000012149431
 204, -0.000022194482
 205, -0.000005916349

# left Dyson orbital 4, Norm:  0.019912847578
   1,  0.019912267589
   2,  0.000000000000
   3,  0.000000000000
   4,  0.000000000000
   5,  0.000000000000
   6,  0.000000000000
   7,  0.000000000000
   8,  0.000000000000
   9,  0.000000000000
  10,  0.000000000000
  11,  0.000000000000
  12,  0.000000000000
  13,  0.000000000000
  14,  0.000000000000
  15,  0.000000000000
  16,  0.000000000000
  17,  0.000000000000
  18,  0.000000003493
  19,  0.000021500825
  20, -0.000005514668
  21, -0.000010364611
  22,  0.000000001636
  23, -0.000001879897
  24, -0.000005008101
  25, -0.000000016192
  26, -0.000004454588
  27, -0.000004111996
  28, -0.000001620583
  29,  0.000000003650
  30, -0.000016374717
  31, -0.000023637400
  32,  0.000000017677
  33,  0.000001363351
  34,  0.000000024619
  35,  0.000014648077
  36, -0.000003948997
  37, -0.000014456622
  38,  0.000000689360
  39,  0.000003159844
  40,  0.000000006666
  41, -0.000003331686
  42,  0.000006779420
  43,  0.000000005010
  44,  0.000010942606
  45, -0.000008775291
  46, -0.000017669078
  47,  0.000000002150
  48, -0.000007474149
  49, -0.000011337967
  50,  0.000012103002
  51, -0.000015140682
  52,  0.000015376461
  53, -0.000018772348
  54,  0.000000002990
  55,  0.000021802483
  56, -0.000002667958
  57,  0.000009547820
  58, -0.000000025295
  59, -0.000005642136
  60,  0.000000048868
  61,  0.000000002934
  62,  0.000001693171
  63,  0.000000002009
  64, -0.000006363159
  65,  0.000005510606
  66,  0.000000013811
  67, -0.000013423943
  68, -0.000017023520
  69, -0.000031410076
  70,  0.000003369515
  71, -0.000000009122
  72,  0.000005970832
  73,  0.000000005068
  74,  0.000007981185
  75, -0.000013904184
  76, -0.000000001637
  77,  0.000017549573
  78, -0.000000138880
  79, -0.000012896663
  80, -0.000001892721
  81,  0.000006157934
  82, -0.000000001786
  83, -0.000006363798
  84,  0.000022762026
  85,  0.000004146587
  86, -0.000005850992
  87, -0.000017289178
  88, -0.000000050934
  89, -0.000023672431
  90, -0.000001701565
  91,  0.000000085213
  92, -0.000015405961
  93, -0.000001647978
  94, -0.000026270776
  95, -0.000001992469
  96,  0.000000019172
  97, -0.000006100737
  98, -0.000006162728
  99, -0.000000049572
 100,  0.000003777205
 101,  0.000010461720
 102, -0.000000796697
 103, -0.000000016080
 104, -0.000000010749
 105,  0.000020850593
 106, -0.000001174139
 107,  0.000008117890
 108,  0.000000008136
 109, -0.000000083213
 110, -0.000010484809
 111, -0.000020808098
 112,  0.000024347765
 113, -0.000000022427
 114, -0.000000033165
 115,  0.000005426290
 116, -0.000006551545
 117, -0.000000004039
 118, -0.000020523673
 119, -0.000000013702
 120, -0.000021538375
 121,  0.000000008050
 122,  0.000002411149
 123,  0.000000002039
 124,  0.000002105471
 125, -0.000014525909
 126, -0.000000008523
 127, -0.000000197592
 128,  0.000007922918
 129, -0.000006774839
 130, -0.000000098334
 131,  0.000001999379
 132,  0.000000008656
 133,  0.000003519832
 134,  0.000000004178
 135, -0.000001478187
 136, -0.000000107620
 137,  0.000010317318
 138, -0.000004314219
 139, -0.000000173244
 140,  0.000000002228
 141, -0.000006241718
 142, -0.000001901218
 143, -0.000000002100
 144, -0.000000615009
 145, -0.000001215212
 146, -0.000000002084
 147,  0.000006850936
 148,  0.000000001083
 149,  0.000000896670
 150, -0.000009859407
 151,  0.000000001599
 152, -0.000008714224
 153, -0.000000008537
 154,  0.000008704683
 155,  0.000001420849
 156,  0.000003054793
 157,  0.000000000559
 158,  0.000001509485
 159, -0.000000014485
 160, -0.000002034020
 161, -0.000000107541
 162,  0.000003126508
 163,  0.000000798790
 164, -0.000000006894
 165, -0.000000003054
 166, -0.000007217587
 167,  0.000006794165
 168,  0.000003661068
 169,  0.000000015136
 170,  0.000022300381
 171, -0.000002865296
 172,  0.000033088975
 173,  0.000002352910
 174, -0.000000006559
 175, -0.000000115150
 176,  0.000000023455
 177,  0.000007489811
 178, -0.000000430588
 179, -0.000030701136
 180, -0.000000009945
 181,  0.000010535825
 182, -0.000034042317
 183, -0.000000008224
 184,  0.000010520261
 185, -0.000017580749
 186,  0.000024060164
 187,  0.000010093417
 188,  0.000007793386
 189, -0.000000017023
 190,  0.000011740699
 191, -0.000006335127
 192,  0.000000001304
 193,  0.000020995367
 194, -0.000009213137
 195, -0.000002521603
 196,  0.000011141472
 197,  0.000006128214
 198, -0.000023874460
 199, -0.000019765492
 200,  0.000046700405
 201,  0.000006475324
 202, -0.000021262868
 203,  0.000020820542
 204,  0.000014018603
 205, -0.000012328156

# right Dyson orbital 4, Norm:  0.024921125597
   1,  0.024920313988
   2, -0.000011214804
   3, -0.000000798945
   4,  0.000004326145
   5, -0.000009626013
   6,  0.000001171250
   7, -0.000000846378
   8,  0.000000007068
   9,  0.000001853447
  10,  0.000005518832
  11, -0.000004458189
  12,  0.000001558307
  13, -0.000004830602
  14, -0.000000008195
  15,  0.000000628328
  16, -0.000000024264
  17,  0.000000011665
  18,  0.000000004652
  19,  0.000028006303
  20, -0.000007133648
  21, -0.000013468362
  22,  0.000000002276
  23, -0.000002431241
  24, -0.000006496694
  25, -0.000000021662
  26, -0.000005912525
  27, -0.000005389193
  28, -0.000002287953
  29,  0.000000004903
  30, -0.000021349498
  31, -0.000030872157
  32,  0.000000023284
  33,  0.000001664484
  34,  0.000000031929
  35,  0.000019117795
  36, -0.000005171402
  37, -0.000018903368
  38,  0.000000891437
  39,  0.000004135352
  40,  0.000000008567
  41, -0.000004505897
  42,  0.000008779915
  43,  0.000000006707
  44,  0.000014285056
  45, -0.000011562257
  46, -0.000023414882
  47,  0.000000002471
  48, -0.000009826819
  49, -0.000014835765
  50,  0.000015733728
  51, -0.000019780916
  52,  0.000020256788
  53, -0.000024790703
  54,  0.000000004296
  55,  0.000028506143
  56, -0.000003550870
  57,  0.000012488049
  58, -0.000000033111
  59, -0.000007403460
  60,  0.000000138076
  61,  0.000000003337
  62,  0.000002375570
  63,  0.000000002559
  64, -0.000008333101
  65,  0.000007242242
  66,  0.000000018589
  67, -0.000017765861
  68, -0.000022348670
  69, -0.000041211261
  70,  0.000004420869
  71, -0.000000011804
  72,  0.000007810581
  73,  0.000000006603
  74,  0.000010755789
  75, -0.000018442949
  76, -0.000000002626
  77,  0.000023111421
  78, -0.000000184387
  79, -0.000017102097
  80, -0.000002575967
  81,  0.000008027158
  82, -0.000000002193
  83, -0.000008311691
  84,  0.000029836226
  85,  0.000005421646
  86, -0.000007721256
  87, -0.000022715847
  88, -0.000000067280
  89, -0.000031097692
  90, -0.000002264646
  91,  0.000000112425
  92, -0.000020339323
  93, -0.000002065004
  94, -0.000034618371
  95, -0.000002514334
  96,  0.000000025050
  97, -0.000008077254
  98, -0.000008219773
  99, -0.000000066544
 100,  0.000004962308
 101,  0.000013886852
 102, -0.000000966988
 103, -0.000000021250
 104, -0.000000014336
 105,  0.000027430846
 106, -0.000001516219
 107,  0.000010765271
 108,  0.000000010333
 109, -0.000000110998
 110, -0.000013937810
 111, -0.000027592697
 112,  0.000032107696
 113, -0.000000029240
 114, -0.000000043298
 115,  0.000007069272
 116, -0.000008670724
 117, -0.000000005380
 118, -0.000027103799
 119, -0.000000018142
 120, -0.000028546679
 121,  0.000000010613
 122,  0.000003335801
 123,  0.000000002492
 124,  0.000002685281
 125, -0.000018818865
 126, -0.000000011184
 127, -0.000000189226
 128,  0.000010480179
 129, -0.000008945529
 130, -0.000000391553
 131,  0.000002635479
 132,  0.000000011247
 133,  0.000004453342
 134,  0.000000005519
 135, -0.000001885738
 136, -0.000000141219
 137,  0.000013503613
 138, -0.000005663198
 139, -0.000000253458
 140,  0.000000002886
 141, -0.000008171328
 142, -0.000002478327
 143, -0.000000002284
 144, -0.000000724711
 145, -0.000001725999
 146, -0.000000002876
 147,  0.000009115522
 148,  0.000000001372
 149,  0.000001233911
 150, -0.000013130584
 151,  0.000000002160
 152, -0.000011590725
 153, -0.000000011158
 154,  0.000011581174
 155,  0.000001842683
 156,  0.000004038400
 157,  0.000000000481
 158,  0.000002020391
 159, -0.000000019272
 160, -0.000002711687
 161, -0.000000142518
 162,  0.000004143180
 163,  0.000001077490
 164, -0.000000009093
 165, -0.000000004067
 166, -0.000009429931
 167,  0.000009042804
 168,  0.000004939546
 169,  0.000000019838
 170,  0.000029411899
 171, -0.000003876800
 172,  0.000043717520
 173,  0.000003166247
 174, -0.000000008661
 175, -0.000000176026
 176,  0.000000031034
 177,  0.000009899355
 178, -0.000000559921
 179, -0.000040550952
 180, -0.000000013208
 181,  0.000013935535
 182, -0.000044618430
 183, -0.000000010723
 184,  0.000013931153
 185, -0.000023295259
 186,  0.000032020336
 187,  0.000013486470
 188,  0.000010407832
 189, -0.000000022575
 190,  0.000015776865
 191, -0.000008466759
 192,  0.000000000932
 193,  0.000028042347
 194, -0.000012184945
 195, -0.000003321043
 196,  0.000014935156
 197,  0.000008133018
 198, -0.000031479225
 199, -0.000026017755
 200,  0.000061701960
 201,  0.000008506854
 202, -0.000028222447
 203,  0.000027535773
 204,  0.000018605476
 205, -0.000016202282

# left Dyson orbital 5, Norm:  0.013965625481
   1, -0.013965470936
   2,  0.000000000000
   3,  0.000000000000
   4,  0.000000000000
   5,  0.000000000000
   6,  0.000000000000
   7,  0.000000000000
   8,  0.000000000000
   9,  0.000000000000
  10,  0.000000000000
  11,  0.000000000000
  12,  0.000000000000
  13,  0.000000000000
  14,  0.000000000000
  15,  0.000000000000
  16,  0.000000000000
  17,  0.000000000000
  18,  0.000000000306
  19, -0.000009316306
  20,  0.000002414748
  21,  0.000004618789
  22, -0.000000002186
  23,  0.000000957456
  24,  0.000002343984
  25,  0.000000006791
  26,  0.000001796713
  27,  0.000001818402
  28,  0.000000444861
  29, -0.000000002261
  30,  0.000007206101
  31,  0.000010402551
  32, -0.000000008674
  33, -0.000000599119
  34, -0.000000010957
  35, -0.000006707645
  36,  0.000002019554
  37,  0.000006482862
  38, -0.000000239432
  39, -0.000001291909
  40, -0.000000004041
  41,  0.000001106140
  42, -0.000002752976
  43, -0.000000001620
  44, -0.000004504302
  45,  0.000003661690
  46,  0.000006867608
  47, -0.000000001116
  48,  0.000003439443
  49,  0.000005081586
  50, -0.000005750126
  51,  0.000006676859
  52, -0.000006664848
  53,  0.000008564588
  54, -0.000000001826
  55, -0.000009252479
  56,  0.000001424417
  57, -0.000004205127
  58,  0.000000010626
  59,  0.000002511160
  60,  0.000000117728
  61, -0.000000001015
  62,  0.000000442035
  63, -0.000000001302
  64,  0.000003241176
  65, -0.000001602534
  66, -0.000000005267
  67,  0.000005609928
  68,  0.000007458310
  69,  0.000013389100
  70, -0.000001300404
  71,  0.000000002981
  72, -0.000002072143
  73, -0.000000001794
  74, -0.000002598305
  75,  0.000006455467
  76, -0.000000000154
  77, -0.000008225901
  78,  0.000000054992
  79,  0.000005277534
  80,  0.000000620796
  81, -0.000003416492
  82,  0.000000001441
  83,  0.000002950903
  84, -0.000010293688
  85, -0.000002045999
  86,  0.000001950603
  87,  0.000007246247
  88,  0.000000021704
  89,  0.000010425431
  90,  0.000000852196
  91, -0.000000038945
  92,  0.000006986969
  93,  0.000000353057
  94,  0.000011663953
  95,  0.000001504307
  96, -0.000000008454
  97,  0.000002568660
  98,  0.000003063180
  99,  0.000000026159
 100, -0.000001797888
 101, -0.000003958237
 102, -0.000000546191
 103,  0.000000005741
 104,  0.000000004210
 105, -0.000008250090
 106,  0.000000759631
 107, -0.000002014148
 108, -0.000000007297
 109,  0.000000042972
 110,  0.000005328437
 111,  0.000009408926
 112, -0.000011661969
 113,  0.000000009578
 114,  0.000000014995
 115, -0.000001789948
 116,  0.000003782086
 117,  0.000000001370
 118,  0.000010390521
 119,  0.000000007490
 120,  0.000010007184
 121, -0.000000003192
 122, -0.000001161647
 123, -0.000000000543
 124, -0.000000620539
 125,  0.000006118825
 126,  0.000000003606
 127, -0.000000797518
 128, -0.000004016714
 129,  0.000001543141
 130,  0.000000411937
 131, -0.000000385063
 132, -0.000000003597
 133, -0.000001664731
 134,  0.000000000231
 135,  0.000001095831
 136,  0.000000047391
 137, -0.000004470793
 138,  0.000001534729
 139,  0.000000037784
 140, -0.000000001509
 141,  0.000002968742
 142,  0.000000308383
 143, -0.000000001450
 144, -0.000000474012
 145,  0.000000623440
 146,  0.000000001456
 147, -0.000002814009
 148,  0.000000000024
 149,  0.000000793835
 150,  0.000004826064
 151, -0.000000000546
 152,  0.000004483815
 153,  0.000000003998
 154, -0.000004249599
 155, -0.000001867781
 156, -0.000001005777
 157,  0.000000000125
 158, -0.000000822228
 159,  0.000000007930
 160,  0.000000055518
 161,  0.000000053849
 162, -0.000001547154
 163,  0.000000270870
 164,  0.000000001817
 165,  0.000000001211
 166,  0.000003532681
 167, -0.000002719514
 168, -0.000000636503
 169, -0.000000007724
 170, -0.000010768633
 171,  0.000000837781
 172, -0.000014969084
 173, -0.000001257388
 174,  0.000000003361
 175,  0.000001009454
 176, -0.000000008254
 177, -0.000002715493
 178,  0.000000296556
 179,  0.000011223028
 180,  0.000000004732
 181, -0.000003878175
 182,  0.000011203845
 183,  0.000000002252
 184, -0.000005295667
 185,  0.000008778173
 186, -0.000012280567
 187, -0.000005589843
 188, -0.000004314522
 189,  0.000000010556
 190, -0.000006704933
 191,  0.000003361902
 192,  0.000000000441
 193, -0.000011150644
 194,  0.000004352872
 195,  0.000000564015
 196, -0.000005864437
 197, -0.000002350962
 198,  0.000007910946
 199,  0.000006694692
 200, -0.000018240748
 201, -0.000002332353
 202,  0.000008731369
 203, -0.000008264069
 204, -0.000005977340
 205,  0.000004560996

# right Dyson orbital 5, Norm:  0.016602981525
   1, -0.016602723797
   2,  0.000006823764
   3, -0.000000874657
   4, -0.000000817778
   5,  0.000004586056
   6, -0.000001392160
   7,  0.000001171279
   8,  0.000000451352
   9, -0.000000183341
  10, -0.000002732890
  11,  0.000002807517
  12, -0.000001820497
  13,  0.000003096162
  14,  0.000000010013
  15, -0.000000267837
  16,  0.000000006389
  17,  0.000000043051
  18,  0.000000000925
  19, -0.000012597712
  20,  0.000003305692
  21,  0.000006343201
  22, -0.000000001626
  23,  0.000001348623
  24,  0.000003250084
  25,  0.000000008653
  26,  0.000002338097
  27,  0.000002445832
  28,  0.000000450370
  29, -0.000000002635
  30,  0.000009770079
  31,  0.000014200243
  32, -0.000000011566
  33, -0.000000819360
  34, -0.000000014763
  35, -0.000009360267
  36,  0.000002889789
  37,  0.000008900349
  38, -0.000000433357
  39, -0.000001761148
  40, -0.000000004427
  41,  0.000001477276
  42, -0.000003808413
  43, -0.000000001935
  44, -0.000006349881
  45,  0.000005002282
  46,  0.000009404971
  47, -0.000000000900
  48,  0.000004943444
  49,  0.000007047396
  50, -0.000008165004
  51,  0.000009299135
  52, -0.000008814169
  53,  0.000011706776
  54, -0.000000001884
  55, -0.000012691547
  56,  0.000001927525
  57, -0.000006010965
  58,  0.000000015251
  59,  0.000003327626
  60,  0.000000225223
  61, -0.000000002937
  62,  0.000000244032
  63, -0.000000001859
  64,  0.000004473236
  65, -0.000002217576
  66, -0.000000007981
  67,  0.000007867631
  68,  0.000010207995
  69,  0.000018600650
  70, -0.000001801340
  71,  0.000000003425
  72, -0.000002823631
  73, -0.000000002543
  74, -0.000003545147
  75,  0.000008810424
  76, -0.000000000339
  77, -0.000011509211
  78,  0.000000076315
  79,  0.000007261349
  80,  0.000000862612
  81, -0.000005016787
  82,  0.000000002821
  83,  0.000004258922
  84, -0.000014420233
  85, -0.000002895698
  86,  0.000002728875
  87,  0.000009917515
  88,  0.000000029647
  89,  0.000014572616
  90,  0.000001193587
  91, -0.000000054849
  92,  0.000009733673
  93,  0.000000445162
  94,  0.000016178852
  95,  0.000002465287
  96, -0.000000011662
  97,  0.000003630974
  98,  0.000004463902
  99,  0.000000038041
 100, -0.000002479328
 101, -0.000006146918
 102, -0.000000490227
 103,  0.000000008433
 104,  0.000000005933
 105, -0.000011820689
 106,  0.000000921066
 107, -0.000003526469
 108, -0.000000008854
 109,  0.000000058403
 110,  0.000007274221
 111,  0.000013116722
 112, -0.000016087207
 113,  0.000000014138
 114,  0.000000020828
 115, -0.000002408586
 116,  0.000004936166
 117,  0.000000002670
 118,  0.000014192416
 119,  0.000000009957
 120,  0.000013951107
 121, -0.000000004075
 122, -0.000001641216
 123, -0.000000000330
 124, -0.000000775859
 125,  0.000008382863
 126,  0.000000005029
 127, -0.000001141712
 128, -0.000005509806
 129,  0.000002195359
 130,  0.000000826745
 131, -0.000000458453
 132, -0.000000004080
 133, -0.000002203243
 134,  0.000000001013
 135,  0.000001461563
 136,  0.000000065619
 137, -0.000006116543
 138,  0.000002145484
 139,  0.000000104588
 140, -0.000000001551
 141,  0.000004115466
 142,  0.000000271024
 143, -0.000000002745
 144, -0.000000821282
 145,  0.000000860344
 146,  0.000000001869
 147, -0.000003978835
 148, -0.000000000324
 149,  0.000001203252
 150,  0.000006963023
 151, -0.000000000903
 152,  0.000006510116
 153,  0.000000005498
 154, -0.000006136623
 155, -0.000002768014
 156, -0.000001409222
 157,  0.000000000494
 158, -0.000001306507
 159,  0.000000011671
 160,  0.000000260248
 161,  0.000000079263
 162, -0.000002305945
 163,  0.000000268634
 164,  0.000000002707
 165,  0.000000002109
 166,  0.000005269018
 167, -0.000004125127
 168, -0.000001251892
 169, -0.000000011123
 170, -0.000015143143
 171,  0.000001360555
 172, -0.000021326713
 173, -0.000001832075
 174,  0.000000004556
 175,  0.000001247047
 176, -0.000000011890
 177, -0.000003890044
 178,  0.000000407309
 179,  0.000016429203
 180,  0.000000006363
 181, -0.000005612900
 182,  0.000016743357
 183,  0.000000003649
 184, -0.000007340755
 185,  0.000012189817
 186, -0.000016809792
 187, -0.000007587536
 188, -0.000005773169
 189,  0.000000012884
 190, -0.000009117501
 191,  0.000004478395
 192,  0.000000001120
 193, -0.000015007752
 194,  0.000005924800
 195,  0.000000894409
 196, -0.000007941309
 197, -0.000003632316
 198,  0.000011989817
 199,  0.000009766124
 200, -0.000025574814
 201, -0.000003249809
 202,  0.000012620413
 203, -0.000011960180
 204, -0.000008564833
 205,  0.000006668654

