  -------------------------------------------------------------
  Configuration date:  2024-01-04 07:54:29 UTC -05:00
  Git branch:          development
  Git hash:            78ee2c62b70862a991012b276d4c77213aad2cde
  Fortran compiler:    GNU 10.2.0
  C compiler:          GNU 10.2.0
  C++ compiler:        GNU 10.2.0
  LAPACK type:         MKL
  BLAS type:           MKL
  OEI type:            libint
  ERI type:            libint
  64-bit integers:     ON
  OpenMP:              ON
  PCM:                 OFF
  Forced batching:     OFF
  Runtime checks:      OFF
  Initializing to NAN: OFF
  -------------------------------------------------------------

  Description                                         wall[s]          cpu[s]  cpu/wall
  -------------------------------------------------------------------------------------
  One-electron integrals (overlap)                       0.07            1.09     15.35
  Cholesky decomposition of AO overlap                   0.24            1.32      5.44
  Construct Cauchy-Schwarz ERI screenings 
  (time to sort)                                         0.03            0.13      5.22
  Construct Cauchy-Schwarz ERI screenings 
  (total time)                                           0.08            1.05     12.30
  Time initializing AO tool                              0.92            3.98      4.31


  Generating initial SAD density
  ==============================
  SAD generation time                                    0.16            1.91     12.11
  Generating initial SAD density                         0.17            2.02     11.53


  Determining reference state
  ===========================
  One-electron integrals (hamiltonian)                   7.44          116.92     15.71
  AO G construction                                     38.14          608.88     15.97
  One-electron integrals (hamiltonian)                   6.73          105.43     15.66
  AO G construction                                    444.75         7102.31     15.97
  One-electron integrals (hamiltonian)                   6.72          105.20     15.66
  Construction of projection matrices (Po, Pv)           0.03            0.42     15.90
  Construct RH gradient                                  0.19            3.05     15.97
  DIIS: update space and calculate 
  extrapolated guess                                     0.00            0.02      6.86
  SCF diagonalization                                    0.57            8.76     15.44
  SCF iteration 1                                      452.39         7221.82     15.96
  AO G construction                                    416.02         6644.09     15.97
  One-electron integrals (hamiltonian)                   6.70          105.20     15.69
  Construction of projection matrices (Po, Pv)           0.03            0.42     16.01
  Construct RH gradient                                  0.19            2.97     15.94
  DIIS: update space and calculate 
  extrapolated guess                                     0.00            0.02     13.41
  SCF diagonalization                                    0.51            7.95     15.64
  SCF iteration 2                                      423.58         6762.69     15.97
  AO G construction                                    380.20         6072.25     15.97
  One-electron integrals (hamiltonian)                   6.71          105.24     15.68
  Construction of projection matrices (Po, Pv)           0.03            0.42     15.92
  Construct RH gradient                                  0.19            3.03     15.97
  DIIS: update space and calculate 
  extrapolated guess                                     0.00            0.04     11.52
  SCF diagonalization                                    0.50            7.90     15.70
  SCF iteration 3                                      387.77         6190.95     15.97
  AO G construction                                    349.70         5584.75     15.97
  One-electron integrals (hamiltonian)                   6.74          105.67     15.68
  Construction of projection matrices (Po, Pv)           0.03            0.42     15.36
  Construct RH gradient                                  0.19            2.97     15.95
  DIIS: update space and calculate 
  extrapolated guess                                     0.01            0.07     12.19
  SCF diagonalization                                    0.52            8.19     15.70
  SCF iteration 4                                      357.31         5704.15     15.96
  AO G construction                                    300.75         4802.87     15.97
  One-electron integrals (hamiltonian)                   6.72          105.36     15.67
  Construction of projection matrices (Po, Pv)           0.03            0.43     15.93
  Construct RH gradient                                  0.19            3.00     15.98
  DIIS: update space and calculate 
  extrapolated guess                                     0.00            0.06     12.73
  SCF diagonalization                                    0.54            8.50     15.68
  SCF iteration 5                                      308.37         4922.28     15.96
  AO G construction                                    265.09         4233.55     15.97
  One-electron integrals (hamiltonian)                   6.71          105.27     15.68
  Construction of projection matrices (Po, Pv)           0.03            0.42     15.74
  Construct RH gradient                                  0.18            2.94     15.94
  DIIS: update space and calculate 
  extrapolated guess                                     0.01            0.07     11.36
  SCF diagonalization                                    0.55            8.68     15.71
  SCF iteration 6                                      272.70         4352.95     15.96
  AO G construction                                    245.27         3917.12     15.97
  One-electron integrals (hamiltonian)                   6.74          105.66     15.67
  Construction of projection matrices (Po, Pv)           0.03            0.42     15.76
  Construct RH gradient                                  0.18            2.92     15.99
  DIIS: update space and calculate 
  extrapolated guess                                     0.01            0.08     14.12
  SCF diagonalization                                    0.55            8.66     15.62
  SCF iteration 7                                      252.91         4036.85     15.96
  AO G construction                                    208.55         3330.53     15.97
  One-electron integrals (hamiltonian)                   6.70          105.14     15.68
  Construction of projection matrices (Po, Pv)           0.03            0.41     15.43
  Construct RH gradient                                  0.18            2.79     15.95
  DIIS: update space and calculate 
  extrapolated guess                                     0.01            0.10     12.63
  SCF diagonalization                                    0.51            7.87     15.46
  SCF iteration 8                                      216.10         3448.83     15.96
  AO G construction                                    189.73         3029.80     15.97
  One-electron integrals (hamiltonian)                   6.73          105.60     15.68
  Construction of projection matrices (Po, Pv)           0.03            0.42     15.81
  Construct RH gradient                                  0.17            2.74     16.03
  DIIS: update space and calculate 
  extrapolated guess                                     0.01            0.10     13.73
  SCF diagonalization                                    0.55            8.60     15.71
  SCF iteration 9                                      197.33         3149.09     15.96
  AO G construction                                    158.06         2524.47     15.97
  One-electron integrals (hamiltonian)                   6.72          105.31     15.67
  Construction of projection matrices (Po, Pv)           0.03            0.43     16.15
  Construct RH gradient                                  0.16            2.54     15.95
  DIIS: update space and calculate 
  extrapolated guess                                     0.01            0.09     13.56
  SCF diagonalization                                    0.55            8.63     15.68
  SCF iteration 10                                     165.64         2643.19     15.96
  AO G construction                                    140.14         2237.85     15.97
  One-electron integrals (hamiltonian)                   6.73          105.52     15.68
  Construction of projection matrices (Po, Pv)           0.03            0.42     15.91
  Construct RH gradient                                  0.16            2.48     15.94
  DIIS: update space and calculate 
  extrapolated guess                                     0.00            0.06     14.38
  SCF diagonalization                                    0.56            8.76     15.65
  SCF iteration 11                                     147.73         2356.80     15.95
  AO G construction                                    119.10         1902.17     15.97
  One-electron integrals (hamiltonian)                   6.71          105.20     15.69
  Construction of projection matrices (Po, Pv)           0.03            0.43     16.17
  Construct RH gradient                                  0.15            2.43     15.91
  DIIS: update space and calculate 
  extrapolated guess                                     0.01            0.07     13.67
  SCF diagonalization                                    0.55            8.68     15.67
  SCF iteration 12                                     126.66         2020.68     15.95
  AO G construction                                     99.07         1582.29     15.97
  One-electron integrals (hamiltonian)                   6.71          105.26     15.69
  Construction of projection matrices (Po, Pv)           0.03            0.43     15.96
  Construct RH gradient                                  0.15            2.39     15.96
  DIIS: update space and calculate 
  extrapolated guess                                     0.01            0.08     12.91
  SCF diagonalization                                    0.55            8.64     15.59
  SCF iteration 13                                     106.63         1700.79     15.95
  AO G construction                                     84.09         1342.96     15.97
  One-electron integrals (hamiltonian)                   6.71          105.22     15.68
  Construction of projection matrices (Po, Pv)           0.03            0.43     16.01
  Construct RH gradient                                  0.15            2.39     15.95
  SCF iteration 14                                      91.09         1452.69     15.95
  SCF solver                                          3506.24        55963.84     15.96
  Determining reference state                         3559.25        56805.99     15.96
  Total time in eT                                    3560.36        56812.03     15.96
