


                     eT 2.0 - an electronic structure program

  ------------------------------------------------------------------------
   Author list in alphabetical order:
  ------------------------------------------------------------------------
   J. H. Andersen, S. Angelico, A. Balbi, A. Barlini, A. Bianchi, M. 
   Castagnola, S. Coriani, S. D. Folkestad, T. Giovannini, L. Goletto, 
   T. S. Haugland, A. Hutcheson, I-M. Høyvik, E. F. Kjønstad, H. Koch, 
   M. T. Lexander, T. Moitra, R. H. Myhre, A. C. Paul, R. Paul, J. Pedersen, 
   M. Rinaldi, R. R. Riso, S. Roet, E. Ronca, B. S. Sannes, M. Scavino, 
   A. K. Schnack-Petersen, A. S. Skeidsvoll, J. H. M. Trabski, Å. H. 
   Tveten
  ------------------------------------------------------------------------
   J. Chem. Phys. 152, 184103 (2020); https://doi.org/10.1063/5.0004713


   This is eT 2.0.0 A (development)
  -------------------------------------------------------------
  Configuration date:  2024-01-04 07:54:29 UTC -05:00
  Git branch:          development
  Git hash:            78ee2c62b70862a991012b276d4c77213aad2cde
  Fortran compiler:    GNU 10.2.0
  C compiler:          GNU 10.2.0
  C++ compiler:        GNU 10.2.0
  LAPACK type:         MKL
  BLAS type:           MKL
  OEI type:            libint
  ERI type:            libint
  64-bit integers:     ON
  OpenMP:              ON
  PCM:                 OFF
  Forced batching:     OFF
  Runtime checks:      OFF
  Initializing to NAN: OFF
  -------------------------------------------------------------


  :: Input file
  =============

     Note: geometry section is excluded from this print

     - system
       charge: 0
       multiplicity: 1

     - print
        timing print level: verbose
        output print level: verbose

     - do
       ground state

     - memory
       available: 2000

     - method
       hf

     - solver scf
       gradient threshold: 1.0d-7
       energy threshold: 1.0d0


  Calculation start:2024-01-08 03:27:52 UTC -05:00

  Running on 4 OMP threads
  Memory available for calculation: 2.000000 TB


  :: RHF wavefunction
  ===================

     ================================================================================
                                     Geometry (angstrom)
     ================================================================================
     Atom           X                  Y                  Z         #internal  #input
     ================================================================================
     Basis: cc-pvdz
     H        2.825000000000     3.361000000000    -0.617000000000          1       1
     H        4.531000000000     5.346000000000    -3.122000000000          2       2
     H        1.199000000000     1.675000000000    -1.669000000000          3       3
     H        2.275000000000     5.205000000000    -2.964000000000          4       4
     H        2.809000000000     3.368000000000    -4.433000000000          5       5
     H        0.639000000000    -1.360000000000    -4.993000000000          6       6
     H        5.936000000000     3.297000000000    -4.447000000000          7       7
     H        3.056000000000     1.357000000000    -5.050000000000          8       8
     H        1.797000000000    -0.205000000000    -2.615000000000          9       9
     H        1.842000000000    -1.619000000000    -2.982000000000         10      10
     H        5.706000000000     1.429000000000    -3.603000000000         11      11
     H        4.138000000000    -0.478000000000    -2.896000000000         12      12
     O        2.327000000000     5.366000000000    -0.390000000000         13      13
     O        4.168000000000     4.552000000000    -2.469000000000         14      14
     O        1.080000000000     2.854000000000    -3.372000000000         15      15
     O        3.190000000000     1.954000000000    -3.086000000000         16      16
     O        1.262000000000    -0.610000000000    -4.505000000000         17      17
     O        5.150000000000     2.826000000000    -5.039000000000         18      18
     O        4.008000000000    -1.101000000000    -4.871000000000         19      19
     C        2.229000000000     4.130000000000    -1.108000000000         20      20
     C        0.634000000000     2.475000000000    -2.060000000000         21      21
     C        2.763000000000     4.340000000000    -2.515000000000         22      22
     C        2.484000000000     3.142000000000    -3.418000000000         23      23
     C        3.660000000000     1.160000000000    -4.164000000000         24      24
     C        2.158000000000    -0.780000000000    -3.419000000000         25      25
     C        5.094000000000     1.499000000000    -4.502000000000         26      26
     C        3.555000000000    -0.310000000000    -3.760000000000         27      27
     C        5.403000000000    -0.924000000000    -5.146000000000         28      28
     H       -7.985000000000     2.190000000000     4.509000000000         29      29
     H       -2.684000000000    -2.377000000000     5.538000000000         30      30
     H       -5.540000000000    -0.313000000000     5.496000000000         31      31
     H       -6.971000000000     0.164000000000     2.724000000000         32      32
     H       -6.918000000000     1.605000000000     2.491000000000         33      33
     H       -2.988000000000    -1.001000000000     4.034000000000         34      34
     H       -1.117000000000     0.879000000000     6.500000000000         35      35
     H       -4.620000000000     0.489000000000     2.724000000000         36      36
     H       -3.381000000000     0.837000000000     6.416000000000         37      37
     H       -2.841000000000     2.695000000000     4.975000000000         38      38
     H       -5.130000000000     4.475000000000     0.620000000000         39      39
     H        0.279000000000     2.619000000000     4.783000000000         40      40
     H       -2.630000000000     3.780000000000     3.168000000000         41      41
     H       -4.041000000000     1.848000000000     1.109000000000         42      42
     H       -4.024000000000     2.550000000000    -0.172000000000         43      43
     H       -0.044000000000     2.269000000000     2.776000000000         44      44
     H        1.747000000000     5.417000000000     2.783000000000         45      45
     H       -1.699000000000     2.108000000000     0.819000000000         46      46
     H       -0.514000000000     5.267000000000     2.796000000000         47      47
     H       -0.008000000000     5.285000000000     0.437000000000         48      48
     H       -2.292000000000     2.882000000000    -3.611000000000         49      49
     H        3.116000000000     5.168000000000     0.335000000000         50      50
     H        0.196000000000     4.531000000000    -1.532000000000         51      51
     H       -1.137000000000     1.684000000000    -1.254000000000         52      52
     H       -1.124000000000     1.105000000000    -2.594000000000         53      53
     H        7.387000000000     0.716000000000    -6.732000000000         54      54
     H        5.134000000000     0.695000000000    -6.491000000000         55      55
     H        5.734000000000    -1.578000000000    -5.952000000000         56      56
     H        3.699000000000    -4.978000000000    -2.536000000000         57      57
     H        8.862000000000    -1.551000000000    -5.948000000000         58      58
     H        6.043000000000    -3.293000000000    -4.749000000000         59      59
     H        4.798000000000    -2.364000000000    -2.002000000000         60      60
     H        4.884000000000    -3.519000000000    -1.113000000000         61      61
     H        8.672000000000    -2.038000000000    -3.953000000000         62      62
     H       10.409000000000    -4.901000000000    -5.335000000000         63      63
     H        7.148000000000    -2.692000000000    -1.993000000000         64      64
     H        8.154000000000    -4.782000000000    -5.140000000000         65      65
     H        8.809000000000    -5.737000000000    -3.025000000000         66      66
     H        6.826000000000    -5.182000000000     1.786000000000         67      67
     H       11.935000000000    -5.636000000000    -3.087000000000         68      68
     H        9.151000000000    -5.832000000000    -0.936000000000         69      69
     H        7.846000000000    -3.127000000000     0.036000000000         70      70
     H        7.954000000000    -3.133000000000     1.492000000000         71      71
     H       11.735000000000    -4.366000000000    -1.474000000000         72      72
     H       13.564000000000    -7.168000000000    -0.089000000000         73      73
     H       10.205000000000    -3.260000000000     0.268000000000         74      74
     H       11.305000000000    -7.001000000000    -0.031000000000         75      75
     H       11.960000000000    -5.901000000000     2.013000000000         76      76
     H        9.905000000000    -1.817000000000     4.557000000000         77      77
     H       15.082000000000    -5.806000000000     1.852000000000         78      78
     H       12.278000000000    -4.302000000000     3.367000000000         79      79
     H       10.891000000000    -1.909000000000     1.848000000000         80      80
     H       10.982000000000    -0.760000000000     2.746000000000         81      81
     H       14.829000000000    -3.759000000000     1.843000000000         82      82
     H       16.716000000000    -4.340000000000     4.879000000000         83      83
     H       13.249000000000    -1.746000000000     2.062000000000         84      84
     H       14.453000000000    -4.250000000000     4.814000000000         85      85
     H       15.054000000000    -1.945000000000     5.193000000000         86      86
     H       12.859000000000     2.516000000000     3.562000000000         87      87
     H       18.174000000000    -1.932000000000     4.976000000000         88      88
     H       15.313000000000     0.113000000000     4.759000000000         89      89
     H       13.880000000000     0.347000000000     1.956000000000         90      90
     H       13.928000000000     1.763000000000     1.601000000000         91      91
     H       17.866000000000    -0.690000000000     3.359000000000         92      92
     H       19.732000000000     1.398000000000     5.656000000000         93      93
     H       16.230000000000     0.677000000000     1.927000000000         94      94
     H       17.468000000000     1.344000000000     5.577000000000         95      95
     H       18.001000000000     3.073000000000     3.983000000000         96      96
     H       15.708000000000     4.468000000000    -0.508000000000         97      97
     H       21.123000000000     2.990000000000     3.796000000000         98      98
     H       18.210000000000     4.000000000000     2.089000000000         99      99
     H       16.805000000000     1.897000000000     0.203000000000        100     100
     H       16.820000000000     2.486000000000    -1.133000000000        101     101
     H       20.801000000000     2.470000000000     1.828000000000        102     102
     H       22.583000000000     5.612000000000     1.565000000000        103     103
     H       19.146000000000     2.136000000000    -0.109000000000        104     104
     H       20.321000000000     5.457000000000     1.591000000000        105     105
     H       20.828000000000     5.275000000000    -0.760000000000        106     106
     H       18.551000000000     2.529000000000    -4.589000000000        107     107
     H       23.952000000000     5.158000000000    -0.853000000000        108     108
     H       21.034000000000     4.356000000000    -2.658000000000        109     109
     H       19.709000000000     1.539000000000    -2.138000000000        110     110
     H       19.724000000000     0.847000000000    -3.424000000000        111     111
     H       23.668000000000     3.277000000000    -1.647000000000        112     112
     H       25.367000000000     5.045000000000    -4.312000000000        113     113
     H       22.046000000000     1.502000000000    -2.551000000000        114     114
     H       23.111000000000     4.912000000000    -4.143000000000        115     115
     H       23.650000000000     2.958000000000    -5.451000000000        116     116
     H       23.775000000000     1.443000000000    -2.952000000000        117     117
     O       -7.387000000000     1.299000000000     4.325000000000        118     118
     O       -3.434000000000    -1.696000000000     5.940000000000        119     119
     O       -1.532000000000     0.455000000000     5.586000000000        120     120
     O       -4.629000000000     1.852000000000     4.287000000000        121     121
     O       -2.562000000000     1.725000000000     3.260000000000        122     122
     O       -4.506000000000     3.797000000000     1.202000000000        123     123
     O       -0.494000000000     3.335000000000     4.503000000000        124     124
     O        1.354000000000     4.426000000000     2.561000000000        125     125
     O       -1.764000000000     4.178000000000     0.705000000000        126     126
     O        0.318000000000     3.343000000000     0.144000000000        127     127
     O       -1.656000000000     2.941000000000    -2.728000000000        128     128
     O        7.038000000000     0.734000000000    -5.699000000000        129     129
     O        6.137000000000    -1.373000000000    -4.014000000000        130     130
     O        4.296000000000    -4.117000000000    -2.837000000000        131     131
     O        8.097000000000    -2.328000000000    -5.928000000000        132     132
     O       10.047000000000    -4.084000000000    -4.709000000000        133     133
     O        7.058000000000    -4.636000000000    -2.712000000000        134     134
     O        9.184000000000    -4.071000000000    -2.001000000000        135     135
     O        7.403000000000    -4.875000000000     0.913000000000        136     136
     O       11.191000000000    -6.117000000000    -2.451000000000        137     137
     O       13.174000000000    -6.183000000000    -0.344000000000        138     138
     O       10.176000000000    -5.023000000000     1.360000000000        139     139
     O       12.277000000000    -4.061000000000     1.323000000000        140     140
     O       10.484000000000    -2.302000000000     3.772000000000        141     141
     O       14.344000000000    -5.620000000000     2.633000000000        142     142
     O       16.302000000000    -3.946000000000     3.951000000000        143     143
     O       13.255000000000    -1.967000000000     4.125000000000        144     144
     O       15.330000000000    -1.351000000000     3.312000000000        145     145
     O       13.461000000000     1.614000000000     3.454000000000        146     146
     O       17.422000000000    -1.222000000000     5.319000000000        147     147
     O       19.318000000000     0.896000000000     4.781000000000        148     148
     O       16.217000000000     2.170000000000     3.369000000000        149     149
     O       18.285000000000     1.961000000000     2.356000000000        150     150
     O       16.334000000000     3.844000000000     0.130000000000        151     151
     O       20.348000000000     3.678000000000     3.457000000000        152     152
     O       22.193000000000     4.604000000000     1.429000000000        153     153
     O       19.075000000000     4.190000000000    -0.400000000000        154     154
     O       21.159000000000     3.316000000000    -0.887000000000        155     155
     O       19.187000000000     2.665000000000    -3.713000000000        156     156
     O       23.163000000000     5.292000000000    -1.592000000000        157     157
     O       25.006000000000     4.309000000000    -3.595000000000        158     158
     O       21.923000000000     2.532000000000    -4.349000000000        159     159
     O       24.035000000000     1.664000000000    -3.987000000000        160     160
     C       -4.996000000000    -0.497000000000     4.570000000000        161     161
     C       -6.565000000000     1.005000000000     3.206000000000        162     162
     C       -3.539000000000    -0.694000000000     4.922000000000        163     163
     C       -5.143000000000     0.689000000000     3.617000000000        164     164
     C       -2.940000000000     0.599000000000     5.448000000000        165     165
     C       -3.216000000000     1.778000000000     4.521000000000        166     166
     C       -2.071000000000     2.949000000000     2.736000000000        167     167
     C       -3.663000000000     2.755000000000     0.735000000000        168     168
     C       -0.614000000000     3.144000000000     3.088000000000        169     169
     C       -2.238000000000     2.923000000000     1.217000000000        170     170
     C       -0.055000000000     4.369000000000     2.382000000000        171     171
     C       -0.353000000000     4.353000000000     0.887000000000        172     172
     C        0.782000000000     3.695000000000    -1.149000000000        173     173
     C       -0.780000000000     1.956000000000    -2.204000000000        174     174
     C        5.639000000000     0.531000000000    -5.540000000000        175     175
     C        6.642000000000    -2.699000000000    -4.058000000000        176     176
     C        5.184000000000    -3.340000000000    -2.048000000000        177     177
     C        8.070000000000    -2.721000000000    -4.551000000000        178     178
     C        6.571000000000    -3.285000000000    -2.647000000000        179     179
     C        8.653000000000    -4.119000000000    -4.433000000000        180     180
     C        8.451000000000    -4.708000000000    -3.040000000000        181     181
     C        9.724000000000    -4.907000000000    -0.988000000000        182     182
     C        8.260000000000    -3.753000000000     0.773000000000        183     183
     C       11.159000000000    -5.273000000000    -1.294000000000        184     184
     C        9.653000000000    -4.155000000000     0.341000000000        185     185
     C       11.777000000000    -6.022000000000    -0.127000000000        186     186
     C       11.575000000000    -5.290000000000     1.197000000000        187     187
     C       12.828000000000    -3.760000000000     2.597000000000        188     188
     C       11.312000000000    -1.701000000000     2.788000000000        189     189
     C       14.275000000000    -4.190000000000     2.677000000000        190     190
     C       12.720000000000    -2.253000000000     2.821000000000        191     191
     C       14.900000000000    -3.712000000000     3.977000000000        192     192
     C       14.662000000000    -2.224000000000     4.215000000000        193     193
     C       15.857000000000    -0.148000000000     3.851000000000        194     194
     C       14.284000000000     1.228000000000     2.365000000000        195     195
     C       17.314000000000    -0.310000000000     4.219000000000        196     196
     C       15.706000000000     0.953000000000     2.801000000000        197     197
     C       17.909000000000     1.025000000000     4.633000000000        198     198
     C       17.629000000000     2.119000000000     3.607000000000        199     199
     C       18.772000000000     3.138000000000     1.730000000000        200     200
     C       17.180000000000     2.769000000000    -0.247000000000        201     201
     C       20.228000000000     3.367000000000     2.063000000000        202     202
     C       18.604000000000     2.982000000000     0.218000000000        203     203
     C       20.783000000000     4.528000000000     1.256000000000        204     204
     C       20.486000000000     4.384000000000    -0.233000000000        205     205
     C       21.622000000000     3.558000000000    -2.207000000000        206     206
     C       20.065000000000     1.730000000000    -3.108000000000        207     207
     C       23.068000000000     3.998000000000    -2.202000000000        208     208
     C       21.478000000000     2.265000000000    -3.009000000000        209     209
     C       23.602000000000     4.089000000000    -3.622000000000        210     210
     C       23.326000000000     2.818000000000    -4.419000000000        211     211
     H       -5.388170000000    -1.364210000000     4.081070000000        212     212
     ================================================================================

     ================================================================================
                                     Geometry (a.u.)
     ================================================================================
     Atom           X                  Y                  Z         #internal  #input
     ================================================================================
     Basis: cc-pvdz
     H        5.338476301896     6.351369504663    -1.165961018857          1       1
     H        8.562349070404    10.102475861925    -5.899724960892          2       2
     H        2.265781623354     3.165291258646    -3.153952901899          3       3
     H        4.299126933386     9.836024478361    -5.601148233211          4       4
     H        5.308240683903     6.364597587535    -8.377155910197          5       5
     H        1.207534993597    -2.570027529408    -9.435402539953          6       6
     H       11.217414275418     6.230427032691    -8.403612075941          7       7
     H        5.775003036671     2.564358351035    -9.543116929054          8       8
     H        3.395837845843    -0.387393855536    -4.941633815738          9       9
     H        3.480875521449    -3.059466595671    -5.635163303453         10      10
     H       10.782777266768     2.700418632003    -6.808683226808         11      11
     H        7.819686703450    -0.903289087542    -5.472646856740         12      12
     O        4.397392691863    10.140270384416    -0.736993188580         13      13
     O        7.876378487187     8.602033319020    -4.665733801551         14      14
     O        2.040904214530     5.393278359509    -6.372156492033         15      15
     O        6.028226337363     3.692524847400    -5.831694820408         16      16
     O        2.384834369201    -1.152732935985    -8.513216191166         17      17
     O        9.732089541510     5.340366028021    -9.522329941683         18      18
     O        7.574022307257    -2.080588463146    -9.204855952756         19      19
     C        4.212199531656     7.804568894454    -2.093816546018         20      20
     C        1.198086362974     4.677072158299    -3.892835816604         21      21
     C        5.221313282173     8.201411380612    -4.752661203281         22      22
     C        4.694079693420     5.937519483383    -6.459083893763         23      23
     C        6.916397615908     2.192082304495    -7.868819582689         24      24
     C        4.078028976811    -1.473986377161    -6.460973619888         25      25
     C        9.626264878534     2.832699460723    -8.507547012792         26      26
     C        6.717976372829    -0.585815098615    -7.105370228365         27      27
     C       10.210190251025    -1.746106939098    -9.724530637012         28      28
     H      -15.089463104652     4.138500212797     8.520775095664         29      29
     H       -5.072024918333    -4.491878998091    10.465303277841         30      30
     H      -10.469082730090    -0.591484276989    10.385934780610         31      31
     H      -13.173280814343     0.309915084429     5.147613963315         32      32
     H      -13.073125329741     3.033010429927     4.707307776292         33      33
     H       -5.646501660200    -1.891615850690     7.623155186495         34      34
     H       -2.110824081139     1.661069263493    12.283219809673         35      35
     H       -8.730534695491     0.924076074912     5.147613963315         36      36
     H       -6.389164027154     1.581700766261    12.124482815209         37      37
     H       -5.368711919889     5.092811905703     9.401387469711         38      38
     H       -9.694295019019     8.456524407429     1.171630197230         39      39
     H        0.527233588754     4.949192720236     9.038560053795         40      40
     H       -4.969979707606     7.143164750856     5.986652362622         41      41
     H       -7.636383269367     3.492213878196     2.095706272143         42      42
     H       -7.604257925250     4.818801617641    -0.325032893425         43      43
     H       -0.083147949481     4.287788576638     5.245879721793         44      44
     H        3.301351539615    10.236646416769     5.259107804665         45      45
     H       -3.210644685636     3.983542670583     1.547685696019         46      46
     H       -0.971319228026     9.953187498084     5.283674244284         47      47
     H       -0.015117808997     9.987202568326     0.825810316435         48      48
     H       -4.331252277503     5.446190690997    -6.823801035804         49      49
     H        5.888386604145     9.766104611752     0.633058251729         50      50
     H        0.370386320415     8.562349070404    -2.895060422834         51      51
     H       -2.148618603630     3.182298793768    -2.369716560205         52      52
     H       -2.124052164011     2.088147367644    -4.901949567122         53      53
     H       13.959406882162     1.353043905189   -12.721636270572         54      54
     H        9.701853923517     1.313359656573   -12.266212274552         55      55
     H       10.835689598256    -2.981987824564   -11.247649893411         56      56
     H        6.990096934766    -9.407056648085    -4.792345451897         57      57
     H       16.746752915896    -2.930965219200   -11.240090988913         58      58
     H       11.419614970747    -6.222868128193    -8.974309365559         59      59
     H        9.066905945663    -4.467312558472    -3.783231701379         60      60
     H        9.229422392376    -6.649946232344    -2.103265176641         61      61
     H       16.387704952228    -3.851261841864    -7.470087370406         62      62
     H       19.670159230598    -9.261547736493   -10.081688874555         63      63
     H       13.507762338391    -5.087142727329    -3.766224166258         64      64
     H       15.408826819704    -9.036670327670    -9.713192280264         65      65
     H       16.646597431294   -10.841358776630    -5.716421526809         66      66
     H       12.899270526281    -9.792560777496     3.375050858473         67      67
     H       22.553881296684   -10.650496438049    -5.833584546532         68      68
     H       17.292883765895   -11.020882758463    -1.768783652593         69      69
     H       14.826791173337    -5.909173591515     0.068030140484         70      70
     H       15.030881594791    -5.920511948262     2.819471377851         71      71
     H       22.175936071771    -8.250544259851    -2.785456307609         72      72
     H       25.632245153601   -13.545556860882    -0.168185625086         73      73
     H       19.284655101186    -6.160507166082     0.506446601383         74      74
     H       21.363353838208   -13.229972598080    -0.058581509862         75      75
     H       22.601124449798   -11.151273861058     3.804018688749         76      76
     H       18.717737263817    -3.433632368335     8.611481949643         77      77
     H       28.500849410690   -10.971749879225     3.499772782694         78      78
     H       23.202057357410    -8.129601787879     6.362707861411         79      79
     H       20.581007222638    -3.607487171795     3.492213878196         80      80
     H       20.752972299974    -1.436191854669     5.189187938056         81      81
     H       28.022748701175    -7.103480502240     3.482765247573         82      82
     H       31.588661898230    -8.201411380612     9.219973761753         83      83
     H       25.036981424363    -3.299461813491     3.896615268853         84      84
     H       27.312211678339    -8.031336029402     9.097141563656         85      85
     H       28.447937079202    -3.675517312279     9.813347764866         86      86
     H       24.299988235782     4.754550929406     6.731204455701         87      87
     H       34.343882587845    -3.650950872660     9.403277195836         88      88
     H       28.937376145465     0.213539052076     8.993206626805         89      89
     H       26.229398608963     0.655734965224     3.696304299649         90      90
     H       26.320105462942     3.331587157608     3.025451525429         91      91
     H       33.761846941479    -1.303911025950     6.347590052414         92      92
     H       37.288075889918     2.641837122142    10.688290960540         93      93
     H       30.670255001691     1.279344586331     3.641502242037         94      94
     H       33.009735943902     2.539791911415    10.539002596699         95      95
     H       34.016959968296     5.807128380788     7.526779154143         96      96
     H       29.683817964668     8.443296324557    -0.959980871279         97      97
     H       39.916684929188     5.650281112450     7.173400368849         98      98
     H       34.411912728330     7.558904498260     3.947637874216         99      99
     H       31.756847523316     3.584810458300     0.383614403287        100     100
     H       31.785193415184     4.697859145669    -2.141059699132        101     101
     H       39.308193117078     4.667623527676     3.454419355705        102     102
     H       42.675685071053    10.605143011059     2.957421384944        103     103
     H       36.180696380923     4.036455002071    -0.205980147578        104     104
     H       38.401124577287    10.312235461752     3.006554264183        105     105
     H       39.359215722441     9.968305307081    -1.436191854669        106     106
     H       35.056309336806     4.779117369025    -8.671953185629        107     107
     H       45.262720135582     9.747207350507    -1.611936384254        108     108
     H       39.748499304102     8.231646998605    -5.022892039094        109     109
     H       37.244612189053     2.908288505706    -4.040234454320        110     110
     H       37.272958080921     1.600598027507    -6.470422250511        111     111
     H       44.726037916206     6.192632510200    -3.112378927159        112     112
     H       47.936682601842     9.533668298431    -8.148499049125        113     113
     H       41.660902142161     2.838368639097    -4.820691343765        114     114
     H       43.673460464823     9.282334723864    -7.829135334073        115     115
     H       44.692022845964     5.589809876463   -10.300897105004        116     116
     H       44.928238611534     2.726874797747    -5.578471519716        117     117
     O      -13.959406882162     2.454754235810     8.173065488744        118     118
     O       -6.489319511756    -3.204975507262    11.224973179916        119     119
     O       -2.895060422834     0.859825386677    10.556010131820        120     120
     O       -8.747542230612     3.499772782694     8.101255896010        121     121
     O       -4.841478331136     3.259777564875     6.160507166082        122     122
     O       -8.515105917290     7.175290094974     2.271450801727        123     123
     O       -0.933524705535     6.302236625424     8.509436738916        124     124
     O        2.558689172661     8.363927827325     4.839588605011        125     125
     O       -3.333476883733     7.895275748433     1.332256917818        126     126
     O        0.600932907612     6.317354434421     0.272120561937        127     127
     O       -3.129386462280     5.557684532346    -5.155172867813        128     128
     O       13.299892464689     1.387058975431   -10.769549183896        129     129
     O       11.597249226456    -2.594593969028    -7.585360664004        130     130
     O        8.118263431132    -7.780002454834    -5.361153015391        131     131
     O       15.301112430603    -4.399282417987   -11.202296466422        132     132
     O       18.986078373505    -7.717641492724    -8.898720320577        133     133
     O       13.337686987180    -8.760770313484    -5.124937249820        134     134
     O       17.355244728006    -7.693075053104    -3.781341975255        135     135
     O       13.989642500155    -9.212414857255     1.725319951728        136     136
     O       21.147925060008   -11.559454703964    -4.631718731309        137     137
     O       24.895251965020   -11.684176628186    -0.650065786850        138     138
     O       19.229853043574    -9.492094323690     2.570027529408        139     139
     O       23.200167631285    -7.674177791859     2.500107662800        140     140
     O       19.811888689940    -4.350149538749     7.128046941859        141     141
     O       27.106231530761   -10.620260820056     4.975648885980        142     142
     O       30.806315282660    -7.456859287534     7.466307918157        143     143
     O       25.048319781110    -3.717091287019     7.795120263831        144     144
     O       28.969501489582    -2.553019994287     6.258772924559        145     145
     O       25.437603362770     3.050017965048     6.527114034248        146     146
     O       32.922808542173    -2.309245324219    10.051453256562        147     147
     O       36.505729274348     1.693194607610     9.034780601546        148     148
     O       30.645688562072     4.100705690306     6.366487313660        149     149
     O       34.553642187672     3.705752930272     4.452194749475        150     150
     O       30.866786518646     7.264107222828     0.245664396193        151     151
     O       38.452147182650     6.950412686150     6.532783212621        152     152
     O       41.938691882472     8.700299077498     2.700418632003        153     153
     O       36.046525826079     7.917952461928    -0.755890449826        154     154
     O       39.984715069672     6.266331829058    -1.676187072489        155     155
     O       36.258175152030     5.036120121966    -7.016553100510        156     156
     O       43.771726223301    10.000430651198    -3.008443990308        157     157
     O       47.254491470874     8.142829870751    -6.793565417811        158     158
     O       41.428465828840     4.784786547399    -8.218418915733        159     159
     O       45.419567403921     3.144504271276    -7.534338058641        160     160
     C       -9.441071718327    -0.939193883909     8.636048389262        161     161
     C      -12.406052007770     1.899174755188     6.058461955356        162     162
     C       -6.687740754836    -1.311469930448     9.301231985109        163     163
     C       -9.718861458638     1.302021299825     6.835139392552        164     164
     C       -5.555794806221     1.131945948614    10.295227926630        165     165
     C       -6.077359216601     3.359933049477     8.543451809159        166     166
     C       -3.913622803974     5.572802341342     5.170290676810        167     167
     C       -6.922066794282     5.206195473177     1.388948701555        168     168
     C       -1.160291840483     5.941298935633     5.835474272657        169     169
     C       -4.229207066777     5.523669462104     2.299796693596        170     170
     C       -0.103934936851     8.256213438225     4.501327628714        171     171
     C       -0.667073321971     8.225977820232     1.676187072489        172     172
     C        1.477765829410     6.982538030268    -2.171295317125        173     173
     C       -1.473986377161     3.696304299649    -4.164956378541        174     174
     C       10.656165616422     1.003444572144   -10.469082730090        175     175
     C       12.551560919361    -5.100370810201    -7.668508613485        176     176
     C        9.796340229745    -6.311685256047    -3.870159103109        177     177
     C       15.250089825240    -5.141944784942    -8.600143592896        178     178
     C       12.417390364517    -6.207750319196    -5.002105051724        179     179
     C       16.351800155861    -7.783781907083    -8.377155910197        180     180
     C       15.970075478699    -8.896830594452    -5.744767418678        181     181
     C       18.375696835271    -9.272886093241    -1.867049411070        182     182
     C       15.609137788907    -7.092142145493     1.460758294289        183     183
     C       21.087453824022    -9.964525854832    -2.445305605187        184     184
     C       18.241526280427    -7.851812047568     0.644396608477        185     185
     C       22.255304569003   -11.379930722131    -0.239995217820        186     186
     C       21.873579891841    -9.996651198949     2.262002171104        187     187
     C       24.241406725921    -7.105370228365     4.907618745495        188     188
     C       21.376581921080    -3.214424137885     5.268556435287        189     189
     C       26.975840428166    -7.917952461928     5.058796835461        190     190
     C       24.037316304468    -4.257552958645     5.330917397398        191     191
     C       28.156919256019    -7.014663374386     7.515440797395        192     192
     C       27.707164438373    -4.202750901033     7.965195615042        193     193
     C       29.965387157228    -0.279679466436     7.277335305700        194     194
     C       26.992847963287     2.320583680966     4.469202284596        195     195
     C       32.718718120719    -0.585815098615     7.972754519540        196     196
     C       29.680038512419     1.800908996711     5.293122874907        197     197
     C       33.843105164836     1.936969277679     8.755101135110        198     198
     C       33.313981849957     4.004329657953     6.816242131306        199     199
     C       35.473938810335     5.929960578885     3.269226195498        200     200
     C       32.465494820028     5.232651638921    -0.466762352768        201     201
     C       38.225380047702     6.362707861411     3.898504994978        202     202
     C       35.156464821408     5.635163303453     0.411960295155        203     203
     C       39.274178046836     8.556679892031     2.373496012454        204     204
     C       38.712929387840     8.284559330093    -0.440306187024        205     205
     C       40.859658265346     6.723645551202    -4.170625556915        206     206
     C       37.917354689398     3.269226195498    -5.873268795148        207     207
     C       43.592202241467     7.555125046011    -4.161176926292        208     208
     C       40.587537703408     4.280229672140    -5.686185908816        209     209
     C       44.601315991985     7.727090123347    -6.844588023175        210     210
     C       44.079751581605     5.325248219024    -8.350699744453        211     211
     H      -10.182165612598    -2.577983276393     7.712104595179        212     212
     ================================================================================

  - Cholesky decomposition of AO overlap to get linearly independent AOs:

     Linear dependence threshold:             0.10E-05
     Number of atomic orbitals:               2050
     Number of orthonormal atomic orbitals:   2050

  - Molecular orbital details:

     Number of occupied orbitals:       431
     Number of virtual orbitals:       1619
     Number of molecular orbitals:     2050

  Will perform Coulomb and exchange terms in the Fock matrix separately


  Generating initial SAD density
  ==============================
     Generated atomic density for H  using UHF/cc-pvdz
     Generated atomic density for O  using UHF/cc-pvdz
     Generated atomic density for C  using UHF/cc-pvdz


  Determining reference state
  ===========================

  - Setting initial AO density to sad

     Energy of initial guess:             -6112.645538485493
     Number of electrons in guess:          862.000000000000

  - Screening and integral thresholds:

     Coulomb screening threshold:    0.1000E-12
     Exchange screening threshold:   0.1000E-10
     Cumulative Fock threshold:      0.1000E+01
     ERI precision:                     0.1000E-12
     One-electron integral precision:   0.1000E-17

  Self-consistent field solver
  ----------------------------

  A Self-consistent field solver that solves an eigenvalue equations: 
  F(C) C = C e.

  - SCF solver settings:

     Maximum iterations:                   100
     Acceleration type:                   diis

  - Convergence thresholds:

     Residual threshold:            0.1000E-06
     Energy threshold:              0.1000E+01

  - DIIS tool settings:

     DIIS dimension:   8
     Storage (solver scf_errors): memory
     Storage (solver scf_parameters): memory

  Iteration       Energy (a.u.)      Max(grad.)    Delta E (a.u.)
  ---------------------------------------------------------------
     1         -6071.445585933867     0.8555E-01     0.6071E+04
  Fock matrix construction using density differences
     2         -6073.208391136850     0.5491E-01     0.1763E+01
  Fock matrix construction using density differences
     3         -6073.664865837158     0.1325E-01     0.4565E+00
  Fock matrix construction using density differences
     4         -6073.701271181104     0.1807E-02     0.3641E-01
  Fock matrix construction using density differences
     5         -6073.702534879858     0.9855E-03     0.1264E-02
  Fock matrix construction using density differences
     6         -6073.702680774328     0.3037E-03     0.1459E-03
  Fock matrix construction using density differences
     7         -6073.702707324194     0.1150E-03     0.2655E-04
  Fock matrix construction using density differences
     8         -6073.702709680278     0.3490E-04     0.2356E-05
  Fock matrix construction using density differences
     9         -6073.702710030670     0.1117E-04     0.3504E-06
  Fock matrix construction using density differences
    10         -6073.702710061307     0.4857E-05     0.3064E-07
  Fock matrix construction using density differences
    11         -6073.702710069640     0.1677E-05     0.8334E-08
  Fock matrix construction using density differences
    12         -6073.702710069449     0.3464E-06     0.1910E-09
  Fock matrix construction using density differences
    13         -6073.702710065570     0.1283E-06     0.3879E-08
  Fock matrix construction using density differences
    14         -6073.702710061849     0.6792E-07     0.3722E-08
  ---------------------------------------------------------------
  Convergence criterion met in 14 iterations!

  - Summary of RHF wavefunction energetics (a.u.):

     HOMO-LUMO gap:                  0.527079161688
     Nuclear repulsion energy:   23942.648730846882
     Electronic energy:         -30016.351440908729
     Total energy:               -6073.702710061849

  Peak memory usage during the execution of eT: 874.233032 MB

  Total wall time in eT (s): 14178.692
  Total cpu time in eT (s):  56619.784

  Calculation end:2024-01-08 07:24:11 UTC -05:00

  - Implementation references:

     eT: https://doi.org/10.1063/5.0004713

  eT terminated successfully!
