15

     N     -2.148336726869    -0.094169136586    -0.017439202479
     C     -0.906851273604     0.504274203456    -0.004614569359
     C     -0.000705096111    -0.561823952936     0.014770640777
     N     -0.655645335835    -1.793781855153     0.008086316311
     C     -1.926929835373    -1.459833632630    -0.010551439256
     C      1.369386744883    -0.210380369908     0.023557243388
     N      1.712060519956     1.088109345946     0.000545742526
     C      0.714245992395     2.003013482426    -0.013690097111
     N     -0.611144672573     1.818767594621    -0.015896436097
     H      1.048429558085     3.046552454018    -0.028716802879
     N      2.358249469269    -1.154881685608     0.103644459300
     H     -3.040669928523     0.382951813813    -0.032220937610
     H     -2.757506764771    -2.166487219264    -0.020473825684
     H      2.097931763256    -2.087966226554    -0.197154778840
     H      3.274485585963    -0.834044815685    -0.191046312991
15

     N     -2.153820141251    -0.091286580295    -0.017528873078
     C     -0.906640135481     0.504389322398    -0.004612361218
     C     -0.000683053339    -0.561896385024     0.014770912195
     N     -0.655541569319    -1.793805476405     0.008087991361
     C     -1.926973709402    -1.460101736479    -0.010551599728
     C      1.369386869505    -0.210360052213     0.023556694979
     N      1.712074842031     1.088095095249     0.000545850056
     C      0.714209263366     2.003004975661    -0.013690242468
     N     -0.611138154848     1.818788727610    -0.015896626732
     H      1.048442983212     3.046628294793    -0.028717038645
     N      2.358246366695    -1.154896636914     0.103643367921
     H     -2.968567183544     0.344931736284    -0.031031427608
     H     -2.756977905665    -2.165787818241    -0.020467956243
     H      2.097949708139    -2.087812015513    -0.197110916769
     H      3.274511869613    -0.834024353914    -0.191065601327
15

     N     -2.158766800828    -0.088686188697    -0.017609766094
     C     -0.906449665028     0.504493172695    -0.004610369226
     C     -0.000663168267    -0.561961726954     0.014771157045
     N     -0.655447960193    -1.793826785444     0.008089502445
     C     -1.927013288735    -1.460343596454    -0.010551744492
     C      1.369386981928    -0.210341723355     0.023556200252
     N      1.712087762162     1.088082239510     0.000545947061
     C      0.714176129631     2.002997301597    -0.013690373597
     N     -0.611132275123     1.818807791955    -0.015896798707
     H      1.048455094195     3.046696711744    -0.028717251332
     N      2.358243567823    -1.154910124682     0.103642383374
     H     -2.903522357613     0.310633328845    -0.029958355133
     H     -2.756500814973    -2.165156879464    -0.020462661344
     H      2.097965896452    -2.087672899723    -0.197071348223
     H      3.274535580436    -0.834005895085    -0.191083001587
15

     N     -2.162692492095    -0.086622506241    -0.017673963155
     C     -0.906298506821     0.504575588758    -0.004608788372
     C     -0.000647387384    -0.562013582604     0.014771351359
     N     -0.655373671569    -1.793843696393     0.008090701648
     C     -1.927044699072    -1.460535537618    -0.010551859378
     C      1.369387071147    -0.210327177491     0.023555807635
     N      1.712098015636     1.088072037137     0.000546024044
     C      0.714149834549     2.002991211425    -0.013690477662
     N     -0.611127608946     1.818822921505    -0.015896935186
     H      1.048464705525     3.046751007743    -0.028717420122
     N      2.358241346625    -1.154920828636     0.103641602032
     H     -2.851902491486     0.283413958587    -0.029106759995
     H     -2.756122193656    -2.164656163615    -0.020458459289
     H      2.097978743570    -2.087562496807    -0.197039946447
     H      3.274554397451    -0.833991246074    -0.191096810511
15

     N     -2.165212941040    -0.085297540543    -0.017715180205
     C     -0.906201457278     0.504628503128    -0.004607773401
     C     -0.000637255434    -0.562046875980     0.014771476117
     N     -0.655325975337    -1.793854553890     0.008091471584
     C     -1.927064865750    -1.460658771431    -0.010551933139
     C      1.369387128430    -0.210317838471     0.023555555559
     N      1.712104598772     1.088065486811     0.000546073471
     C      0.714132952068     2.002987301294    -0.013690544475
     N     -0.611124613077     1.818832635273    -0.015897022812
     H      1.048470876378     3.046785867921    -0.028717528491
     N      2.358239920529    -1.154927700997     0.103641100381
     H     -2.818760497316     0.265938047119    -0.028560002260
     H     -2.755879103806    -2.164334684250    -0.020455761403
     H      2.097986991928    -2.087491613772    -0.197019785265
     H      3.274566478719    -0.833981840831    -0.191105676386
15

     N     -2.166081428558    -0.084840988478    -0.017729382633
     C     -0.906168016284     0.504646736177    -0.004607423666
     C     -0.000633764202    -0.562058348096     0.014771519105
     N     -0.655309540336    -1.793858295129     0.008091736886
     C     -1.927071814713    -1.460701234909    -0.010551958555
     C      1.369387148168    -0.210314620464     0.023555468700
     N      1.712106867166     1.088063229722     0.000546090502
     C      0.714127134761     2.002985953955    -0.013690567498
     N     -0.611123580771     1.818835982410    -0.015897053005
     H      1.048473002710     3.046797879920    -0.028717565833
     N      2.358239429129    -1.154930069051     0.103640927523
     H     -2.807340544407     0.259916258419    -0.028371602384
     H     -2.755795340753    -2.164223910011    -0.020454831775
     H      2.097989834118    -2.087467189142    -0.197012838196
     H      3.274570641640    -0.833978600004    -0.191108731358
15

     N     -2.165212941040    -0.085297540543    -0.017715180205
     C     -0.906201457278     0.504628503128    -0.004607773401
     C     -0.000637255434    -0.562046875980     0.014771476117
     N     -0.655325975337    -1.793854553890     0.008091471584
     C     -1.927064865750    -1.460658771431    -0.010551933139
     C      1.369387128430    -0.210317838471     0.023555555559
     N      1.712104598772     1.088065486811     0.000546073471
     C      0.714132952068     2.002987301294    -0.013690544475
     N     -0.611124613077     1.818832635273    -0.015897022812
     H      1.048470876378     3.046785867921    -0.028717528491
     N      2.358239920529    -1.154927700997     0.103641100381
     H     -2.818760497316     0.265938047119    -0.028560002260
     H     -2.755879103806    -2.164334684250    -0.020455761403
     H      2.097986991928    -2.087491613772    -0.197019785265
     H      3.274566478719    -0.833981840831    -0.191105676386
15

     N     -2.162692492095    -0.086622506241    -0.017673963155
     C     -0.906298506821     0.504575588758    -0.004608788372
     C     -0.000647387384    -0.562013582604     0.014771351359
     N     -0.655373671569    -1.793843696393     0.008090701648
     C     -1.927044699072    -1.460535537618    -0.010551859378
     C      1.369387071147    -0.210327177491     0.023555807635
     N      1.712098015636     1.088072037137     0.000546024044
     C      0.714149834549     2.002991211425    -0.013690477662
     N     -0.611127608946     1.818822921505    -0.015896935186
     H      1.048464705525     3.046751007743    -0.028717420122
     N      2.358241346625    -1.154920828636     0.103641602032
     H     -2.851902491486     0.283413958587    -0.029106759995
     H     -2.756122193656    -2.164656163615    -0.020458459289
     H      2.097978743570    -2.087562496807    -0.197039946447
     H      3.274554397451    -0.833991246074    -0.191096810511
15

     N     -2.158766800828    -0.088686188697    -0.017609766094
     C     -0.906449665028     0.504493172695    -0.004610369226
     C     -0.000663168267    -0.561961726954     0.014771157045
     N     -0.655447960193    -1.793826785444     0.008089502445
     C     -1.927013288735    -1.460343596454    -0.010551744492
     C      1.369386981928    -0.210341723355     0.023556200252
     N      1.712087762162     1.088082239510     0.000545947061
     C      0.714176129631     2.002997301597    -0.013690373597
     N     -0.611132275123     1.818807791955    -0.015896798707
     H      1.048455094195     3.046696711744    -0.028717251332
     N      2.358243567823    -1.154910124682     0.103642383374
     H     -2.903522357613     0.310633328845    -0.029958355133
     H     -2.756500814973    -2.165156879464    -0.020462661344
     H      2.097965896452    -2.087672899723    -0.197071348223
     H      3.274535580436    -0.834005895085    -0.191083001587
15

     N     -2.153820141251    -0.091286580295    -0.017528873078
     C     -0.906640135481     0.504389322398    -0.004612361218
     C     -0.000683053339    -0.561896385024     0.014770912195
     N     -0.655541569319    -1.793805476405     0.008087991361
     C     -1.926973709402    -1.460101736479    -0.010551599728
     C      1.369386869505    -0.210360052213     0.023556694979
     N      1.712074842031     1.088095095249     0.000545850056
     C      0.714209263366     2.003004975661    -0.013690242468
     N     -0.611138154848     1.818788727610    -0.015896626732
     H      1.048442983212     3.046628294793    -0.028717038645
     N      2.358246366695    -1.154896636914     0.103643367921
     H     -2.968567183544     0.344931736284    -0.031031427608
     H     -2.756977905665    -2.165787818241    -0.020467956243
     H      2.097949708139    -2.087812015513    -0.197110916769
     H      3.274511869613    -0.834024353914    -0.191065601327
15

     N     -2.148336726869    -0.094169136586    -0.017439202479
     C     -0.906851273604     0.504274203456    -0.004614569359
     C     -0.000705096111    -0.561823952936     0.014770640777
     N     -0.655645335835    -1.793781855153     0.008086316311
     C     -1.926929835373    -1.459833632630    -0.010551439256
     C      1.369386744883    -0.210380369908     0.023557243388
     N      1.712060519956     1.088109345946     0.000545742526
     C      0.714245992395     2.003013482426    -0.013690097111
     N     -0.611144672573     1.818767594621    -0.015896436097
     H      1.048429558085     3.046552454018    -0.028716802879
     N      2.358249469269    -1.154881685608     0.103644459300
     H     -3.040669928523     0.382951813813    -0.032220937610
     H     -2.757506764771    -2.166487219264    -0.020473825684
     H      2.097931763256    -2.087966226554    -0.197154778840
     H      3.274485585963    -0.834044815685    -0.191046312991
15

     N     -2.142853312487    -0.097051692877    -0.017349531880
     C     -0.907062411727     0.504159084514    -0.004616777500
     C     -0.000727138883    -0.561751520848     0.014770369359
     N     -0.655749102351    -1.793758233901     0.008084641261
     C     -1.926885961344    -1.459565528781    -0.010551278784
     C      1.369386620261    -0.210400687603     0.023557791797
     N      1.712046197881     1.088123596643     0.000545634996
     C      0.714282721424     2.003021989191    -0.013689951754
     N     -0.611151190298     1.818746461632    -0.015896245462
     H      1.048416132958     3.046476613243    -0.028716567113
     N      2.358252571843    -1.154866734302     0.103645550679
     H     -3.112772673502     0.420971891342    -0.033410447612
     H     -2.758035623877    -2.167186620287    -0.020479695125
     H      2.097913818373    -2.088120437595    -0.197198640911
     H      3.274459302313    -0.834065277456    -0.191027024655
15

     N     -2.137906652910    -0.099652084475    -0.017268638864
     C     -0.907252882180     0.504055234217    -0.004618769492
     C     -0.000747023955    -0.561686178918     0.014770124509
     N     -0.655842711477    -1.793736924862     0.008083130177
     C     -1.926846382011    -1.459323668806    -0.010551134020
     C      1.369386507838    -0.210419016461     0.023558286524
     N      1.712033277750     1.088136452382     0.000545537991
     C      0.714315855159     2.003029663255    -0.013689820625
     N     -0.611157070023     1.818727397287    -0.015896073487
     H      1.048404021975     3.046408196292    -0.028716354426
     N      2.358255370715    -1.154853246534     0.103646535226
     H     -3.177817499433     0.455270298781    -0.034483520087
     H     -2.758512714569    -2.167817559064    -0.020484990024
     H      2.097897630060    -2.088259553385    -0.197238209457
     H      3.274435591490    -0.834083736285    -0.191009624395
15

     N     -2.133980961643    -0.101715766931    -0.017204441803
     C     -0.907404040387     0.503972818154    -0.004620350346
     C     -0.000762804838    -0.561634323268     0.014769930195
     N     -0.655917000101    -1.793720013913     0.008081930974
     C     -1.926814971674    -1.459131727642    -0.010551019134
     C      1.369386418619    -0.210433562325     0.023558679141
     N      1.712023024276     1.088146654755     0.000545461008
     C      0.714342150241     2.003035753427    -0.013689716560
     N     -0.611161736200     1.818712267737    -0.015895937008
     H      1.048394410645     3.046353900293    -0.028716185636
     N      2.358257591913    -1.154842542580     0.103647316568
     H     -3.229437365560     0.482489669039    -0.035335115225
     H     -2.758891335886    -2.168318274913    -0.020489192079
     H      2.097884782942    -2.088369956301    -0.197269611233
     H      3.274416774475    -0.834098385296    -0.190995815471
15

     N     -2.131460512698    -0.103040732629    -0.017163224753
     C     -0.907501089930     0.503919903784    -0.004621365317
     C     -0.000772936788    -0.561601029892     0.014769805437
     N     -0.655964696333    -1.793709156416     0.008081161038
     C     -1.926794804996    -1.459008493829    -0.010550945373
     C      1.369386361336    -0.210442901345     0.023558931217
     N      1.712016441140     1.088153205081     0.000545411581
     C      0.714359032722     2.003039663558    -0.013689649747
     N     -0.611164732069     1.818702553969    -0.015895849382
     H      1.048388239792     3.046319040115    -0.028716077267
     N      2.358259018009    -1.154835670219     0.103647818219
     H     -3.262579359730     0.499965580507    -0.035881872960
     H     -2.759134425736    -2.168639754278    -0.020491889965
     H      2.097876534584    -2.088440839336    -0.197289772415
     H      3.274404693207    -0.834107790539    -0.190986949596
15

     N     -2.130592025180    -0.103497284694    -0.017149022325
     C     -0.907534530924     0.503901670735    -0.004621715052
     C     -0.000776428020    -0.561589557776     0.014769762449
     N     -0.655981131334    -1.793705415177     0.008080895736
     C     -1.926787856033    -1.458966030351    -0.010550919957
     C      1.369386341598    -0.210446119352     0.023559018076
     N      1.712014172746     1.088155462170     0.000545394550
     C      0.714364850029     2.003041010897    -0.013689626724
     N     -0.611165764375     1.818699206832    -0.015895819189
     H      1.048386113460     3.046307028116    -0.028716039925
     N      2.358259509409    -1.154833302165     0.103647991077
     H     -3.273999312639     0.505987369207    -0.036070272836
     H     -2.759218188789    -2.168750528517    -0.020492819593
     H      2.097873692394    -2.088465263966    -0.197296719484
     H      3.274400530286    -0.834111031366    -0.190983894624
15

     N     -2.131460512698    -0.103040732629    -0.017163224753
     C     -0.907501089930     0.503919903784    -0.004621365317
     C     -0.000772936788    -0.561601029892     0.014769805437
     N     -0.655964696333    -1.793709156416     0.008081161038
     C     -1.926794804996    -1.459008493829    -0.010550945373
     C      1.369386361336    -0.210442901345     0.023558931217
     N      1.712016441140     1.088153205081     0.000545411581
     C      0.714359032722     2.003039663558    -0.013689649747
     N     -0.611164732069     1.818702553969    -0.015895849382
     H      1.048388239792     3.046319040115    -0.028716077267
     N      2.358259018009    -1.154835670219     0.103647818219
     H     -3.262579359730     0.499965580507    -0.035881872960
     H     -2.759134425736    -2.168639754278    -0.020491889965
     H      2.097876534584    -2.088440839336    -0.197289772415
     H      3.274404693207    -0.834107790539    -0.190986949596
15

     N     -2.133980961643    -0.101715766931    -0.017204441803
     C     -0.907404040387     0.503972818154    -0.004620350346
     C     -0.000762804838    -0.561634323268     0.014769930195
     N     -0.655917000101    -1.793720013913     0.008081930974
     C     -1.926814971674    -1.459131727642    -0.010551019134
     C      1.369386418619    -0.210433562325     0.023558679141
     N      1.712023024276     1.088146654755     0.000545461008
     C      0.714342150241     2.003035753427    -0.013689716560
     N     -0.611161736200     1.818712267737    -0.015895937008
     H      1.048394410645     3.046353900293    -0.028716185636
     N      2.358257591913    -1.154842542580     0.103647316568
     H     -3.229437365560     0.482489669039    -0.035335115225
     H     -2.758891335886    -2.168318274913    -0.020489192079
     H      2.097884782942    -2.088369956301    -0.197269611233
     H      3.274416774475    -0.834098385296    -0.190995815471
15

     N     -2.137906652910    -0.099652084475    -0.017268638864
     C     -0.907252882180     0.504055234217    -0.004618769492
     C     -0.000747023955    -0.561686178918     0.014770124509
     N     -0.655842711477    -1.793736924862     0.008083130177
     C     -1.926846382011    -1.459323668806    -0.010551134020
     C      1.369386507838    -0.210419016461     0.023558286524
     N      1.712033277750     1.088136452382     0.000545537991
     C      0.714315855159     2.003029663255    -0.013689820625
     N     -0.611157070023     1.818727397287    -0.015896073487
     H      1.048404021975     3.046408196292    -0.028716354426
     N      2.358255370715    -1.154853246534     0.103646535226
     H     -3.177817499433     0.455270298781    -0.034483520087
     H     -2.758512714569    -2.167817559064    -0.020484990024
     H      2.097897630060    -2.088259553385    -0.197238209457
     H      3.274435591490    -0.834083736285    -0.191009624395
15

     N     -2.142853312487    -0.097051692877    -0.017349531880
     C     -0.907062411727     0.504159084514    -0.004616777500
     C     -0.000727138883    -0.561751520848     0.014770369359
     N     -0.655749102351    -1.793758233901     0.008084641261
     C     -1.926885961344    -1.459565528781    -0.010551278784
     C      1.369386620261    -0.210400687603     0.023557791797
     N      1.712046197881     1.088123596643     0.000545634996
     C      0.714282721424     2.003021989191    -0.013689951754
     N     -0.611151190298     1.818746461632    -0.015896245462
     H      1.048416132958     3.046476613243    -0.028716567113
     N      2.358252571843    -1.154866734302     0.103645550679
     H     -3.112772673502     0.420971891342    -0.033410447612
     H     -2.758035623877    -2.167186620287    -0.020479695125
     H      2.097913818373    -2.088120437595    -0.197198640911
     H      3.274459302313    -0.834065277456    -0.191027024655
