15

     N     -2.148336726869    -0.094169136586    -0.017439202479
     C     -0.906851273604     0.504274203456    -0.004614569359
     C     -0.000705096111    -0.561823952936     0.014770640777
     N     -0.655645335835    -1.793781855153     0.008086316311
     C     -1.926929835373    -1.459833632630    -0.010551439256
     C      1.369386744883    -0.210380369908     0.023557243388
     N      1.712060519956     1.088109345946     0.000545742526
     C      0.714245992395     2.003013482426    -0.013690097111
     N     -0.611144672573     1.818767594621    -0.015896436097
     H      1.048429558085     3.046552454018    -0.028716802879
     N      2.358249469269    -1.154881685608     0.103644459300
     H     -3.040669928523     0.382951813813    -0.032220937610
     H     -2.757506764771    -2.166487219264    -0.020473825684
     H      2.097931763256    -2.087966226554    -0.197154778840
     H      3.274485585963    -0.834044815685    -0.191046312991
15

     N     -2.144554873398    -0.096932300997    -0.017379487753
     C     -0.913640677999     0.495804005743    -0.004625688717
     C     -0.017010459933    -0.572899545570     0.014496968202
     N     -0.648087535430    -1.786002356937     0.008193308918
     C     -1.924478110923    -1.454613775841    -0.010508754315
     C      1.361413872869    -0.214015571168     0.023825000251
     N      1.724121909887     1.076741183375     0.000683382807
     C      0.714400209169     2.018315567147    -0.013914560524
     N     -0.617663820134     1.819215410773    -0.015886171231
     H      1.042284550679     3.065161511658    -0.029163615275
     N      2.365896942148    -1.149019227326     0.103578808941
     H     -3.024452524294     0.402651152841    -0.032136736649
     H     -2.762083369061    -2.151054119666    -0.020677685216
     H      2.064652236619    -2.068587027055    -0.206287576966
     H      3.300559711943    -0.874903773940    -0.182437477505
15

     N     -2.141143214094    -0.099424987623    -0.017325618321
     C     -0.919765488187     0.488162929997    -0.004635719634
     C     -0.031719741137    -0.582890982030     0.014250084606
     N     -0.641269545187    -1.778984370210     0.008289828344
     C     -1.922266378345    -1.449904875003    -0.010470247674
     C      1.354221441118    -0.217294933600     0.024066547207
     N      1.735002646935     1.066485815763     0.000807549898
     C      0.714539330131     2.032119777199    -0.014117051894
     N     -0.623544828109     1.819619391560    -0.015876911161
     H      1.036741059413     3.081948985079    -0.029566690560
     N      2.372795827098    -1.143730627307     0.103519584897
     H     -3.009822592585     0.420422183311    -0.032060777865
     H     -2.766211983436    -2.137131719385    -0.020861589557
     H      2.034630341921    -2.051104798626    -0.214526393180
     H      3.324081520803    -0.911763172680    -0.174671334818
15

     N     -2.138435705941    -0.101403194930    -0.017282867297
     C     -0.924626165073     0.482098937951    -0.004643680215
     C     -0.043393092795    -0.590820230898     0.014054156675
     N     -0.635858757495    -1.773414864409     0.008366426593
     C     -1.920511137433    -1.446167870140    -0.010439688631
     C      1.348513494962    -0.219897450362     0.024258239957
     N      1.743637648747     1.058347109945     0.000906089460
     C      0.714649737151     2.043074860323    -0.014277749955
     N     -0.628212022464     1.819939992527    -0.015869562329
     H      1.032341719835     3.095271599418    -0.029886572918
     N      2.378270813193    -1.139533570569     0.103472584429
     H     -2.998212213043     0.434525352944    -0.032000496633
     H     -2.769488470355    -2.126082839964    -0.021007536868
     H      2.010804831390    -2.037230823592    -0.221064754748
     H      3.342748534006    -0.941014957142    -0.168508089086
15

     N     -2.136697378701    -0.102673282204    -0.017255419450
     C     -0.927746911737     0.478205615397    -0.004648791223
     C     -0.050887845913    -0.595911122051     0.013928363199
     N     -0.632384817952    -1.769839021567     0.008415605697
     C     -1.919384203397    -1.443768565324    -0.010420068517
     C      1.344848767941    -0.221568368980     0.024381314279
     N      1.749181661182     1.053121739153     0.000969355753
     C      0.714720622822     2.050108456655    -0.014380924461
     N     -0.631208545697     1.820145831019    -0.015864844088
     H      1.029517169956     3.103825244359    -0.030091950034
     N      2.381785970648    -1.136838894267     0.103442408271
     H     -2.990757890512     0.443580145232    -0.031961793699
     H     -2.771592104450    -2.118989022702    -0.021101240810
     H      1.995507911999    -2.028323183293    -0.225262641282
     H      3.354733494238    -0.959795758853    -0.164551041743
15

     N     -2.136098391955    -0.103110924453    -0.017245961567
     C     -0.928822247752     0.476864067872    -0.004650552356
     C     -0.053470361836    -0.597665323592     0.013885017722
     N     -0.631187779965    -1.768606870096     0.008432551661
     C     -1.918995888392    -1.442941821228    -0.010413307887
     C      1.343585989070    -0.222144128297     0.024423722799
     N      1.751091997676     1.051321199086     0.000991155832
     C      0.714745048360     2.052532068779    -0.014416475973
     N     -0.632241077234     1.820216758130    -0.015863218293
     H      1.028543896397     3.106772629539    -0.030162718165
     N      2.382997211360    -1.135910372093     0.103432010276
     H     -2.988189306020     0.446700214019    -0.031948457577
     H     -2.772316967359    -2.116544659860    -0.021133528988
     H      1.990236952799    -2.025253819627    -0.226709134402
     H      3.358863230088    -0.966267182089    -0.163187536152
15

     N     -2.136697378701    -0.102673282204    -0.017255419450
     C     -0.927746911737     0.478205615397    -0.004648791223
     C     -0.050887845913    -0.595911122051     0.013928363199
     N     -0.632384817952    -1.769839021567     0.008415605697
     C     -1.919384203397    -1.443768565324    -0.010420068517
     C      1.344848767941    -0.221568368980     0.024381314279
     N      1.749181661182     1.053121739153     0.000969355753
     C      0.714720622822     2.050108456655    -0.014380924461
     N     -0.631208545697     1.820145831019    -0.015864844088
     H      1.029517169956     3.103825244359    -0.030091950034
     N      2.381785970648    -1.136838894267     0.103442408271
     H     -2.990757890512     0.443580145232    -0.031961793699
     H     -2.771592104450    -2.118989022702    -0.021101240810
     H      1.995507911999    -2.028323183293    -0.225262641282
     H      3.354733494238    -0.959795758853    -0.164551041743
15

     N     -2.138435705941    -0.101403194930    -0.017282867297
     C     -0.924626165073     0.482098937951    -0.004643680215
     C     -0.043393092795    -0.590820230898     0.014054156675
     N     -0.635858757495    -1.773414864409     0.008366426593
     C     -1.920511137433    -1.446167870140    -0.010439688631
     C      1.348513494962    -0.219897450362     0.024258239957
     N      1.743637648747     1.058347109945     0.000906089460
     C      0.714649737151     2.043074860323    -0.014277749955
     N     -0.628212022464     1.819939992527    -0.015869562329
     H      1.032341719835     3.095271599418    -0.029886572918
     N      2.378270813193    -1.139533570569     0.103472584429
     H     -2.998212213043     0.434525352944    -0.032000496633
     H     -2.769488470355    -2.126082839964    -0.021007536868
     H      2.010804831390    -2.037230823592    -0.221064754748
     H      3.342748534006    -0.941014957142    -0.168508089086
15

     N     -2.141143214094    -0.099424987623    -0.017325618321
     C     -0.919765488187     0.488162929997    -0.004635719634
     C     -0.031719741137    -0.582890982030     0.014250084606
     N     -0.641269545187    -1.778984370210     0.008289828344
     C     -1.922266378345    -1.449904875003    -0.010470247674
     C      1.354221441118    -0.217294933600     0.024066547207
     N      1.735002646935     1.066485815763     0.000807549898
     C      0.714539330131     2.032119777199    -0.014117051894
     N     -0.623544828109     1.819619391560    -0.015876911161
     H      1.036741059413     3.081948985079    -0.029566690560
     N      2.372795827098    -1.143730627307     0.103519584897
     H     -3.009822592585     0.420422183311    -0.032060777865
     H     -2.766211983436    -2.137131719385    -0.020861589557
     H      2.034630341921    -2.051104798626    -0.214526393180
     H      3.324081520803    -0.911763172680    -0.174671334818
15

     N     -2.144554873398    -0.096932300997    -0.017379487753
     C     -0.913640677999     0.495804005743    -0.004625688717
     C     -0.017010459933    -0.572899545570     0.014496968202
     N     -0.648087535430    -1.786002356937     0.008193308918
     C     -1.924478110923    -1.454613775841    -0.010508754315
     C      1.361413872869    -0.214015571168     0.023825000251
     N      1.724121909887     1.076741183375     0.000683382807
     C      0.714400209169     2.018315567147    -0.013914560524
     N     -0.617663820134     1.819215410773    -0.015886171231
     H      1.042284550679     3.065161511658    -0.029163615275
     N      2.365896942148    -1.149019227326     0.103578808941
     H     -3.024452524294     0.402651152841    -0.032136736649
     H     -2.762083369061    -2.151054119666    -0.020677685216
     H      2.064652236619    -2.068587027055    -0.206287576966
     H      3.300559711943    -0.874903773940    -0.182437477505
15

     N     -2.148336726869    -0.094169136586    -0.017439202479
     C     -0.906851273604     0.504274203456    -0.004614569359
     C     -0.000705096111    -0.561823952936     0.014770640777
     N     -0.655645335835    -1.793781855153     0.008086316311
     C     -1.926929835373    -1.459833632630    -0.010551439256
     C      1.369386744883    -0.210380369908     0.023557243388
     N      1.712060519956     1.088109345946     0.000545742526
     C      0.714245992395     2.003013482426    -0.013690097111
     N     -0.611144672573     1.818767594621    -0.015896436097
     H      1.048429558085     3.046552454018    -0.028716802879
     N      2.358249469269    -1.154881685608     0.103644459300
     H     -3.040669928523     0.382951813813    -0.032220937610
     H     -2.757506764771    -2.166487219264    -0.020473825684
     H      2.097931763256    -2.087966226554    -0.197154778840
     H      3.274485585963    -0.834044815685    -0.191046312991
15

     N     -2.152118580340    -0.091405972175    -0.017498917205
     C     -0.900061869209     0.512744401169    -0.004603450001
     C      0.015600267711    -0.550748360302     0.015044313352
     N     -0.663203136240    -1.801561353369     0.007979323704
     C     -1.929381559823    -1.465053489419    -0.010594124197
     C      1.377359616897    -0.206745168648     0.023289486525
     N      1.699999130025     1.099477508517     0.000408102245
     C      0.714091775621     1.987711397705    -0.013465633698
     N     -0.604625525012     1.818319778469    -0.015906700963
     H      1.054574565491     3.027943396378    -0.028269990483
     N      2.350601996390    -1.160744143890     0.103710109659
     H     -3.056887332752     0.363252474785    -0.032305138571
     H     -2.752930160481    -2.181920318862    -0.020269966152
     H      2.131211289893    -2.107345426053    -0.188021980714
     H      3.248411459983    -0.793185857430    -0.199655148477
15

     N     -2.155530239644    -0.088913285549    -0.017552786637
     C     -0.893937059021     0.520385476915    -0.004593419084
     C      0.030309548915    -0.540756923842     0.015291196948
     N     -0.670021126483    -1.808579340096     0.007882804278
     C     -1.931593292401    -1.469762390257    -0.010632630838
     C      1.384552048648    -0.203465806216     0.023047939569
     N      1.689118392977     1.109732876129     0.000283935154
     C      0.713952654659     1.973907187653    -0.013263142328
     N     -0.598744517037     1.817915797682    -0.015915961033
     H      1.060118056757     3.011155922957    -0.027866915198
     N      2.343703111440    -1.166032743909     0.103769333703
     H     -3.071517264461     0.345481444315    -0.032381097355
     H     -2.748801546106    -2.195842719143    -0.020086061811
     H      2.161233184591    -2.124827654482    -0.179783164500
     H      3.224889651123    -0.756326458690    -0.207421291164
15

     N     -2.158237747797    -0.086935078242    -0.017595537661
     C     -0.889076382135     0.526449468961    -0.004585458503
     C      0.041982900573    -0.532827674974     0.015487124879
     N     -0.675431914175    -1.814148845897     0.007806206029
     C     -1.933348533313    -1.473499395120    -0.010663189881
     C      1.390259994804    -0.200863289454     0.022856246819
     N      1.680483391165     1.117871581947     0.000185395592
     C      0.713842247639     1.962952104529    -0.013102444267
     N     -0.594077322682     1.817595196715    -0.015923309865
     H      1.064517396335     2.997833308618    -0.027547032840
     N      2.338228125345    -1.170229800647     0.103816334171
     H     -3.083127644003     0.331378274682    -0.032441378587
     H     -2.745525059187    -2.206891598564    -0.019940114500
     H      2.185058695122    -2.138701629516    -0.173244802932
     H      3.206222637920    -0.727074674228    -0.213584536896
15

     N     -2.159976075037    -0.085664990968    -0.017622985508
     C     -0.885955635471     0.530342791515    -0.004580347495
     C      0.049477653691    -0.527736783821     0.015612918355
     N     -0.678905853718    -1.817724688739     0.007757026925
     C     -1.934475467349    -1.475898699936    -0.010682809995
     C      1.393924721825    -0.199192370836     0.022733172497
     N      1.674939378730     1.123096952739     0.000122129299
     C      0.713771361968     1.955918508197    -0.012999269761
     N     -0.591080799449     1.817389358223    -0.015928028106
     H      1.067341946214     2.989279663677    -0.027341655724
     N      2.334712967890    -1.172924476949     0.103846510329
     H     -3.090581966534     0.322323482394    -0.032480081521
     H     -2.743421425092    -2.213985415826    -0.019846410558
     H      2.200355614513    -2.147609269815    -0.169046916398
     H      3.194237677688    -0.708293872517    -0.217541584239
15

     N     -2.160575061783    -0.085227348719    -0.017632443391
     C     -0.884880299456     0.531684339040    -0.004578586362
     C      0.052060169614    -0.525982582280     0.015656263832
     N     -0.680102891705    -1.818956840210     0.007740080961
     C     -1.934863782354    -1.476725444032    -0.010689570625
     C      1.395187500696    -0.198616611519     0.022690763977
     N      1.673029042236     1.124897492806     0.000100329220
     C      0.713746936430     1.953494896073    -0.012963718249
     N     -0.590048267912     1.817318431112    -0.015929653901
     H      1.068315219773     2.986332278497    -0.027270887593
     N      2.333501727178    -1.173852999123     0.103856908324
     H     -3.093150551026     0.319203413607    -0.032493417643
     H     -2.742696562183    -2.216429778668    -0.019814122380
     H      2.205626573713    -2.150678633481    -0.167600423278
     H      3.190107941838    -0.701822449281    -0.218905089830
15

     N     -2.159976075037    -0.085664990968    -0.017622985508
     C     -0.885955635471     0.530342791515    -0.004580347495
     C      0.049477653691    -0.527736783821     0.015612918355
     N     -0.678905853718    -1.817724688739     0.007757026925
     C     -1.934475467349    -1.475898699936    -0.010682809995
     C      1.393924721825    -0.199192370836     0.022733172497
     N      1.674939378730     1.123096952739     0.000122129299
     C      0.713771361968     1.955918508197    -0.012999269761
     N     -0.591080799449     1.817389358223    -0.015928028106
     H      1.067341946214     2.989279663677    -0.027341655724
     N      2.334712967890    -1.172924476949     0.103846510329
     H     -3.090581966534     0.322323482394    -0.032480081521
     H     -2.743421425092    -2.213985415826    -0.019846410558
     H      2.200355614513    -2.147609269815    -0.169046916398
     H      3.194237677688    -0.708293872517    -0.217541584239
15

     N     -2.158237747797    -0.086935078242    -0.017595537661
     C     -0.889076382135     0.526449468961    -0.004585458503
     C      0.041982900573    -0.532827674974     0.015487124879
     N     -0.675431914175    -1.814148845897     0.007806206029
     C     -1.933348533313    -1.473499395120    -0.010663189881
     C      1.390259994804    -0.200863289454     0.022856246819
     N      1.680483391165     1.117871581947     0.000185395592
     C      0.713842247639     1.962952104529    -0.013102444267
     N     -0.594077322682     1.817595196715    -0.015923309865
     H      1.064517396335     2.997833308618    -0.027547032840
     N      2.338228125345    -1.170229800647     0.103816334171
     H     -3.083127644003     0.331378274682    -0.032441378587
     H     -2.745525059187    -2.206891598564    -0.019940114500
     H      2.185058695122    -2.138701629516    -0.173244802932
     H      3.206222637920    -0.727074674228    -0.213584536896
15

     N     -2.155530239644    -0.088913285549    -0.017552786637
     C     -0.893937059021     0.520385476915    -0.004593419084
     C      0.030309548915    -0.540756923842     0.015291196948
     N     -0.670021126483    -1.808579340096     0.007882804278
     C     -1.931593292401    -1.469762390257    -0.010632630838
     C      1.384552048648    -0.203465806216     0.023047939569
     N      1.689118392977     1.109732876129     0.000283935154
     C      0.713952654659     1.973907187653    -0.013263142328
     N     -0.598744517037     1.817915797682    -0.015915961033
     H      1.060118056757     3.011155922957    -0.027866915198
     N      2.343703111440    -1.166032743909     0.103769333703
     H     -3.071517264461     0.345481444315    -0.032381097355
     H     -2.748801546106    -2.195842719143    -0.020086061811
     H      2.161233184591    -2.124827654482    -0.179783164500
     H      3.224889651123    -0.756326458690    -0.207421291164
15

     N     -2.152118580340    -0.091405972175    -0.017498917205
     C     -0.900061869209     0.512744401169    -0.004603450001
     C      0.015600267711    -0.550748360302     0.015044313352
     N     -0.663203136240    -1.801561353369     0.007979323704
     C     -1.929381559823    -1.465053489419    -0.010594124197
     C      1.377359616897    -0.206745168648     0.023289486525
     N      1.699999130025     1.099477508517     0.000408102245
     C      0.714091775621     1.987711397705    -0.013465633698
     N     -0.604625525012     1.818319778469    -0.015906700963
     H      1.054574565491     3.027943396378    -0.028269990483
     N      2.350601996390    -1.160744143890     0.103710109659
     H     -3.056887332752     0.363252474785    -0.032305138571
     H     -2.752930160481    -2.181920318862    -0.020269966152
     H      2.131211289893    -2.107345426053    -0.188021980714
     H      3.248411459983    -0.793185857430    -0.199655148477
