15

     N     -2.148336726869    -0.094169136586    -0.017439202479
     C     -0.906851273604     0.504274203456    -0.004614569359
     C     -0.000705096111    -0.561823952936     0.014770640777
     N     -0.655645335835    -1.793781855153     0.008086316311
     C     -1.926929835373    -1.459833632630    -0.010551439256
     C      1.369386744883    -0.210380369908     0.023557243388
     N      1.712060519956     1.088109345946     0.000545742526
     C      0.714245992395     2.003013482426    -0.013690097111
     N     -0.611144672573     1.818767594621    -0.015896436097
     H      1.048429558085     3.046552454018    -0.028716802879
     N      2.358249469269    -1.154881685608     0.103644459300
     H     -3.040669928523     0.382951813813    -0.032220937610
     H     -2.757506764771    -2.166487219264    -0.020473825684
     H      2.097931763256    -2.087966226554    -0.197154778840
     H      3.274485585963    -0.834044815685    -0.191046312991
15

     N     -2.129257952295    -0.113878264933    -0.017085122542
     C     -0.893370496044     0.498605689590    -0.004333847318
     C      0.002568132611    -0.552833949534     0.014826934568
     N     -0.668175535202    -1.758522912908     0.007886523122
     C     -1.947743158778    -1.478295922873    -0.010886667086
     C      1.371411545305    -0.209902846231     0.022715006564
     N      1.703987708369     1.081290415252     0.000981290221
     C      0.713918649783     2.003701200010    -0.014075964121
     N     -0.606338417868     1.818472026886    -0.015766728294
     H      1.056930795672     3.044372337814    -0.027342862870
     N      2.355133561522    -1.150473712831     0.104237386073
     H     -3.002165621683     0.397788328586    -0.032004056080
     H     -2.764912646704    -2.201714194301    -0.019995580663
     H      2.087612523891    -2.080203405269    -0.200886855466
     H      3.271040059156    -0.831175324260    -0.193008653616
15

     N     -2.112046741105    -0.131658126475    -0.016765702416
     C     -0.881209310917     0.493492049357    -0.004080604306
     C      0.005520954900    -0.544723950302     0.014877717931
     N     -0.679479191352    -1.726715361593     0.007706287082
     C     -1.966519129074    -1.494950995513    -0.011189080481
     C      1.373238144154    -0.209472065899     0.021955213748
     N      1.696705119827     1.075138969004     0.001374203473
     C      0.713623349747     2.004321599006    -0.014424059780
     N     -0.602002632860     1.818205391380    -0.015649717194
     H      1.064599872893     3.042405626573    -0.026103413683
     N      2.352322660535    -1.146497223142     0.104772273043
     H     -2.967430384672     0.411172541922    -0.031808404425
     H     -2.771593589313    -2.233492907580    -0.019564149597
     H      2.078303403574    -2.073200463019    -0.204253610430
     H      3.267931804519    -0.828586718649    -0.194778906668
15

     N     -2.098387846570    -0.145768304486    -0.016512209169
     C     -0.871558139756     0.489433841490    -0.003879629514
     C      0.007864327936    -0.538287818470     0.014918019835
     N     -0.688449823663    -1.701472745947     0.007563250951
     C     -1.981419823467    -1.508168535997    -0.011429077110
     C      1.374687741208    -0.209130196692     0.021352238755
     N      1.690925624838     1.070257153621     0.001686021195
     C      0.713388998311     2.004813950436    -0.014700310058
     N     -0.598561734396     1.817993788245    -0.015556856659
     H      1.070686087035     3.040844835695    -0.025119781238
     N      2.350091916881    -1.143341463057     0.105196761745
     H     -2.939864344503     0.421794313764    -0.031653134393
     H     -2.776895615388    -2.258712637231    -0.019221763964
     H      2.070915643861    -2.067642896582    -0.206925482296
     H      3.265465079673    -0.826532389605    -0.196183787444
15

     N     -2.089618296452    -0.154827596431    -0.016349456485
     C     -0.865361706438     0.486828311652    -0.003750595754
     C      0.009368866040    -0.534155567466     0.014943895251
     N     -0.694209324144    -1.685265989066     0.007471416102
     C     -1.990986658172    -1.516654719370    -0.011583164430
     C      1.375618439807    -0.208910703150     0.020965104979
     N      1.687214960637     1.067122835207     0.001886220497
     C      0.713238535427     2.005130059513    -0.014877673655
     N     -0.596352541591     1.817857930669    -0.015497236526
     H      1.074593677053     3.039842746266    -0.024488250333
     N      2.348659691292    -1.141315340360     0.105469300269
     H     -2.922165857251     0.428613911080    -0.031553444895
     H     -2.780299725674    -2.274904700399    -0.019001938856
     H      2.066172410147    -2.064074719284    -0.208640929632
     H      3.263881344832    -0.825213429167    -0.197085776426
15

     N     -2.086596515419    -0.157949215693    -0.016293375733
     C     -0.863226561029     0.485930507255    -0.003706133751
     C      0.009887294539    -0.532731690809     0.014952811312
     N     -0.696193912758    -1.679681521232     0.007439771969
     C     -1.994283164751    -1.519578858878    -0.011636259303
     C      1.375939136689    -0.208835070830     0.020831707771
     N      1.685936352892     1.066042822685     0.001955204475
     C      0.713186689451     2.005238983278    -0.014938788986
     N     -0.595591305629     1.817811117339    -0.015476692828
     H      1.075940140810     3.039497449782    -0.024270639614
     N      2.348166179987    -1.140617186059     0.105563210644
     H     -2.916067374162     0.430963784169    -0.031519094235
     H     -2.781472702139    -2.280484105125    -0.018926192286
     H      2.064538003196    -2.062845209180    -0.209232032500
     H      3.263335626997    -0.824758946374    -0.197396580647
15

     N     -2.089618296452    -0.154827596431    -0.016349456485
     C     -0.865361706438     0.486828311652    -0.003750595754
     C      0.009368866040    -0.534155567466     0.014943895251
     N     -0.694209324144    -1.685265989066     0.007471416102
     C     -1.990986658172    -1.516654719370    -0.011583164430
     C      1.375618439807    -0.208910703150     0.020965104979
     N      1.687214960637     1.067122835207     0.001886220497
     C      0.713238535427     2.005130059513    -0.014877673655
     N     -0.596352541591     1.817857930669    -0.015497236526
     H      1.074593677053     3.039842746266    -0.024488250333
     N      2.348659691292    -1.141315340360     0.105469300269
     H     -2.922165857251     0.428613911080    -0.031553444895
     H     -2.780299725674    -2.274904700399    -0.019001938856
     H      2.066172410147    -2.064074719284    -0.208640929632
     H      3.263881344832    -0.825213429167    -0.197085776426
15

     N     -2.098387846570    -0.145768304486    -0.016512209169
     C     -0.871558139756     0.489433841490    -0.003879629514
     C      0.007864327936    -0.538287818470     0.014918019835
     N     -0.688449823663    -1.701472745947     0.007563250951
     C     -1.981419823467    -1.508168535997    -0.011429077110
     C      1.374687741208    -0.209130196692     0.021352238755
     N      1.690925624838     1.070257153621     0.001686021195
     C      0.713388998311     2.004813950436    -0.014700310058
     N     -0.598561734396     1.817993788245    -0.015556856659
     H      1.070686087035     3.040844835695    -0.025119781238
     N      2.350091916881    -1.143341463057     0.105196761745
     H     -2.939864344503     0.421794313764    -0.031653134393
     H     -2.776895615388    -2.258712637231    -0.019221763964
     H      2.070915643861    -2.067642896582    -0.206925482296
     H      3.265465079673    -0.826532389605    -0.196183787444
15

     N     -2.112046741105    -0.131658126475    -0.016765702416
     C     -0.881209310917     0.493492049357    -0.004080604306
     C      0.005520954900    -0.544723950302     0.014877717931
     N     -0.679479191352    -1.726715361593     0.007706287082
     C     -1.966519129074    -1.494950995513    -0.011189080481
     C      1.373238144154    -0.209472065899     0.021955213748
     N      1.696705119827     1.075138969004     0.001374203473
     C      0.713623349747     2.004321599006    -0.014424059780
     N     -0.602002632860     1.818205391380    -0.015649717194
     H      1.064599872893     3.042405626573    -0.026103413683
     N      2.352322660535    -1.146497223142     0.104772273043
     H     -2.967430384672     0.411172541922    -0.031808404425
     H     -2.771593589313    -2.233492907580    -0.019564149597
     H      2.078303403574    -2.073200463019    -0.204253610430
     H      3.267931804519    -0.828586718649    -0.194778906668
15

     N     -2.129257952295    -0.113878264933    -0.017085122542
     C     -0.893370496044     0.498605689590    -0.004333847318
     C      0.002568132611    -0.552833949534     0.014826934568
     N     -0.668175535202    -1.758522912908     0.007886523122
     C     -1.947743158778    -1.478295922873    -0.010886667086
     C      1.371411545305    -0.209902846231     0.022715006564
     N      1.703987708369     1.081290415252     0.000981290221
     C      0.713918649783     2.003701200010    -0.014075964121
     N     -0.606338417868     1.818472026886    -0.015766728294
     H      1.056930795672     3.044372337814    -0.027342862870
     N      2.355133561522    -1.150473712831     0.104237386073
     H     -3.002165621683     0.397788328586    -0.032004056080
     H     -2.764912646704    -2.201714194301    -0.019995580663
     H      2.087612523891    -2.080203405269    -0.200886855466
     H      3.271040059156    -0.831175324260    -0.193008653616
15

     N     -2.148336726869    -0.094169136586    -0.017439202479
     C     -0.906851273604     0.504274203456    -0.004614569359
     C     -0.000705096111    -0.561823952936     0.014770640777
     N     -0.655645335835    -1.793781855153     0.008086316311
     C     -1.926929835373    -1.459833632630    -0.010551439256
     C      1.369386744883    -0.210380369908     0.023557243388
     N      1.712060519956     1.088109345946     0.000545742526
     C      0.714245992395     2.003013482426    -0.013690097111
     N     -0.611144672573     1.818767594621    -0.015896436097
     H      1.048429558085     3.046552454018    -0.028716802879
     N      2.358249469269    -1.154881685608     0.103644459300
     H     -3.040669928523     0.382951813813    -0.032220937610
     H     -2.757506764771    -2.166487219264    -0.020473825684
     H      2.097931763256    -2.087966226554    -0.197154778840
     H      3.274485585963    -0.834044815685    -0.191046312991
15

     N     -2.167415501443    -0.074460008239    -0.017793282416
     C     -0.920332051164     0.509942717322    -0.004895291400
     C     -0.003978324833    -0.570813956338     0.014714346986
     N     -0.643115136468    -1.829040797398     0.008286109500
     C     -1.906116511968    -1.441371342387    -0.010216211426
     C      1.367361944461    -0.210857893585     0.024399480212
     N      1.720133331543     1.094928276640     0.000110194831
     C      0.714573335007     2.002325764842    -0.013304230101
     N     -0.615950927278     1.819063162356    -0.016026143900
     H      1.039928320498     3.048732570222    -0.030090742888
     N      2.361365377016    -1.159289658385     0.103051532527
     H     -3.079174235363     0.368115299040    -0.032437819140
     H     -2.750100882838    -2.131260244227    -0.020952070705
     H      2.108251002621    -2.095729047839    -0.193422702214
     H      3.277931112770    -0.836914307110    -0.189083972366
15

     N     -2.184626712633    -0.056680146697    -0.018112702542
     C     -0.932493236291     0.515056357555    -0.005148534412
     C     -0.006931147122    -0.578923955570     0.014663563623
     N     -0.631811480318    -1.860848348713     0.008466345540
     C     -1.887340541672    -1.424716269747    -0.009913798031
     C      1.365535345612    -0.211288673917     0.025159273028
     N      1.727415920085     1.101079722888    -0.000282718421
     C      0.714868635043     2.001705365846    -0.012956134442
     N     -0.620286712286     1.819329797862    -0.016143155000
     H      1.032259243277     3.050699281463    -0.031330192075
     N      2.364176278003    -1.163266148074     0.102516645557
     H     -3.113909472374     0.354731085704    -0.032633470795
     H     -2.743419940229    -2.099481530948    -0.021383501771
     H      2.117560122938    -2.102731990089    -0.190055947250
     H      3.281039367407    -0.839502912721    -0.187313719314
15

     N     -2.198285607168    -0.042569968686    -0.018366195789
     C     -0.942144407452     0.519114565422    -0.005349509204
     C     -0.009274520158    -0.585360087402     0.014623261719
     N     -0.622840848007    -1.886090964359     0.008609381671
     C     -1.872439847279    -1.411498729263    -0.009673801402
     C      1.364085748558    -0.211630543124     0.025762248021
     N      1.733195415074     1.105961538271    -0.000594536143
     C      0.715102986479     2.001213014416    -0.012679884164
     N     -0.623727610750     1.819541400997    -0.016236015535
     H      1.026173029135     3.052260072341    -0.032313824520
     N      2.366407021657    -1.166421908159     0.102092156855
     H     -3.141475512543     0.344109313862    -0.032788740827
     H     -2.738117914154    -2.074261801297    -0.021725887404
     H      2.124947882651    -2.108289556526    -0.187384075384
     H      3.283506092253    -0.841557241765    -0.185908838538
15

     N     -2.207055157286    -0.033510676741    -0.018528948473
     C     -0.948340840770     0.521720095260    -0.005478542964
     C     -0.010779058262    -0.589492338406     0.014597386303
     N     -0.617081347526    -1.902297721240     0.008701216520
     C     -1.862873012574    -1.403012545890    -0.009519714082
     C      1.363155049959    -0.211850036666     0.026149381797
     N      1.736906079275     1.109095856685    -0.000794735445
     C      0.715253449363     2.000896905339    -0.012502520567
     N     -0.625936803555     1.819677258573    -0.016295635668
     H      1.022265439117     3.053262161770    -0.032945355425
     N      2.367839247246    -1.168448030856     0.101819618331
     H     -3.159173999795     0.337289716546    -0.032888430325
     H     -2.734713803868    -2.058069738129    -0.021945712512
     H      2.129691116365    -2.111857733824    -0.185668628048
     H      3.285089827094    -0.842876202203    -0.185006849556
15

     N     -2.210076938319    -0.030389057479    -0.018585029225
     C     -0.950475986179     0.522617899657    -0.005523004967
     C     -0.011297486761    -0.590916215063     0.014588470242
     N     -0.615096758912    -1.907882189074     0.008732860653
     C     -1.859576505995    -1.400088406382    -0.009466619209
     C      1.362834353077    -0.211925668986     0.026282779005
     N      1.738184687020     1.110175869207    -0.000863719423
     C      0.715305295339     2.000787981574    -0.012441405236
     N     -0.626698039517     1.819724071903    -0.016316179366
     H      1.020918975360     3.053607458254    -0.033162966144
     N      2.368332758551    -1.169146185157     0.101725707956
     H     -3.165272482884     0.334939843457    -0.032922780985
     H     -2.733540827403    -2.052490333403    -0.022021459082
     H      2.131325523316    -2.113087243928    -0.185077525180
     H      3.285635544929    -0.843330684996    -0.184696045335
15

     N     -2.207055157286    -0.033510676741    -0.018528948473
     C     -0.948340840770     0.521720095260    -0.005478542964
     C     -0.010779058262    -0.589492338406     0.014597386303
     N     -0.617081347526    -1.902297721240     0.008701216520
     C     -1.862873012574    -1.403012545890    -0.009519714082
     C      1.363155049959    -0.211850036666     0.026149381797
     N      1.736906079275     1.109095856685    -0.000794735445
     C      0.715253449363     2.000896905339    -0.012502520567
     N     -0.625936803555     1.819677258573    -0.016295635668
     H      1.022265439117     3.053262161770    -0.032945355425
     N      2.367839247246    -1.168448030856     0.101819618331
     H     -3.159173999795     0.337289716546    -0.032888430325
     H     -2.734713803868    -2.058069738129    -0.021945712512
     H      2.129691116365    -2.111857733824    -0.185668628048
     H      3.285089827094    -0.842876202203    -0.185006849556
15

     N     -2.198285607168    -0.042569968686    -0.018366195789
     C     -0.942144407452     0.519114565422    -0.005349509204
     C     -0.009274520158    -0.585360087402     0.014623261719
     N     -0.622840848007    -1.886090964359     0.008609381671
     C     -1.872439847279    -1.411498729263    -0.009673801402
     C      1.364085748558    -0.211630543124     0.025762248021
     N      1.733195415074     1.105961538271    -0.000594536143
     C      0.715102986479     2.001213014416    -0.012679884164
     N     -0.623727610750     1.819541400997    -0.016236015535
     H      1.026173029135     3.052260072341    -0.032313824520
     N      2.366407021657    -1.166421908159     0.102092156855
     H     -3.141475512543     0.344109313862    -0.032788740827
     H     -2.738117914154    -2.074261801297    -0.021725887404
     H      2.124947882651    -2.108289556526    -0.187384075384
     H      3.283506092253    -0.841557241765    -0.185908838538
15

     N     -2.184626712633    -0.056680146697    -0.018112702542
     C     -0.932493236291     0.515056357555    -0.005148534412
     C     -0.006931147122    -0.578923955570     0.014663563623
     N     -0.631811480318    -1.860848348713     0.008466345540
     C     -1.887340541672    -1.424716269747    -0.009913798031
     C      1.365535345612    -0.211288673917     0.025159273028
     N      1.727415920085     1.101079722888    -0.000282718421
     C      0.714868635043     2.001705365846    -0.012956134442
     N     -0.620286712286     1.819329797862    -0.016143155000
     H      1.032259243277     3.050699281463    -0.031330192075
     N      2.364176278003    -1.163266148074     0.102516645557
     H     -3.113909472374     0.354731085704    -0.032633470795
     H     -2.743419940229    -2.099481530948    -0.021383501771
     H      2.117560122938    -2.102731990089    -0.190055947250
     H      3.281039367407    -0.839502912721    -0.187313719314
15

     N     -2.167415501443    -0.074460008239    -0.017793282416
     C     -0.920332051164     0.509942717322    -0.004895291400
     C     -0.003978324833    -0.570813956338     0.014714346986
     N     -0.643115136468    -1.829040797398     0.008286109500
     C     -1.906116511968    -1.441371342387    -0.010216211426
     C      1.367361944461    -0.210857893585     0.024399480212
     N      1.720133331543     1.094928276640     0.000110194831
     C      0.714573335007     2.002325764842    -0.013304230101
     N     -0.615950927278     1.819063162356    -0.016026143900
     H      1.039928320498     3.048732570222    -0.030090742888
     N      2.361365377016    -1.159289658385     0.103051532527
     H     -3.079174235363     0.368115299040    -0.032437819140
     H     -2.750100882838    -2.131260244227    -0.020952070705
     H      2.108251002621    -2.095729047839    -0.193422702214
     H      3.277931112770    -0.836914307110    -0.189083972366
