15

     N     -2.148336726869    -0.094169136586    -0.017439202479
     C     -0.906851273604     0.504274203456    -0.004614569359
     C     -0.000705096111    -0.561823952936     0.014770640777
     N     -0.655645335835    -1.793781855153     0.008086316311
     C     -1.926929835373    -1.459833632630    -0.010551439256
     C      1.369386744883    -0.210380369908     0.023557243388
     N      1.712060519956     1.088109345946     0.000545742526
     C      0.714245992395     2.003013482426    -0.013690097111
     N     -0.611144672573     1.818767594621    -0.015896436097
     H      1.048429558085     3.046552454018    -0.028716802879
     N      2.358249469269    -1.154881685608     0.103644459300
     H     -3.040669928523     0.382951813813    -0.032220937610
     H     -2.757506764771    -2.166487219264    -0.020473825684
     H      2.097931763256    -2.087966226554    -0.197154778840
     H      3.274485585963    -0.834044815685    -0.191046312991
15

     N     -2.144195216289    -0.101808779548    -0.017349310908
     C     -0.912176315654     0.495326679092    -0.004633963102
     C     -0.005458129726    -0.548169020842     0.014595342611
     N     -0.667006384748    -1.802524938496     0.007946882845
     C     -1.919179721838    -1.446866414431    -0.010480833273
     C      1.374251089999    -0.200298612307     0.023498905127
     N      1.712019138183     1.079317244585     0.000753376119
     C      0.709453320138     2.009325360335    -0.013779202416
     N     -0.610483659981     1.818029367786    -0.015847719707
     H      1.092270545671     3.037513717471    -0.028746767515
     N      2.358413554154    -1.157195516041     0.103475533256
     H     -3.020335124310     0.402881375667    -0.031997251720
     H     -2.714204167880    -2.191603359964    -0.019840997106
     H      2.110009458793    -2.094524245581    -0.193510845657
     H      3.271246550049    -0.826981394242    -0.192807610420
15

     N     -2.140459105621    -0.108700601028    -0.017268218551
     C     -0.916980105487     0.487255000753    -0.004651458451
     C     -0.009745903295    -0.535850728642     0.014437203850
     N     -0.677255335037    -1.810412187925     0.007821098098
     C     -1.912188243414    -1.435168517897    -0.010417138695
     C      1.378639279124    -0.191203727383     0.023446277421
     N      1.711981807146     1.071385775363     0.000940685089
     C      0.705129788033     2.015019387656    -0.013859585474
     N     -0.609887351908     1.817363403738    -0.015803772017
     H      1.131820071935     3.029359755433    -0.028773799004
     N      2.358561577268    -1.159282852630     0.103323142870
     H     -3.001990832415     0.420860093149    -0.031795461764
     H     -2.675140330879    -2.214260957817    -0.019270114199
     H      2.120904905341    -2.100440320014    -0.190223606042
     H      3.268324573538    -0.820609389703    -0.194396499785
15

     N     -2.137494111407    -0.114169981522    -0.017203863291
     C     -0.920792414683     0.480849280555    -0.004665342839
     C     -0.013148699665    -0.526074876601     0.014311704219
     N     -0.685388948038    -1.816671544512     0.007721274757
     C     -1.906639774721    -1.425885014646    -0.010366590392
     C      1.382121765731    -0.183985985842     0.023404511837
     N      1.711952181068     1.065091325750     0.001089334329
     C      0.701698613528     2.019538193323    -0.013923377829
     N     -0.609414119141     1.816834891677    -0.015768894933
     H      1.163206753686     3.022888734522    -0.028795251315
     N      2.358679049076    -1.160939372326     0.103202205175
     H     -2.987432719940     0.435128084127    -0.031635320348
     H     -2.644139094308    -2.232242129282    -0.018817058959
     H      2.129551580678    -2.105135343266    -0.187614837914
     H      3.266005679849    -0.815552538270    -0.195657449524
15

     N     -2.135590467939    -0.117681539960    -0.017162544671
     C     -0.923240067857     0.476736555022    -0.004674257164
     C     -0.015333429420    -0.519798393230     0.014231128496
     N     -0.690611049041    -1.820690298823     0.007657184227
     C     -1.903077438534    -1.419924638656    -0.010334136384
     C      1.384357659767    -0.179351910513     0.023377696681
     N      1.711933159955     1.061050040329     0.001184773017
     C      0.699495663889     2.022439445154    -0.013964335042
     N     -0.609110285002     1.816495566045    -0.015746502466
     H      1.183358243833     3.018734083349    -0.028809024546
     N      2.358754470620    -1.162002923440     0.103124558395
     H     -2.978085836366     0.444288698234    -0.031532503230
     H     -2.624235075201    -2.243786752013    -0.018526179589
     H      2.135103087978    -2.108149733750    -0.185939905672
     H      3.264516858454    -0.812305839793    -0.196467029092
15

     N     -2.134934517104    -0.118891540534    -0.017148307245
     C     -0.924083471662     0.475319406383    -0.004677328831
     C     -0.016086235989    -0.517635664453     0.014203363994
     N     -0.692410462414    -1.822075067185     0.007635100136
     C     -1.901849941140    -1.417870833059    -0.010322953495
     C      1.385128096345    -0.177755116978     0.023368456808
     N      1.711926605726     1.059657508276     0.001217658947
     C      0.698736579176     2.023439148404    -0.013978447936
     N     -0.609005590893     1.816378642401    -0.015738786548
     H      1.190301974115     3.017302488120    -0.028813770478
     N      2.358780459112    -1.162369398178     0.103097803138
     H     -2.974865119782     0.447445230734    -0.031497074866
     H     -2.617376617628    -2.247764757901    -0.018425949389
     H      2.137016007026    -2.109188421924    -0.185362763354
     H      3.264003845564    -0.811187103741    -0.196745991200
15

     N     -2.135590467939    -0.117681539960    -0.017162544671
     C     -0.923240067857     0.476736555022    -0.004674257164
     C     -0.015333429420    -0.519798393230     0.014231128496
     N     -0.690611049041    -1.820690298823     0.007657184227
     C     -1.903077438534    -1.419924638656    -0.010334136384
     C      1.384357659767    -0.179351910513     0.023377696681
     N      1.711933159955     1.061050040329     0.001184773017
     C      0.699495663889     2.022439445154    -0.013964335042
     N     -0.609110285002     1.816495566045    -0.015746502466
     H      1.183358243833     3.018734083349    -0.028809024546
     N      2.358754470620    -1.162002923440     0.103124558395
     H     -2.978085836366     0.444288698234    -0.031532503230
     H     -2.624235075201    -2.243786752013    -0.018526179589
     H      2.135103087978    -2.108149733750    -0.185939905672
     H      3.264516858454    -0.812305839793    -0.196467029092
15

     N     -2.137494111407    -0.114169981522    -0.017203863291
     C     -0.920792414683     0.480849280555    -0.004665342839
     C     -0.013148699665    -0.526074876601     0.014311704219
     N     -0.685388948038    -1.816671544512     0.007721274757
     C     -1.906639774721    -1.425885014646    -0.010366590392
     C      1.382121765731    -0.183985985842     0.023404511837
     N      1.711952181068     1.065091325750     0.001089334329
     C      0.701698613528     2.019538193323    -0.013923377829
     N     -0.609414119141     1.816834891677    -0.015768894933
     H      1.163206753686     3.022888734522    -0.028795251315
     N      2.358679049076    -1.160939372326     0.103202205175
     H     -2.987432719940     0.435128084127    -0.031635320348
     H     -2.644139094308    -2.232242129282    -0.018817058959
     H      2.129551580678    -2.105135343266    -0.187614837914
     H      3.266005679849    -0.815552538270    -0.195657449524
15

     N     -2.140459105621    -0.108700601028    -0.017268218551
     C     -0.916980105487     0.487255000753    -0.004651458451
     C     -0.009745903295    -0.535850728642     0.014437203850
     N     -0.677255335037    -1.810412187925     0.007821098098
     C     -1.912188243414    -1.435168517897    -0.010417138695
     C      1.378639279124    -0.191203727383     0.023446277421
     N      1.711981807146     1.071385775363     0.000940685089
     C      0.705129788033     2.015019387656    -0.013859585474
     N     -0.609887351908     1.817363403738    -0.015803772017
     H      1.131820071935     3.029359755433    -0.028773799004
     N      2.358561577268    -1.159282852630     0.103323142870
     H     -3.001990832415     0.420860093149    -0.031795461764
     H     -2.675140330879    -2.214260957817    -0.019270114199
     H      2.120904905341    -2.100440320014    -0.190223606042
     H      3.268324573538    -0.820609389703    -0.194396499785
15

     N     -2.144195216289    -0.101808779548    -0.017349310908
     C     -0.912176315654     0.495326679092    -0.004633963102
     C     -0.005458129726    -0.548169020842     0.014595342611
     N     -0.667006384748    -1.802524938496     0.007946882845
     C     -1.919179721838    -1.446866414431    -0.010480833273
     C      1.374251089999    -0.200298612307     0.023498905127
     N      1.712019138183     1.079317244585     0.000753376119
     C      0.709453320138     2.009325360335    -0.013779202416
     N     -0.610483659981     1.818029367786    -0.015847719707
     H      1.092270545671     3.037513717471    -0.028746767515
     N      2.358413554154    -1.157195516041     0.103475533256
     H     -3.020335124310     0.402881375667    -0.031997251720
     H     -2.714204167880    -2.191603359964    -0.019840997106
     H      2.110009458793    -2.094524245581    -0.193510845657
     H      3.271246550049    -0.826981394242    -0.192807610420
15

     N     -2.148336726869    -0.094169136586    -0.017439202479
     C     -0.906851273604     0.504274203456    -0.004614569359
     C     -0.000705096111    -0.561823952936     0.014770640777
     N     -0.655645335835    -1.793781855153     0.008086316311
     C     -1.926929835373    -1.459833632630    -0.010551439256
     C      1.369386744883    -0.210380369908     0.023557243388
     N      1.712060519956     1.088109345946     0.000545742526
     C      0.714245992395     2.003013482426    -0.013690097111
     N     -0.611144672573     1.818767594621    -0.015896436097
     H      1.048429558085     3.046552454018    -0.028716802879
     N      2.358249469269    -1.154881685608     0.103644459300
     H     -3.040669928523     0.382951813813    -0.032220937610
     H     -2.757506764771    -2.166487219264    -0.020473825684
     H      2.097931763256    -2.087966226554    -0.197154778840
     H      3.274485585963    -0.834044815685    -0.191046312991
15

     N     -2.152478237449    -0.086529493624    -0.017529094050
     C     -0.901526231554     0.513221727820    -0.004595175616
     C      0.004047937504    -0.575478885030     0.014945938943
     N     -0.644284286922    -1.785038771810     0.008225749777
     C     -1.934679948908    -1.472800850829    -0.010622045239
     C      1.364522399767    -0.220462127509     0.023615581649
     N      1.712101901729     1.096901447307     0.000338108933
     C      0.719038664652     1.996701604517    -0.013600991806
     N     -0.611805685165     1.819505821456    -0.015945152487
     H      1.004588570499     3.055591190565    -0.028686838243
     N      2.358085384384    -1.152567855175     0.103813385344
     H     -3.061004732736     0.363022251959    -0.032444623500
     H     -2.800809361662    -2.141371078564    -0.021106654262
     H      2.085854067719    -2.081408207527    -0.200798712023
     H      3.277724621877    -0.841108237128    -0.189285015562
15

     N     -2.156214348117    -0.079637672144    -0.017610186407
     C     -0.896722441721     0.521293406159    -0.004577680267
     C      0.008335711073    -0.587797177230     0.015104077704
     N     -0.634035336633    -1.777151522381     0.008351534524
     C     -1.941671427332    -1.484498747363    -0.010685739817
     C      1.360134210642    -0.229557012433     0.023668209355
     N      1.712139232766     1.104832916529     0.000150799963
     C      0.723362196757     1.991007577196    -0.013520608748
     N     -0.612401993238     1.820171785504    -0.015989100177
     H      0.965039044235     3.063745152603    -0.028659806754
     N      2.357937361270    -1.150480518586     0.103965775730
     H     -3.079349024631     0.345043534477    -0.032646413456
     H     -2.839873198663    -2.118713480711    -0.021677537169
     H      2.074958621171    -2.075492133094    -0.204085951638
     H      3.280646598388    -0.847480241667    -0.187696126197
15

     N     -2.159179342331    -0.074168291650    -0.017674541667
     C     -0.892910132525     0.527699126357    -0.004563795879
     C      0.011738507443    -0.597573029271     0.015229577335
     N     -0.625901723632    -1.770892165794     0.008451357865
     C     -1.947219896025    -1.493782250614    -0.010736288120
     C      1.356651724035    -0.236774753974     0.023709974939
     N      1.712168858844     1.111127366142     0.000002150723
     C      0.726793371262     1.986488771529    -0.013456816393
     N     -0.612875226005     1.820700297565    -0.016023977261
     H      0.933652362484     3.070216173514    -0.028638354443
     N      2.357819889462    -1.148823998890     0.104086713425
     H     -3.093907137106     0.330775543499    -0.032806554872
     H     -2.870874435234    -2.100732309246    -0.022130592409
     H      2.066311945834    -2.070797109842    -0.206694719766
     H      3.282965492077    -0.852537093100    -0.186435176458
15

     N     -2.161082985799    -0.070656733212    -0.017715860287
     C     -0.890462479351     0.531811851890    -0.004554881554
     C      0.013923237198    -0.603849512642     0.015310153058
     N     -0.620679622629    -1.766873411483     0.008515448395
     C     -1.950782232212    -1.499742626604    -0.010768742128
     C      1.354415829999    -0.241408829303     0.023736790095
     N      1.712187879957     1.115168651563    -0.000093287965
     C      0.728996320901     1.983587519698    -0.013415859180
     N     -0.613179060144     1.821039623197    -0.016046369728
     H      0.913500872337     3.074370824687    -0.028624581212
     N      2.357744467918    -1.147760447776     0.104164360205
     H     -3.103254020680     0.321614929392    -0.032909371990
     H     -2.890778454341    -2.089187686515    -0.022421471779
     H      2.060760438534    -2.067782719358    -0.208369652008
     H      3.284454313472    -0.855783791577    -0.185625596890
15

     N     -2.161738936634    -0.069446732638    -0.017730097713
     C     -0.889619075546     0.533229000529    -0.004551809887
     C      0.014676043767    -0.606012241419     0.015337917560
     N     -0.618880209256    -1.765488643121     0.008537532486
     C     -1.952009729606    -1.501796432201    -0.010779925017
     C      1.353645393421    -0.243005622838     0.023746029968
     N      1.712194434186     1.116561183616    -0.000126173895
     C      0.729755405614     1.982587816448    -0.013401746286
     N     -0.613283754253     1.821156546841    -0.016054085646
     H      0.906557142055     3.075802419916    -0.028619835280
     N      2.357718479426    -1.147393973038     0.104191115462
     H     -3.106474737264     0.318458396892    -0.032944800354
     H     -2.897636911914    -2.085209680627    -0.022521701979
     H      2.058847519486    -2.066744031184    -0.208946794326
     H      3.284967326362    -0.856902527629    -0.185346634782
15

     N     -2.161082985799    -0.070656733212    -0.017715860287
     C     -0.890462479351     0.531811851890    -0.004554881554
     C      0.013923237198    -0.603849512642     0.015310153058
     N     -0.620679622629    -1.766873411483     0.008515448395
     C     -1.950782232212    -1.499742626604    -0.010768742128
     C      1.354415829999    -0.241408829303     0.023736790095
     N      1.712187879957     1.115168651563    -0.000093287965
     C      0.728996320901     1.983587519698    -0.013415859180
     N     -0.613179060144     1.821039623197    -0.016046369728
     H      0.913500872337     3.074370824687    -0.028624581212
     N      2.357744467918    -1.147760447776     0.104164360205
     H     -3.103254020680     0.321614929392    -0.032909371990
     H     -2.890778454341    -2.089187686515    -0.022421471779
     H      2.060760438534    -2.067782719358    -0.208369652008
     H      3.284454313472    -0.855783791577    -0.185625596890
15

     N     -2.159179342331    -0.074168291650    -0.017674541667
     C     -0.892910132525     0.527699126357    -0.004563795879
     C      0.011738507443    -0.597573029271     0.015229577335
     N     -0.625901723632    -1.770892165794     0.008451357865
     C     -1.947219896025    -1.493782250614    -0.010736288120
     C      1.356651724035    -0.236774753974     0.023709974939
     N      1.712168858844     1.111127366142     0.000002150723
     C      0.726793371262     1.986488771529    -0.013456816393
     N     -0.612875226005     1.820700297565    -0.016023977261
     H      0.933652362484     3.070216173514    -0.028638354443
     N      2.357819889462    -1.148823998890     0.104086713425
     H     -3.093907137106     0.330775543499    -0.032806554872
     H     -2.870874435234    -2.100732309246    -0.022130592409
     H      2.066311945834    -2.070797109842    -0.206694719766
     H      3.282965492077    -0.852537093100    -0.186435176458
15

     N     -2.156214348117    -0.079637672144    -0.017610186407
     C     -0.896722441721     0.521293406159    -0.004577680267
     C      0.008335711073    -0.587797177230     0.015104077704
     N     -0.634035336633    -1.777151522381     0.008351534524
     C     -1.941671427332    -1.484498747363    -0.010685739817
     C      1.360134210642    -0.229557012433     0.023668209355
     N      1.712139232766     1.104832916529     0.000150799963
     C      0.723362196757     1.991007577196    -0.013520608748
     N     -0.612401993238     1.820171785504    -0.015989100177
     H      0.965039044235     3.063745152603    -0.028659806754
     N      2.357937361270    -1.150480518586     0.103965775730
     H     -3.079349024631     0.345043534477    -0.032646413456
     H     -2.839873198663    -2.118713480711    -0.021677537169
     H      2.074958621171    -2.075492133094    -0.204085951638
     H      3.280646598388    -0.847480241667    -0.187696126197
15

     N     -2.152478237449    -0.086529493624    -0.017529094050
     C     -0.901526231554     0.513221727820    -0.004595175616
     C      0.004047937504    -0.575478885030     0.014945938943
     N     -0.644284286922    -1.785038771810     0.008225749777
     C     -1.934679948908    -1.472800850829    -0.010622045239
     C      1.364522399767    -0.220462127509     0.023615581649
     N      1.712101901729     1.096901447307     0.000338108933
     C      0.719038664652     1.996701604517    -0.013600991806
     N     -0.611805685165     1.819505821456    -0.015945152487
     H      1.004588570499     3.055591190565    -0.028686838243
     N      2.358085384384    -1.152567855175     0.103813385344
     H     -3.061004732736     0.363022251959    -0.032444623500
     H     -2.800809361662    -2.141371078564    -0.021106654262
     H      2.085854067719    -2.081408207527    -0.200798712023
     H      3.277724621877    -0.841108237128    -0.189285015562
