15

     N     -2.148336726869    -0.094169136586    -0.017439202479
     C     -0.906851273604     0.504274203456    -0.004614569359
     C     -0.000705096111    -0.561823952936     0.014770640777
     N     -0.655645335835    -1.793781855153     0.008086316311
     C     -1.926929835373    -1.459833632630    -0.010551439256
     C      1.369386744883    -0.210380369908     0.023557243388
     N      1.712060519956     1.088109345946     0.000545742526
     C      0.714245992395     2.003013482426    -0.013690097111
     N     -0.611144672573     1.818767594621    -0.015896436097
     H      1.048429558085     3.046552454018    -0.028716802879
     N      2.358249469269    -1.154881685608     0.103644459300
     H     -3.040669928523     0.382951813813    -0.032220937610
     H     -2.757506764771    -2.166487219264    -0.020473825684
     H      2.097931763256    -2.087966226554    -0.197154778840
     H      3.274485585963    -0.834044815685    -0.191046312991
15

     N     -2.148628982929    -0.094237531333    -0.012462906228
     C     -0.906817516591     0.503843155647    -0.005457287988
     C     -0.000778268284    -0.561937737612     0.027101791019
     N     -0.655975460529    -1.793975636430     0.007027934471
     C     -1.927227964446    -1.459885839161    -0.016321797387
     C      1.369554261365    -0.209755947702     0.016477960911
     N      1.712542167847     1.088498797175    -0.009772743164
     C      0.714276990675     2.003712533303     0.002041222123
     N     -0.610706924731     1.818106493044    -0.032325752634
     H      1.047768986995     3.047973794674     0.022098307523
     N      2.358252921904    -1.155027619504     0.108048790005
     H     -3.041520589072     0.383339388806     0.021046890364
     H     -2.757663461919    -2.166537883652    -0.039157558707
     H      2.097703559180    -2.087030998263    -0.197231357682
     H      3.273859905777    -0.835943941155    -0.191569499824
15

     N     -2.148892630930    -0.094299231125    -0.007973724525
     C     -0.906787063950     0.503454301801    -0.006217515446
     C     -0.000844277855    -0.562040384252     0.038225882359
     N     -0.656273270319    -1.794150449046     0.006073154420
     C     -1.927496910568    -1.459932935353    -0.021527312660
     C      1.369705380166    -0.209192648293     0.010091647927
     N      1.712976668686     1.088850126205    -0.019081183582
     C      0.714304954628     2.004343156209     0.016232650224
     N     -0.610312026697     1.817510104695    -0.047146853198
     H      1.047173077205     3.049256004604     0.067939280868
     N      2.358256036570    -1.155159268373     0.112021994133
     H     -3.042287981040     0.383689025258     0.069100492196
     H     -2.757804820459    -2.166583588657    -0.056012397764
     H      2.097497693309    -2.086187316633    -0.197300440454
     H      3.273295471526    -0.837657166992    -0.192041473484
15

     N     -2.149101863168    -0.094348196358    -0.004411089755
     C     -0.906762896597     0.503145705641    -0.006820835372
     C     -0.000896663347    -0.562121845086     0.047054011231
     N     -0.656509613506    -1.794289181124     0.005315436682
     C     -1.927710347419    -1.459970311103    -0.025658432971
     C      1.369825308726    -0.208745611350     0.005023441246
     N      1.713321490504     1.089128942501    -0.026468403724
     C      0.714327146946     2.004843621381     0.027495031332
     N     -0.609998633843     1.817036808222    -0.058908945202
     H      1.046700160519     3.050273572166     0.104318883294
     N      2.358258508384    -1.155263745507     0.115175146783
     H     -3.042896986754     0.383966498318     0.107236046532
     H     -2.757917003231    -2.166619860354    -0.069388473774
     H      2.097334317228    -2.085517767101    -0.197355264852
     H      3.272847533969    -0.839016790715    -0.192416033901
15

     N     -2.149236198535    -0.094379633972    -0.002123737430
     C     -0.906747380202     0.502947574711    -0.007208190609
     C     -0.000930296903    -0.562174146162     0.052722018871
     N     -0.656661355172    -1.794378252600     0.004828951947
     C     -1.927847382313    -1.459994307811    -0.028310775480
     C      1.369902307601    -0.208458595965     0.001769452253
     N      1.713542879740     1.089307953583    -0.031211291012
     C      0.714341395292     2.005164939801     0.034725925114
     N     -0.609797423245     1.816732933180    -0.066460673129
     H      1.046396529316     3.050926890757     0.127676025844
     N      2.358260095385    -1.155330823957     0.117199595402
     H     -3.043287992492     0.384144646988     0.131720579605
     H     -2.757989029004    -2.166643148217    -0.077976443221
     H      2.097229423328    -2.085087889839    -0.197390464282
     H      3.272559940353    -0.839889722879    -0.192656516492
15

     N     -2.149282487347    -0.094390466636    -0.001335569534
     C     -0.906742033616     0.502879303445    -0.007341664128
     C     -0.000941886237    -0.562192167884     0.054675081200
     N     -0.656713641787    -1.794408944540     0.004661320732
     C     -1.927894601319    -1.460002576514    -0.029224710423
     C      1.369928839605    -0.208359697204     0.000648204059
     N      1.713619165271     1.089369636598    -0.032845578593
     C      0.714346304937     2.005275658583     0.037217521307
     N     -0.609728090798     1.816628224977    -0.069062821234
     H      1.046291905133     3.051152009002     0.135724348665
     N      2.358260642229    -1.155353937615     0.117897172856
     H     -3.043422723887     0.384206032836     0.140157374726
     H     -2.758013847394    -2.166651172668    -0.080935655819
     H      2.097193279353    -2.084939764230    -0.197402593179
     H      3.272460842347    -0.840190514804    -0.192739381146
15

     N     -2.149236198535    -0.094379633972    -0.002123737430
     C     -0.906747380202     0.502947574711    -0.007208190609
     C     -0.000930296903    -0.562174146162     0.052722018871
     N     -0.656661355172    -1.794378252600     0.004828951947
     C     -1.927847382313    -1.459994307811    -0.028310775480
     C      1.369902307601    -0.208458595965     0.001769452253
     N      1.713542879740     1.089307953583    -0.031211291012
     C      0.714341395292     2.005164939801     0.034725925114
     N     -0.609797423245     1.816732933180    -0.066460673129
     H      1.046396529316     3.050926890757     0.127676025844
     N      2.358260095385    -1.155330823957     0.117199595402
     H     -3.043287992492     0.384144646988     0.131720579605
     H     -2.757989029004    -2.166643148217    -0.077976443221
     H      2.097229423328    -2.085087889839    -0.197390464282
     H      3.272559940353    -0.839889722879    -0.192656516492
15

     N     -2.149101863168    -0.094348196358    -0.004411089755
     C     -0.906762896597     0.503145705641    -0.006820835372
     C     -0.000896663347    -0.562121845086     0.047054011231
     N     -0.656509613506    -1.794289181124     0.005315436682
     C     -1.927710347419    -1.459970311103    -0.025658432971
     C      1.369825308726    -0.208745611350     0.005023441246
     N      1.713321490504     1.089128942501    -0.026468403724
     C      0.714327146946     2.004843621381     0.027495031332
     N     -0.609998633843     1.817036808222    -0.058908945202
     H      1.046700160519     3.050273572166     0.104318883294
     N      2.358258508384    -1.155263745507     0.115175146783
     H     -3.042896986754     0.383966498318     0.107236046532
     H     -2.757917003231    -2.166619860354    -0.069388473774
     H      2.097334317228    -2.085517767101    -0.197355264852
     H      3.272847533969    -0.839016790715    -0.192416033901
15

     N     -2.148892630930    -0.094299231125    -0.007973724525
     C     -0.906787063950     0.503454301801    -0.006217515446
     C     -0.000844277855    -0.562040384252     0.038225882359
     N     -0.656273270319    -1.794150449046     0.006073154420
     C     -1.927496910568    -1.459932935353    -0.021527312660
     C      1.369705380166    -0.209192648293     0.010091647927
     N      1.712976668686     1.088850126205    -0.019081183582
     C      0.714304954628     2.004343156209     0.016232650224
     N     -0.610312026697     1.817510104695    -0.047146853198
     H      1.047173077205     3.049256004604     0.067939280868
     N      2.358256036570    -1.155159268373     0.112021994133
     H     -3.042287981040     0.383689025258     0.069100492196
     H     -2.757804820459    -2.166583588657    -0.056012397764
     H      2.097497693309    -2.086187316633    -0.197300440454
     H      3.273295471526    -0.837657166992    -0.192041473484
15

     N     -2.148628982929    -0.094237531333    -0.012462906228
     C     -0.906817516591     0.503843155647    -0.005457287988
     C     -0.000778268284    -0.561937737612     0.027101791019
     N     -0.655975460529    -1.793975636430     0.007027934471
     C     -1.927227964446    -1.459885839161    -0.016321797387
     C      1.369554261365    -0.209755947702     0.016477960911
     N      1.712542167847     1.088498797175    -0.009772743164
     C      0.714276990675     2.003712533303     0.002041222123
     N     -0.610706924731     1.818106493044    -0.032325752634
     H      1.047768986995     3.047973794674     0.022098307523
     N      2.358252921904    -1.155027619504     0.108048790005
     H     -3.041520589072     0.383339388806     0.021046890364
     H     -2.757663461919    -2.166537883652    -0.039157558707
     H      2.097703559180    -2.087030998263    -0.197231357682
     H      3.273859905777    -0.835943941155    -0.191569499824
15

     N     -2.148336726869    -0.094169136586    -0.017439202479
     C     -0.906851273604     0.504274203456    -0.004614569359
     C     -0.000705096111    -0.561823952936     0.014770640777
     N     -0.655645335835    -1.793781855153     0.008086316311
     C     -1.926929835373    -1.459833632630    -0.010551439256
     C      1.369386744883    -0.210380369908     0.023557243388
     N      1.712060519956     1.088109345946     0.000545742526
     C      0.714245992395     2.003013482426    -0.013690097111
     N     -0.611144672573     1.818767594621    -0.015896436097
     H      1.048429558085     3.046552454018    -0.028716802879
     N      2.358249469269    -1.154881685608     0.103644459300
     H     -3.040669928523     0.382951813813    -0.032220937610
     H     -2.757506764771    -2.166487219264    -0.020473825684
     H      2.097931763256    -2.087966226554    -0.197154778840
     H      3.274485585963    -0.834044815685    -0.191046312991
15

     N     -2.148044470809    -0.094100741839    -0.022415498730
     C     -0.906885030617     0.504705251265    -0.003771850730
     C     -0.000631923938    -0.561710168260     0.002439490535
     N     -0.655315211141    -1.793588073876     0.009144698151
     C     -1.926631706300    -1.459781426099    -0.004781081125
     C      1.369219228401    -0.211004792114     0.030636525865
     N      1.711578872065     1.087719894717     0.010864228216
     C      0.714214994115     2.002314431549    -0.029421416345
     N     -0.611582420415     1.819428696198     0.000532880440
     H      1.049090129175     3.045131113362    -0.079531913281
     N      2.358246016634    -1.154735751712     0.099240128595
     H     -3.039819267974     0.382564238820    -0.085488765584
     H     -2.757350067623    -2.166436554876    -0.001790092661
     H      2.098159967332    -2.088901454845    -0.197078199998
     H      3.275111266150    -0.832145690215    -0.190523126158
15

     N     -2.147780822808    -0.094039042047    -0.026904680433
     C     -0.906915483258     0.505094105111    -0.003011623272
     C     -0.000565914367    -0.561607521620    -0.008684600805
     N     -0.655017401351    -1.793413261260     0.010099478202
     C     -1.926362760178    -1.459734329907     0.000424434148
     C      1.369068109600    -0.211568091523     0.037022838849
     N      1.711144371226     1.087368565687     0.020172668634
     C      0.714187030162     2.001683808643    -0.043612844446
     N     -0.611977318449     1.820025084547     0.015353981004
     H      1.049686038965     3.043848903432    -0.125372886626
     N      2.358242901968    -1.154604102843     0.095266924467
     H     -3.039051876006     0.382214602368    -0.133542367416
     H     -2.757208709083    -2.166390849871     0.015064746396
     H      2.098365833203    -2.089745136475    -0.197009117226
     H      3.275675700400    -0.830432464378    -0.190051152498
15

     N     -2.147571590570    -0.093990076814    -0.030467315203
     C     -0.906939650611     0.505402701271    -0.002408303346
     C     -0.000513528875    -0.561526060786    -0.017512729677
     N     -0.654781058164    -1.793274529182     0.010857195940
     C     -1.926149323327    -1.459696954157     0.004555554459
     C      1.368948181040    -0.212015128466     0.042091045530
     N      1.710799549408     1.087089749391     0.027559888776
     C      0.714164837844     2.001183343471    -0.054875225554
     N     -0.612290711303     1.820498381020     0.027116073008
     H      1.050158955651     3.042831335870    -0.161752489052
     N      2.358240430154    -1.154499625709     0.092113771817
     H     -3.038442870292     0.381937129308    -0.171677921752
     H     -2.757096526311    -2.166354578174     0.028440822406
     H      2.098529209284    -2.090414686007    -0.196954292828
     H      3.276123637957    -0.829072840655    -0.189676592081
15

     N     -2.147437255203    -0.093958639200    -0.032754667528
     C     -0.906955167006     0.505600832201    -0.002020948109
     C     -0.000479895319    -0.561473759710    -0.023180737317
     N     -0.654629316498    -1.793185457706     0.011343680675
     C     -1.926012288433    -1.459672957449     0.007207896968
     C      1.368871182165    -0.212302143851     0.045345034523
     N      1.710578160172     1.086910738309     0.032302776064
     C      0.714150589498     2.000862025051    -0.062106119336
     N     -0.612491921901     1.820802256062     0.034667800935
     H      1.050462586854     3.042178017279    -0.185109631602
     N      2.358238843153    -1.154432547259     0.090089323198
     H     -3.038051864554     0.381758980638    -0.196162454825
     H     -2.757024500538    -2.166331290311     0.037028791853
     H      2.098634103184    -2.090844563269    -0.196919093398
     H      3.276411231573    -0.828199908491    -0.189436109490
15

     N     -2.147390966391    -0.093947806536    -0.033542835424
     C     -0.906960513592     0.505669103467    -0.001887474590
     C     -0.000468305985    -0.561455737988    -0.025133799646
     N     -0.654577029883    -1.793154765766     0.011511311890
     C     -1.925965069427    -1.459664688746     0.008121831911
     C      1.368844650161    -0.212401042612     0.046466282717
     N      1.710501874641     1.086849055294     0.033937063645
     C      0.714145679853     2.000751306269    -0.064597715529
     N     -0.612561254348     1.820906964265     0.037269949040
     H      1.050567211037     3.041952899034    -0.193157954423
     N      2.358238296309    -1.154409433601     0.089391745744
     H     -3.037917133159     0.381697594790    -0.204599249946
     H     -2.756999682148    -2.166323265860     0.039988004451
     H      2.098670247159    -2.090992688878    -0.196906964501
     H      3.276510329579    -0.827899116566    -0.189353244836
15

     N     -2.147437255203    -0.093958639200    -0.032754667528
     C     -0.906955167006     0.505600832201    -0.002020948109
     C     -0.000479895319    -0.561473759710    -0.023180737317
     N     -0.654629316498    -1.793185457706     0.011343680675
     C     -1.926012288433    -1.459672957449     0.007207896968
     C      1.368871182165    -0.212302143851     0.045345034523
     N      1.710578160172     1.086910738309     0.032302776064
     C      0.714150589498     2.000862025051    -0.062106119336
     N     -0.612491921901     1.820802256062     0.034667800935
     H      1.050462586854     3.042178017279    -0.185109631602
     N      2.358238843153    -1.154432547259     0.090089323198
     H     -3.038051864554     0.381758980638    -0.196162454825
     H     -2.757024500538    -2.166331290311     0.037028791853
     H      2.098634103184    -2.090844563269    -0.196919093398
     H      3.276411231573    -0.828199908491    -0.189436109490
15

     N     -2.147571590570    -0.093990076814    -0.030467315203
     C     -0.906939650611     0.505402701271    -0.002408303346
     C     -0.000513528875    -0.561526060786    -0.017512729677
     N     -0.654781058164    -1.793274529182     0.010857195940
     C     -1.926149323327    -1.459696954157     0.004555554459
     C      1.368948181040    -0.212015128466     0.042091045530
     N      1.710799549408     1.087089749391     0.027559888776
     C      0.714164837844     2.001183343471    -0.054875225554
     N     -0.612290711303     1.820498381020     0.027116073008
     H      1.050158955651     3.042831335870    -0.161752489052
     N      2.358240430154    -1.154499625709     0.092113771817
     H     -3.038442870292     0.381937129308    -0.171677921752
     H     -2.757096526311    -2.166354578174     0.028440822406
     H      2.098529209284    -2.090414686007    -0.196954292828
     H      3.276123637957    -0.829072840655    -0.189676592081
15

     N     -2.147780822808    -0.094039042047    -0.026904680433
     C     -0.906915483258     0.505094105111    -0.003011623272
     C     -0.000565914367    -0.561607521620    -0.008684600805
     N     -0.655017401351    -1.793413261260     0.010099478202
     C     -1.926362760178    -1.459734329907     0.000424434148
     C      1.369068109600    -0.211568091523     0.037022838849
     N      1.711144371226     1.087368565687     0.020172668634
     C      0.714187030162     2.001683808643    -0.043612844446
     N     -0.611977318449     1.820025084547     0.015353981004
     H      1.049686038965     3.043848903432    -0.125372886626
     N      2.358242901968    -1.154604102843     0.095266924467
     H     -3.039051876006     0.382214602368    -0.133542367416
     H     -2.757208709083    -2.166390849871     0.015064746396
     H      2.098365833203    -2.089745136475    -0.197009117226
     H      3.275675700400    -0.830432464378    -0.190051152498
15

     N     -2.148044470809    -0.094100741839    -0.022415498730
     C     -0.906885030617     0.504705251265    -0.003771850730
     C     -0.000631923938    -0.561710168260     0.002439490535
     N     -0.655315211141    -1.793588073876     0.009144698151
     C     -1.926631706300    -1.459781426099    -0.004781081125
     C      1.369219228401    -0.211004792114     0.030636525865
     N      1.711578872065     1.087719894717     0.010864228216
     C      0.714214994115     2.002314431549    -0.029421416345
     N     -0.611582420415     1.819428696198     0.000532880440
     H      1.049090129175     3.045131113362    -0.079531913281
     N      2.358246016634    -1.154735751712     0.099240128595
     H     -3.039819267974     0.382564238820    -0.085488765584
     H     -2.757350067623    -2.166436554876    -0.001790092661
     H      2.098159967332    -2.088901454845    -0.197078199998
     H      3.275111266150    -0.832145690215    -0.190523126158
