UNITS=BOHR
15
N     -4.106953628613    -0.270006644292     0.059170321262
C     -1.764627402320     0.924827627690    -0.162367911406
C      0.007317657422    -1.103143216535    -0.079144763465
N     -1.265031392381    -3.416640984576    -0.062961671334
C     -3.684085638913    -2.798750167797     0.035166452804
C      2.585001310537    -0.283234025142     0.000962071348
N      3.206021439337     2.030661097117    -0.088624457187
C      1.467605629431     3.847925236771    -0.020439192186
N     -1.086498705705     3.468399033431     0.071820835811
H      2.292099531351     5.683134897847     0.166470096368
N      4.443460913490    -2.149809338242     0.363143076288
H     -5.647251081664     0.945436688999    -0.065593776869
H     -5.450081828061    -4.111080762336     0.052438980258
H      4.132522979328    -3.848205654897    -0.416321491356
H      6.145081669386    -1.490020362656    -0.406970889604
# momenta
    -3.606810950912      7.806778829992     -0.802370885154
    -4.117620181644      4.992351988926      0.937073981157
     2.436301416197      7.989979857177     -3.558829454169
     6.561108919194     -3.485684590133     -3.278919922178
    -1.344991557258     -6.433580538548     -1.478855903896
     5.469078377004    -11.145494191731      6.438979803408
     0.713875462834      0.531187435174     -0.552502420702
    -0.259204499912      0.110289662070      0.419107404882
    -2.663740024996    -15.583085669407     -0.878384328358
    -1.929591624228      1.878821582592     -0.262772287368
    -3.952069518718      2.548210182437      3.124613317235
     0.022058168771      5.721257277592      0.776355084585
    -0.944458531665      1.827980772652      2.559091713578
    -4.333555178557      0.228715068643      1.387703091727
     7.949632477616      3.012276936617     -4.830103693255
