
- memory
   available: 280

- do
   response
   restart

- solver scf
   restart

- solver cc es
   core excitation: {1}
   singlet states: 20
   storage: memory

- cc response
   eom
   dipole length
   transition moments

- solver cholesky
   mo screening

- integrals
   cholesky storage: memory

- method
   hf
   cc3

- active space
   freeze atom cores: [2,15]
   localized

- active atoms
   selection type: range
   cc3: [1,15]

- geometry
basis: aug-cc-pvdz
  O    11.392100000000    17.016500000000    24.581700000000   
  H    11.947200000000    17.485100000000    23.851300000000   
  H    10.369100000000    17.090100000000    24.434300000000   
  O    11.517340000000    14.880600000000    23.032400000000   
  H    11.410970000000    13.967400000000    23.336000000000   
  H    11.687840000000    15.589400000000    23.697700000000   
  O     8.649000000000    17.504940000000    24.071800000000   
  H     8.533700000000    17.876230000000    23.203100000000   
  H     8.121200000000    18.093020000000    24.663400000000   
  O    12.362300000000    18.301740000000    22.038200000000   
  H    11.705700000000    17.839430000000    21.298200000000   
  H    13.389600000000    17.778210000000    21.794500000000   
  O    13.043600000000    19.191500000000    26.068200000000   
  H    12.668800000000    18.551600000000    25.609000000000   
  H    12.439300000000    19.764200000000    26.599200000000   
basis: cc-pvdz
  O     8.221260000000    14.731180000000    24.429400000000   
  H     8.341180000000    15.791200000000    24.125500000000   
  H     8.709050000000    14.972200000000    25.211200000000   
  O     9.234820000000    14.953500000000    21.160500000000   
  H     9.899560000000    14.724500000000    20.551300000000   
  H     9.614360000000    15.151500000000    22.055600000000   
  O    11.118900000000    20.979100000000    22.267400000000   
  H    10.156000000000    21.014500000000    21.938800000000   
  H    11.599400000000    20.115000000000    22.143000000000   
  O     8.816880000000    15.162300000000    27.026300000000   
  H     8.520980000000    16.198600000000    27.184600000000   
  H     9.450000000000    14.874400000000    27.551800000000   
  O    14.910200000000    17.147100000000    21.788500000000   
  H    15.343600000000    17.965700000000    21.885900000000   
  H    14.952300000000    16.506500000000    22.622500000000   
  O    13.183000000000    14.628100000000    21.004800000000   
  H    12.834900000000    13.787200000000    20.494000000000   
  H    12.569900000000    14.871600000000    21.648300000000   
  O    11.126800000000    14.487700000000    28.551500000000   
  H    11.583600000000    15.451700000000    28.520300000000   
  H    11.604400000000    13.912900000000    27.922700000000   
  O    15.051060000000    20.452500000000    24.296900000000   
  H    14.063600000000    20.315200000000    24.939400000000   
  H    14.864890000000    21.239200000000    23.742100000000   
  O    12.386900000000    16.823200000000    19.589700000000   
  H    13.128600000000    16.154300000000    20.075800000000   
  H    13.015700000000    17.460000000000    19.344500000000   
  O     7.480060000000    19.335980000000    25.711600000000   
  H     7.209170000000    18.860800000000    26.560500000000   
  H     6.588680000000    19.721510000000    25.384400000000   
  O    11.147430000000    22.344600000000    24.648500000000   
  H    10.937970000000    21.942300000000    23.652200000000   
  H    10.282062000000    22.028600000000    25.074200000000   
  O    12.993800000000    12.944900000000    26.971500000000   
  H    13.362600000000    13.893600000000    26.897200000000   
  H    12.279400000000    12.728300000000    26.181000000000   
  O    11.147430000000    12.494600000000    24.648500000000   
  H    10.937970000000    12.092300000000    23.652200000000   
  H    10.282062000000    12.178600000000    25.074200000000   
  O    15.653870000000    15.461400000000    24.220700000000   
  H    15.328800000000    15.613000000000    25.131800000000   
  H    16.696500000000    15.232500000000    24.426800000000   
  O     7.864710000000    17.445400000000    27.765100000000   
  H     7.351680000000    17.055500000000    28.508700000000   
  H     8.810630000000    18.013300000000    27.972000000000   
  O    10.298700000000    19.034800000000    29.044600000000   
  H    10.820200000000    19.740700000000    28.571900000000   
  H    10.933000000000    18.375600000000    29.430500000000   
  O    14.442460000000    18.301200000000    28.301200000000   
  H    14.236580000000    18.552900000000    27.471300000000   
  H    14.882520000000    19.155900000000    28.756300000000   
  O    11.489340000000    20.862300000000    27.493400000000   
  H    10.705323000000    21.366500000000    27.636000000000   
  H    12.140700000000    21.310600000000    28.244100000000   
  O     6.549300000000    19.248320000000    22.198200000000   
  H     6.327630000000    19.688930000000    23.049300000000   
  H     7.384480000000    19.663710000000    21.908600000000   
  O    14.910830000000    15.164900000000    27.120100000000   
  H    15.254130000000    15.947000000000    27.710000000000   
  H    15.565230000000    14.432400000000    27.395800000000   
  O    10.298700000000    19.034800000000    19.194600000000   
  H    10.820200000000    19.740700000000    18.721900000000   
  H    10.933000000000    18.375600000000    19.580500000000   
  O    12.386900000000    16.823200000000    29.439700000000   
  H    13.128600000000    16.154300000000    29.925800000000   
  H    13.015700000000    17.460000000000    29.194500000000   
  O     5.803870000000    15.461400000000    24.220700000000   
  H     5.478800000000    15.613000000000    25.131800000000   
  H     6.846500000000    15.232500000000    24.426800000000   
  O    15.143430000000    13.083200000000    22.805300000000   
  H    15.431070000000    13.741900000000    23.430600000000   
  H    14.405030000000    13.387500000000    22.267200000000   
  O     8.704760000000    20.616900000000    21.125300000000   
  H     9.257930000000    20.078600000000    20.395300000000   
  H     8.295050000000    21.418300000000    20.738800000000   
  O     9.136570000000    21.430000000000    27.024500000000   
  H     8.432820000000    22.078000000000    27.346400000000   
  H     8.585410000000    20.734000000000    26.710700000000   
  O    16.399300000000    19.248320000000    22.198200000000   
  H    16.177630000000    19.688930000000    23.049300000000   
  H    17.234480000000    19.663710000000    21.908600000000   
  O    12.450200000000    21.837300000000    20.064100000000   
  H    12.132200000000    21.592000000000    20.877600000000   
  H    13.262400000000    21.816400000000    19.917700000000   
  O    17.330060000000    19.335980000000    25.711600000000   
  H    17.059170000000    18.860800000000    26.560500000000   
  H    16.438680000000    19.721510000000    25.384400000000   
  O     6.505260000000    16.061600000000    19.744100000000   
  H     5.999110000000    16.419400000000    20.409600000000   
  H     7.270530000000    15.740000000000    20.208400000000   
  O    11.126800000000    14.487700000000    18.701500000000   
  H    11.604400000000    13.912900000000    18.072700000000   
  H    11.583600000000    15.451700000000    18.670300000000   
  O     5.060200000000    17.147100000000    21.788500000000   
  H     5.493600000000    17.965700000000    21.885900000000   
  H     5.102300000000    16.506500000000    22.622500000000   
  O     7.185620000000    13.327800000000    28.008500000000   
  H     7.671680000000    14.172300000000    27.629900000000   
  H     7.515380000000    13.338100000000    28.971200000000   
  O    12.993800000000    22.794900000000    26.971500000000   
  H    13.362600000000    23.743600000000    26.897200000000   
  H    12.279400000000    22.578300000000    26.181000000000   
  O     7.202240000000    12.870700000000    20.824000000000   
  H     7.623760000000    13.648200000000    21.276500000000   
  H     6.356840000000    12.813100000000    21.518200000000   
  O    11.118900000000    11.129100000000    22.267400000000   
  H    10.156000000000    11.164500000000    21.938800000000   
  H    11.599400000000    10.265000000000    22.143000000000   
  O     9.136570000000    11.580000000000    27.024500000000   
  H     8.432820000000    12.228000000000    27.346400000000   
  H     8.585410000000    10.884000000000    26.710700000000   
  O    16.355260000000    16.061600000000    19.744100000000   
  H    15.849110000000    16.419400000000    20.409600000000   
  H    17.120530000000    15.740000000000    20.208400000000   
  O    12.450200000000    11.987300000000    20.064100000000   
  H    12.132200000000    11.742000000000    20.877600000000   
  H    13.262400000000    11.966400000000    19.917700000000   
  O    11.489340000000    11.012300000000    27.493400000000   
  H    10.705323000000    11.516500000000    27.636000000000   
  H    12.140700000000    11.460600000000    28.244100000000   
  O     7.864710000000    17.445400000000    17.915100000000   
  H     7.351680000000    17.055500000000    18.658700000000   
  H     8.810630000000    18.013300000000    18.122000000000   
  O     5.060830000000    15.164900000000    27.120100000000   
  H     5.404130000000    15.947000000000    27.710000000000   
  H     5.715230000000    14.432400000000    27.395800000000   
  O    14.827280000000    21.343300000000    28.536000000000   
  H    15.584020000000    21.937200000000    28.399200000000   
  H    14.249830000000    21.640400000000    27.715200000000   
  O    14.442460000000    18.301200000000    18.451200000000   
  H    14.236580000000    18.552900000000    17.621300000000   
  H    14.882520000000    19.155900000000    18.906300000000   
  O    18.499000000000    17.504940000000    24.071800000000   
  H    18.383700000000    17.876230000000    23.203100000000   
  H    17.971200000000    18.093020000000    24.663400000000   
  O    15.051060000000    10.602500000000    24.296900000000   
  H    14.063600000000    10.465200000000    24.939400000000   
  H    14.864890000000    11.389200000000    23.742100000000   
  O    15.143430000000    22.933200000000    22.805300000000   
  H    15.431070000000    23.591900000000    23.430600000000   
  H    14.405030000000    23.237500000000    22.267200000000   
  O     5.201060000000    20.452500000000    24.296900000000   
  H     4.213600000000    20.315200000000    24.939400000000   
  H     5.014890000000    21.239200000000    23.742100000000   
  O     5.293430000000    13.083200000000    22.805300000000   
  H     5.581070000000    13.741900000000    23.430600000000   
  H     4.555030000000    13.387500000000    22.267200000000   
  O    18.071260000000    14.731180000000    24.429400000000   
  H    18.191180000000    15.791200000000    24.125500000000   
  H    18.559050000000    14.972200000000    25.211200000000   
  O    13.183000000000    14.628100000000    30.854800000000   
  H    12.834900000000    13.787200000000    30.344000000000   
  H    12.569900000000    14.871600000000    31.498300000000   
  O     9.234820000000    14.953500000000    31.010500000000   
  H     9.899560000000    14.724500000000    30.401300000000   
  H     9.614360000000    15.151500000000    31.905600000000   
  O    12.362300000000    18.301740000000    31.888200000000   
  H    11.705700000000    17.839430000000    31.148200000000   
  H    13.389600000000    17.778210000000    31.644500000000   
  O     6.505260000000    16.061600000000    29.594100000000   
  H     5.999110000000    16.419400000000    30.259600000000   
  H     7.270530000000    15.740000000000    30.058400000000   
  O     8.816880000000    15.162300000000    17.176300000000   
  H     8.520980000000    16.198600000000    17.334600000000   
  H     9.450000000000    14.874400000000    17.701800000000   
  O    11.489340000000    20.862300000000    17.643400000000   
  H    10.705323000000    21.366500000000    17.786000000000   
  H    12.140700000000    21.310600000000    18.394100000000   
  O    11.517340000000    24.730600000000    23.032400000000   
  H    11.410970000000    23.817400000000    23.336000000000   
  H    11.687840000000    25.439400000000    23.697700000000   
  O    12.450200000000    21.837300000000    29.914100000000   
  H    12.132200000000    21.592000000000    30.727600000000   
  H    13.262400000000    21.816400000000    29.767700000000   
  O    14.827280000000    11.493300000000    28.536000000000   
  H    15.584020000000    12.087200000000    28.399200000000   
  H    14.249830000000    11.790400000000    27.715200000000   
  O     8.704760000000    20.616900000000    30.975300000000   
  H     9.257930000000    20.078600000000    30.245300000000   
  H     8.295050000000    21.418300000000    30.588800000000   
  O    17.714710000000    17.445400000000    27.765100000000   
  H    17.201680000000    17.055500000000    28.508700000000   
  H    18.660630000000    18.013300000000    27.972000000000   
  O    17.052240000000    12.870700000000    20.824000000000   
  H    17.473760000000    13.648200000000    21.276500000000   
  H    16.206840000000    12.813100000000    21.518200000000   
  O     8.704760000000    10.766900000000    21.125300000000   
  H     9.257930000000    10.228600000000    20.395300000000   
  H     8.295050000000    11.568300000000    20.738800000000   
  O     7.202240000000    22.720700000000    20.824000000000   
  H     7.623760000000    23.498200000000    21.276500000000   
  H     6.356840000000    22.663100000000    21.518200000000   
  O     4.592460000000    18.301200000000    28.301200000000   
  H     4.386580000000    18.552900000000    27.471300000000   
  H     5.032520000000    19.155900000000    28.756300000000   
  O    16.355260000000    16.061600000000    29.594100000000   
  H    15.849110000000    16.419400000000    30.259600000000   
  H    17.120530000000    15.740000000000    30.058400000000   
  O     7.185620000000    13.327800000000    18.158500000000   
  H     7.671680000000    14.172300000000    17.779900000000   
  H     7.515380000000    13.338100000000    19.121200000000   
  O    13.183000000000    24.478100000000    21.004800000000   
  H    12.834900000000    23.637200000000    20.494000000000   
  H    12.569900000000    24.721600000000    21.648300000000   
  O    12.450200000000    11.987300000000    29.914100000000   
  H    12.132200000000    11.742000000000    30.727600000000   
  H    13.262400000000    11.966400000000    29.767700000000   
  O    17.035620000000    13.327800000000    28.008500000000   
  H    17.521680000000    14.172300000000    27.629900000000   
  H    17.365380000000    13.338100000000    28.971200000000   
  O    14.910830000000    15.164900000000    17.270100000000   
  H    15.254130000000    15.947000000000    17.860000000000   
  H    15.565230000000    14.432400000000    17.545800000000   
  O    13.043600000000     9.341500000000    26.068200000000   
  H    12.668800000000     8.701600000000    25.609000000000   
  H    12.439300000000     9.914200000000    26.599200000000   
  O    14.827280000000    21.343300000000    18.686000000000   
  H    15.584020000000    21.937200000000    18.549200000000   
  H    14.249830000000    21.640400000000    17.865200000000   
  O     7.185620000000    23.177800000000    28.008500000000   
  H     7.671680000000    24.022300000000    27.629900000000   
  H     7.515380000000    23.188100000000    28.971200000000   
  O    18.666880000000    15.162300000000    27.026300000000   
  H    18.370980000000    16.198600000000    27.184600000000   
  H    19.300000000000    14.874400000000    27.551800000000   
  O     8.221260000000    24.581180000000    24.429400000000   
  H     8.341180000000    25.641200000000    24.125500000000   
  H     8.709050000000    24.822200000000    25.211200000000   
  O    11.126800000000    24.337700000000    28.551500000000   
  H    11.583600000000    25.301700000000    28.520300000000   
  H    11.604400000000    23.762900000000    27.922700000000   
  O     9.234820000000    24.803500000000    21.160500000000   
  H     9.899560000000    24.574500000000    20.551300000000   
  H     9.614360000000    25.001500000000    22.055600000000   
  O    13.043600000000    19.191500000000    16.218200000000   
  H    12.668800000000    18.551600000000    15.759000000000   
  H    12.439300000000    19.764200000000    16.749200000000   
  O    11.118900000000    20.979100000000    32.117400000000   
  H    10.156000000000    21.014500000000    31.788800000000   
  H    11.599400000000    20.115000000000    31.993000000000   
  O    14.910200000000    17.147100000000    31.638500000000   
  H    15.343600000000    17.965700000000    31.735900000000   
  H    14.952300000000    16.506500000000    32.472500000000   
  O     4.977280000000    21.343300000000    28.536000000000   
  H     5.734020000000    21.937200000000    28.399200000000   
  H     4.399830000000    21.640400000000    27.715200000000   
  O    12.993800000000    12.944900000000    17.121500000000   
  H    13.362600000000    13.893600000000    17.047200000000   
  H    12.279400000000    12.728300000000    16.331000000000   
  O     9.136570000000    21.430000000000    17.174500000000   
  H     8.432820000000    22.078000000000    17.496400000000   
  H     8.585410000000    20.734000000000    16.860700000000   
  O    11.489340000000    11.012300000000    17.643400000000   
  H    10.705323000000    11.516500000000    17.786000000000   
  H    12.140700000000    11.460600000000    18.394100000000   
  O    17.052240000000    22.720700000000    20.824000000000   
  H    17.473760000000    23.498200000000    21.276500000000   
  H    16.206840000000    22.663100000000    21.518200000000   
  O     5.293430000000    22.933200000000    22.805300000000   
  H     5.581070000000    23.591900000000    23.430600000000   
  H     4.555030000000    23.237500000000    22.267200000000   
  O     3.193600000000    19.191500000000    26.068200000000   
  H     2.818800000000    18.551600000000    25.609000000000   
  H     2.589300000000    19.764200000000    26.599200000000   
  O    14.827280000000    11.493300000000    18.686000000000   
  H    15.584020000000    12.087200000000    18.549200000000   
  H    14.249830000000    11.790400000000    17.865200000000   
  O    18.986570000000    21.430000000000    27.024500000000   
  H    18.282820000000    22.078000000000    27.346400000000   
  H    18.435410000000    20.734000000000    26.710700000000   
  O    18.554760000000    20.616900000000    21.125300000000   
  H    19.107930000000    20.078600000000    20.395300000000   
  H    18.145050000000    21.418300000000    20.738800000000   
  O     8.816880000000    25.012300000000    27.026300000000   
  H     8.520980000000    26.048600000000    27.184600000000   
  H     9.450000000000    24.724400000000    27.551800000000   
  O     7.480060000000     9.485980000000    25.711600000000   
  H     7.209170000000     9.010800000000    26.560500000000   
  H     6.588680000000     9.871510000000    25.384400000000   
  O     7.202240000000    12.870700000000    30.674000000000   
  H     7.623760000000    13.648200000000    31.126500000000   
  H     6.356840000000    12.813100000000    31.368200000000   
  O     6.549300000000     9.398320000000    22.198200000000   
  H     6.327630000000     9.838930000000    23.049300000000   
  H     7.384480000000     9.813710000000    21.908600000000   
  O    17.714710000000    17.445400000000    17.915100000000   
  H    17.201680000000    17.055500000000    18.658700000000   
  H    18.660630000000    18.013300000000    18.122000000000   
  O     4.592460000000    18.301200000000    18.451200000000   
  H     4.386580000000    18.552900000000    17.621300000000   
  H     5.032520000000    19.155900000000    18.906300000000   
