14

     C     -2.731653752530    -0.937977567687     0.882374808901
     C     -1.437072521308    -0.557079111410     1.016970610631
     C     -0.669779472972    -0.149467570443    -0.150827093560
     C      0.639914346236     0.264950328402    -0.213764244540
     C      1.476960094300     0.355884655665     0.940749701523
     N      2.723976887041     0.747884434528     0.896738473294
     H      1.070265961710     0.539188438244    -1.182537781784
     H     -1.213767116828    -0.178892451181    -1.104128444633
     H      1.097303142127     0.093932722538     1.934253993624
     H     -0.974247708408    -0.558559208875     2.009269088120
     H      3.293257261132     0.801412893972     1.739081106556
     H      3.166316763417     1.012734062221     0.016747373246
     H     -3.325985281941    -1.247887547867     1.747249091185
     H     -3.224573602184    -0.947695078177    -0.096676682705
14

     C     -2.737359575915    -0.941233743003     0.892612347280
     C     -1.441287835871    -0.555975061247     1.000448710092
     C     -0.669589546971    -0.147526826116    -0.163777158354
     C      0.642462550984     0.264122190726    -0.202658496038
     C      1.479503961330     0.354777412261     0.953766695414
     N      2.725389631699     0.749083851654     0.891498331767
     H      1.085299752499     0.541340158508    -1.165352727539
     H     -1.200334605498    -0.171724749280    -1.124854229668
     H      1.109753995165     0.095231349407     1.951767226522
     H     -0.968402144569    -0.553681426340     1.988284689205
     H      3.308660826970     0.808363536667     1.724060178253
     H      3.152460110594     1.010500648157     0.002677242451
     H     -3.308466285474    -1.246533062116     1.775247348235
     H     -3.254779016797    -0.960358994133    -0.073994842081
14

     C     -2.742506873553    -0.944171181192     0.901847764073
     C     -1.445090526075    -0.554979083206     0.985544088293
     C     -0.669418212250    -0.145776055365    -0.175459580577
     C      0.644761319697     0.263375116936    -0.192639855577
     C      1.481798816931     0.353778553557     0.965509495248
     N      2.726664087067     0.750165861475     0.886771131803
     H      1.098861931100     0.543281253401    -1.149849866139
     H     -1.188216961967    -0.165258671981    -1.143551230458
     H      1.120986071958     0.096402857630     1.967566142163
     H     -0.963128785247    -0.549281115145     1.969354389463
     H      3.322556584460     0.814633802027     1.710509603068
     H      3.139959843494     1.008485856222    -0.010015605910
     H     -3.292662170443    -1.245311162868     1.800504940809
     H     -3.282027714973    -0.971783277760    -0.053533258051
14

     C     -2.746591792087    -0.946502345337     0.909177032337
     C     -1.448108358107    -0.554188670558     0.973715713462
     C     -0.669282240246    -0.144386635831    -0.184730803347
     C      0.646585632877     0.262782235819    -0.184689017490
     C      1.483620024647     0.352985854801     0.974828633961
     N      2.727675500573     0.751024549331     0.883019604670
     H      1.109624936976     0.544821715030    -1.137546725672
     H     -1.178600345613    -0.160127163982    -1.158389254297
     H      1.129899898570     0.097332571819     1.980104232605
     H     -0.958943823594    -0.545789008409     1.954331218527
     H      3.333584320043     0.819609912791     1.699755805715
     H      3.130039575355     1.006886908289    -0.020088707402
     H     -3.280119953742    -1.244341458134     1.820549479767
     H     -3.303652404284    -0.980849640579    -0.037294853025
14

     C     -2.749214471229    -0.947999044850     0.913882712230
     C     -1.450045925543    -0.553681194399     0.966121429340
     C     -0.669194940846    -0.143494573578    -0.190683294781
     C      0.647756914038     0.262401582711    -0.179584265206
     C      1.484789311979     0.352476910870     0.980811889325
     N      2.728324868017     0.751575860871     0.880610975984
     H      1.116535212124     0.545810752278    -1.129647623249
     H     -1.172426097846    -0.156832533040    -1.167915852029
     H      1.135622927546     0.097929485073     1.988154182198
     H     -0.956256912816    -0.543546937869     1.944685749042
     H      3.340664562125     0.822804772567     1.692851442803
     H      3.123670371142     1.005860320523    -0.026556036668
     H     -3.272067354927    -1.243718869370     1.833418865977
     H     -3.317536309471    -0.986670603830    -0.026869155224
14

     C     -2.750118184873    -0.948514772355     0.915504179017
     C     -1.450713565781    -0.553506330032     0.963504617370
     C     -0.669164859522    -0.143187189873    -0.192734383546
     C      0.648160510021     0.262270418588    -0.177825287446
     C      1.485192220935     0.352301540743     0.982873578617
     N      2.728548624789     0.751765829882     0.879781019101
     H      1.118916330664     0.546151551288    -1.126925778050
     H     -1.170298597057    -0.155697280586    -1.171198493892
     H      1.137594948936     0.098135167363     1.990928005789
     H     -0.955331066459    -0.542774373012     1.941362146765
     H      3.343104247279     0.823905646221     1.690472361481
     H      3.121475692940     1.005506582486    -0.028784526460
     H     -3.269292618477    -1.243504339902     1.837853354250
     H     -3.322320377159    -0.988676371071    -0.023276704592
14

     C     -2.749214471229    -0.947999044850     0.913882712230
     C     -1.450045925543    -0.553681194399     0.966121429340
     C     -0.669194940846    -0.143494573578    -0.190683294781
     C      0.647756914038     0.262401582711    -0.179584265206
     C      1.484789311979     0.352476910870     0.980811889325
     N      2.728324868017     0.751575860871     0.880610975984
     H      1.116535212124     0.545810752278    -1.129647623249
     H     -1.172426097846    -0.156832533040    -1.167915852029
     H      1.135622927546     0.097929485073     1.988154182198
     H     -0.956256912816    -0.543546937869     1.944685749042
     H      3.340664562125     0.822804772567     1.692851442803
     H      3.123670371142     1.005860320523    -0.026556036668
     H     -3.272067354927    -1.243718869370     1.833418865977
     H     -3.317536309471    -0.986670603830    -0.026869155224
14

     C     -2.746591792087    -0.946502345337     0.909177032337
     C     -1.448108358107    -0.554188670558     0.973715713462
     C     -0.669282240246    -0.144386635831    -0.184730803347
     C      0.646585632877     0.262782235819    -0.184689017490
     C      1.483620024647     0.352985854801     0.974828633961
     N      2.727675500573     0.751024549331     0.883019604670
     H      1.109624936976     0.544821715030    -1.137546725672
     H     -1.178600345613    -0.160127163982    -1.158389254297
     H      1.129899898570     0.097332571819     1.980104232605
     H     -0.958943823594    -0.545789008409     1.954331218527
     H      3.333584320043     0.819609912791     1.699755805715
     H      3.130039575355     1.006886908289    -0.020088707402
     H     -3.280119953742    -1.244341458134     1.820549479767
     H     -3.303652404284    -0.980849640579    -0.037294853025
14

     C     -2.742506873553    -0.944171181192     0.901847764073
     C     -1.445090526075    -0.554979083206     0.985544088293
     C     -0.669418212250    -0.145776055365    -0.175459580577
     C      0.644761319697     0.263375116936    -0.192639855577
     C      1.481798816931     0.353778553557     0.965509495248
     N      2.726664087067     0.750165861475     0.886771131803
     H      1.098861931100     0.543281253401    -1.149849866139
     H     -1.188216961967    -0.165258671981    -1.143551230458
     H      1.120986071958     0.096402857630     1.967566142163
     H     -0.963128785247    -0.549281115145     1.969354389463
     H      3.322556584460     0.814633802027     1.710509603068
     H      3.139959843494     1.008485856222    -0.010015605910
     H     -3.292662170443    -1.245311162868     1.800504940809
     H     -3.282027714973    -0.971783277760    -0.053533258051
14

     C     -2.737359575915    -0.941233743003     0.892612347280
     C     -1.441287835871    -0.555975061247     1.000448710092
     C     -0.669589546971    -0.147526826116    -0.163777158354
     C      0.642462550984     0.264122190726    -0.202658496038
     C      1.479503961330     0.354777412261     0.953766695414
     N      2.725389631699     0.749083851654     0.891498331767
     H      1.085299752499     0.541340158508    -1.165352727539
     H     -1.200334605498    -0.171724749280    -1.124854229668
     H      1.109753995165     0.095231349407     1.951767226522
     H     -0.968402144569    -0.553681426340     1.988284689205
     H      3.308660826970     0.808363536667     1.724060178253
     H      3.152460110594     1.010500648157     0.002677242451
     H     -3.308466285474    -1.246533062116     1.775247348235
     H     -3.254779016797    -0.960358994133    -0.073994842081
14

     C     -2.731653752530    -0.937977567687     0.882374808901
     C     -1.437072521308    -0.557079111410     1.016970610631
     C     -0.669779472972    -0.149467570443    -0.150827093560
     C      0.639914346236     0.264950328402    -0.213764244540
     C      1.476960094300     0.355884655665     0.940749701523
     N      2.723976887041     0.747884434528     0.896738473294
     H      1.070265961710     0.539188438244    -1.182537781784
     H     -1.213767116828    -0.178892451181    -1.104128444633
     H      1.097303142127     0.093932722538     1.934253993624
     H     -0.974247708408    -0.558559208875     2.009269088120
     H      3.293257261132     0.801412893972     1.739081106556
     H      3.166316763417     1.012734062221     0.016747373246
     H     -3.325985281941    -1.247887547867     1.747249091185
     H     -3.224573602184    -0.947695078177    -0.096676682705
14

     C     -2.725947929145    -0.934721392371     0.872137270522
     C     -1.432857206745    -0.558183161573     1.033492511170
     C     -0.669969398973    -0.151408314770    -0.137877028766
     C      0.637366141488     0.265778466078    -0.224869993042
     C      1.474416227270     0.356991899069     0.927732707632
     N      2.722564142383     0.746685017402     0.901978614821
     H      1.055232170921     0.537036717980    -1.199722836029
     H     -1.227199628158    -0.186060153082    -1.083402659598
     H      1.084852289089     0.092634095669     1.916740760726
     H     -0.980093272247    -0.563436991410     2.030253487035
     H      3.277853695294     0.794462251277     1.754102034859
     H      3.180173416240     1.014967476285     0.030817504041
     H     -3.343504278408    -1.249242033618     1.719250834135
     H     -3.194368187571    -0.935031162221    -0.119358523329
14

     C     -2.720800631507    -0.931783954182     0.862901853729
     C     -1.429054516541    -0.559179139614     1.048397132969
     C     -0.670140733694    -0.153159085521    -0.126194606543
     C      0.635067372775     0.266525539868    -0.234888633503
     C      1.472121371669     0.357990757773     0.915989907798
     N      2.721289687015     0.745603007581     0.906705814785
     H      1.041669992320     0.535095623087    -1.215225697429
     H     -1.239317271689    -0.192526230381    -1.064705658808
     H      1.073620212296     0.091462587446     1.900941845085
     H     -0.985366631569    -0.567837302605     2.049183786777
     H      3.263957937804     0.788191985917     1.767652610044
     H      3.192673683340     1.016982268220     0.043510352402
     H     -3.359308393439    -1.250463932866     1.693993241561
     H     -3.167119489395    -0.923606878594    -0.139820107359
14

     C     -2.716715712973    -0.929452790037     0.855572585465
     C     -1.426036684509    -0.559969552262     1.060225507800
     C     -0.670276705698    -0.154548505055    -0.116923383773
     C      0.633243059595     0.267118420985    -0.242839471590
     C      1.470300163953     0.358783456529     0.906670769085
     N      2.720278273509     0.744744319725     0.910457341918
     H      1.030906986444     0.533555161458    -1.227528837896
     H     -1.248933888043    -0.197657738380    -1.049867634969
     H      1.064706385684     0.090532873257     1.888403754643
     H     -0.989551593222    -0.571329409341     2.064206957713
     H      3.252930202221     0.783215875153     1.778406407397
     H      3.202593951479     1.018581216153     0.053583453894
     H     -3.371850610140    -1.251433637600     1.673948702603
     H     -3.145494800084    -0.914540515775    -0.156058512385
14

     C     -2.714093033831    -0.927956090524     0.850866905572
     C     -1.424099117073    -0.560477028421     1.067819791922
     C     -0.670364005098    -0.155440567308    -0.110970892339
     C      0.632071778434     0.267499074093    -0.247944223874
     C      1.469130876621     0.359292400460     0.900687513721
     N      2.719628906065     0.744193008185     0.912865970604
     H      1.023996711296     0.532566124210    -1.235427940319
     H     -1.255108135810    -0.200952369322    -1.040341037237
     H      1.058983356708     0.089935960003     1.880353805050
     H     -0.992238504000    -0.573571479881     2.073852427198
     H      3.245849960139     0.780021015377     1.785310770309
     H      3.208963155692     1.019607803919     0.060050783160
     H     -3.379903208955    -1.252056226364     1.661079316393
     H     -3.131610894897    -0.908719552524    -0.166484210186
14

     C     -2.713189320187    -0.927440363019     0.849245438785
     C     -1.423431476835    -0.560651892788     1.070436603892
     C     -0.670394086422    -0.155747951013    -0.108919803574
     C      0.631668182451     0.267630238216    -0.249703201634
     C      1.468727967665     0.359467770587     0.898625824429
     N      2.719405149293     0.744003039174     0.913695927487
     H      1.021615592756     0.532225325200    -1.238149785518
     H     -1.257235636599    -0.202087621776    -1.037058395374
     H      1.057011335318     0.089730277713     1.877579981459
     H     -0.993164350357    -0.574344044738     2.077176029475
     H      3.243410274985     0.778920141723     1.787689851631
     H      3.211157833894     1.019961541956     0.062279272952
     H     -3.382677945405    -1.252270755832     1.656644828120
     H     -3.126826827209    -0.906713785283    -0.170076660818
14

     C     -2.714093033831    -0.927956090524     0.850866905572
     C     -1.424099117073    -0.560477028421     1.067819791922
     C     -0.670364005098    -0.155440567308    -0.110970892339
     C      0.632071778434     0.267499074093    -0.247944223874
     C      1.469130876621     0.359292400460     0.900687513721
     N      2.719628906065     0.744193008185     0.912865970604
     H      1.023996711296     0.532566124210    -1.235427940319
     H     -1.255108135810    -0.200952369322    -1.040341037237
     H      1.058983356708     0.089935960003     1.880353805050
     H     -0.992238504000    -0.573571479881     2.073852427198
     H      3.245849960139     0.780021015377     1.785310770309
     H      3.208963155692     1.019607803919     0.060050783160
     H     -3.379903208955    -1.252056226364     1.661079316393
     H     -3.131610894897    -0.908719552524    -0.166484210186
14

     C     -2.716715712973    -0.929452790037     0.855572585465
     C     -1.426036684509    -0.559969552262     1.060225507800
     C     -0.670276705698    -0.154548505055    -0.116923383773
     C      0.633243059595     0.267118420985    -0.242839471590
     C      1.470300163953     0.358783456529     0.906670769085
     N      2.720278273509     0.744744319725     0.910457341918
     H      1.030906986444     0.533555161458    -1.227528837896
     H     -1.248933888043    -0.197657738380    -1.049867634969
     H      1.064706385684     0.090532873257     1.888403754643
     H     -0.989551593222    -0.571329409341     2.064206957713
     H      3.252930202221     0.783215875153     1.778406407397
     H      3.202593951479     1.018581216153     0.053583453894
     H     -3.371850610140    -1.251433637600     1.673948702603
     H     -3.145494800084    -0.914540515775    -0.156058512385
14

     C     -2.720800631507    -0.931783954182     0.862901853729
     C     -1.429054516541    -0.559179139614     1.048397132969
     C     -0.670140733694    -0.153159085521    -0.126194606543
     C      0.635067372775     0.266525539868    -0.234888633503
     C      1.472121371669     0.357990757773     0.915989907798
     N      2.721289687015     0.745603007581     0.906705814785
     H      1.041669992320     0.535095623087    -1.215225697429
     H     -1.239317271689    -0.192526230381    -1.064705658808
     H      1.073620212296     0.091462587446     1.900941845085
     H     -0.985366631569    -0.567837302605     2.049183786777
     H      3.263957937804     0.788191985917     1.767652610044
     H      3.192673683340     1.016982268220     0.043510352402
     H     -3.359308393439    -1.250463932866     1.693993241561
     H     -3.167119489395    -0.923606878594    -0.139820107359
14

     C     -2.725947929145    -0.934721392371     0.872137270522
     C     -1.432857206745    -0.558183161573     1.033492511170
     C     -0.669969398973    -0.151408314770    -0.137877028766
     C      0.637366141488     0.265778466078    -0.224869993042
     C      1.474416227270     0.356991899069     0.927732707632
     N      2.722564142383     0.746685017402     0.901978614821
     H      1.055232170921     0.537036717980    -1.199722836029
     H     -1.227199628158    -0.186060153082    -1.083402659598
     H      1.084852289089     0.092634095669     1.916740760726
     H     -0.980093272247    -0.563436991410     2.030253487035
     H      3.277853695294     0.794462251277     1.754102034859
     H      3.180173416240     1.014967476285     0.030817504041
     H     -3.343504278408    -1.249242033618     1.719250834135
     H     -3.194368187571    -0.935031162221    -0.119358523329
