14

     C     -2.731653752530    -0.937977567687     0.882374808901
     C     -1.437072521308    -0.557079111410     1.016970610631
     C     -0.669779472972    -0.149467570443    -0.150827093560
     C      0.639914346236     0.264950328402    -0.213764244540
     C      1.476960094300     0.355884655665     0.940749701523
     N      2.723976887041     0.747884434528     0.896738473294
     H      1.070265961710     0.539188438244    -1.182537781784
     H     -1.213767116828    -0.178892451181    -1.104128444633
     H      1.097303142127     0.093932722538     1.934253993624
     H     -0.974247708408    -0.558559208875     2.009269088120
     H      3.293257261132     0.801412893972     1.739081106556
     H      3.166316763417     1.012734062221     0.016747373246
     H     -3.325985281941    -1.247887547867     1.747249091185
     H     -3.224573602184    -0.947695078177    -0.096676682705
14

     C     -2.737383185364    -0.938670965786     0.874970671189
     C     -1.434125737967    -0.557556042047     1.026494459126
     C     -0.670619935849    -0.149824560031    -0.150156849253
     C      0.639703071210     0.265049453508    -0.214896663421
     C      1.477328220459     0.356312252666     0.938590640163
     N      2.722505991781     0.747155007882     0.898626031722
     H      1.074192870057     0.540291549714    -1.181747265504
     H     -1.194092989208    -0.171173916916    -1.115350068466
     H      1.111904686886     0.097897299120     1.938048819268
     H     -0.914996303023    -0.537805414287     1.992667937367
     H      3.296751470825     0.802750970579     1.737304883554
     H      3.157967129295     1.010425627204     0.014872647344
     H     -3.322827799463    -1.246966552891     1.747633985599
     H     -3.258586496282    -0.959126387462    -0.090427937666
14

     C     -2.742551781392    -0.939296489249     0.868291302064
     C     -1.431467406311    -0.557986287390     1.035086046973
     C     -0.671378128364    -0.150146604991    -0.149552213129
     C      0.639512477256     0.265138875557    -0.215918233252
     C      1.477660311865     0.356697993493     0.936642922772
     N      2.721179077998     0.746496982598     0.900328822780
     H      1.077735385255     0.541286680948    -1.181034130465
     H     -1.176344702277    -0.164210926563    -1.125473241573
     H      1.125076930710     0.101473795323     1.941472180938
     H     -0.861544838025    -0.519083145713     1.977691822916
     H      3.299903642928     0.803958066925     1.735702529635
     H      3.150434815537     1.008343157890     0.013181432676
     H     -3.319979393370    -1.246135711320     1.747981203866
     H     -3.289269971323    -0.969438720547    -0.084790863329
14

     C     -2.746653602425    -0.939792907479     0.862990524714
     C     -1.429357742363    -0.558327732028     1.041904369693
     C     -0.671979833350    -0.150402181318    -0.149072371185
     C      0.639361221037     0.265209841297    -0.216728955660
     C      1.477923861097     0.357004119146     0.935097205499
     N      2.720126033257     0.745974770776     0.901680165414
     H      1.080546741234     0.542076421566    -1.180468183293
     H     -1.162259582019    -0.158685066132    -1.133507037237
     H      1.135530482595     0.104312118781     1.944188976142
     H     -0.819125515228    -0.504225069247     1.965806711196
     H      3.302405220872     0.804916024009     1.734430894365
     H      3.144457137492     1.006690500886     0.011839277116
     H     -3.317718885496    -1.245476351716     1.748256757843
     H     -3.313620514987    -0.977622634421    -0.080317255807
14

     C     -2.749287133639    -0.940111627602     0.859587216158
     C     -1.428003254731    -0.558546952980     1.046282002353
     C     -0.672366151732    -0.150566271421    -0.148764293692
     C      0.639264108567     0.265255404107    -0.217249471487
     C      1.478093070119     0.357200663914     0.934104793920
     N      2.719449936915     0.745639490147     0.902547780793
     H      1.082351742882     0.542583466255    -1.180104822842
     H     -1.153216378143    -0.155137245343    -1.138665051565
     H      1.142242076050     0.106134434616     1.945933266036
     H     -0.791890633499    -0.494685596937     1.958175999749
     H      3.304011332780     0.805531070317     1.733614454265
     H      3.140619231939     1.005629429772     0.010977560201
     H     -3.316267550101    -1.245053016791     1.748433674386
     H     -3.329254526400    -0.982877030571    -0.077445022971
14

     C     -2.750194586652    -0.940221451072     0.858414515951
     C     -1.427536530101    -0.558622491372     1.047790431767
     C     -0.672499267974    -0.150622813017    -0.148658137422
     C      0.639230645890     0.265271103982    -0.217428829018
     C      1.478151375575     0.357268388626     0.933762832195
     N      2.719216969993     0.745523960316     0.902846740678
     H      1.082973704063     0.542758181948    -1.179979617363
     H     -1.150100302451    -0.153914749613    -1.140442382175
     H      1.144554733545     0.106762361859     1.946534307371
     H     -0.782506132818    -0.491398518796     1.955546635778
     H      3.304564761227     0.805743000832     1.733333128179
     H      3.139296779812     1.005263809584     0.010680632789
     H     -3.315767454006    -1.244907145517     1.748494635673
     H     -3.334641639595    -0.984687572095    -0.076455318986
14

     C     -2.749287133639    -0.940111627602     0.859587216158
     C     -1.428003254731    -0.558546952980     1.046282002353
     C     -0.672366151732    -0.150566271421    -0.148764293692
     C      0.639264108567     0.265255404107    -0.217249471487
     C      1.478093070119     0.357200663914     0.934104793920
     N      2.719449936915     0.745639490147     0.902547780793
     H      1.082351742882     0.542583466255    -1.180104822842
     H     -1.153216378143    -0.155137245343    -1.138665051565
     H      1.142242076050     0.106134434616     1.945933266036
     H     -0.791890633499    -0.494685596937     1.958175999749
     H      3.304011332780     0.805531070317     1.733614454265
     H      3.140619231939     1.005629429772     0.010977560201
     H     -3.316267550101    -1.245053016791     1.748433674386
     H     -3.329254526400    -0.982877030571    -0.077445022971
14

     C     -2.746653602425    -0.939792907479     0.862990524714
     C     -1.429357742363    -0.558327732028     1.041904369693
     C     -0.671979833350    -0.150402181318    -0.149072371185
     C      0.639361221037     0.265209841297    -0.216728955660
     C      1.477923861097     0.357004119146     0.935097205499
     N      2.720126033257     0.745974770776     0.901680165414
     H      1.080546741234     0.542076421566    -1.180468183293
     H     -1.162259582019    -0.158685066132    -1.133507037237
     H      1.135530482595     0.104312118781     1.944188976142
     H     -0.819125515228    -0.504225069247     1.965806711196
     H      3.302405220872     0.804916024009     1.734430894365
     H      3.144457137492     1.006690500886     0.011839277116
     H     -3.317718885496    -1.245476351716     1.748256757843
     H     -3.313620514987    -0.977622634421    -0.080317255807
14

     C     -2.742551781392    -0.939296489249     0.868291302064
     C     -1.431467406311    -0.557986287390     1.035086046973
     C     -0.671378128364    -0.150146604991    -0.149552213129
     C      0.639512477256     0.265138875557    -0.215918233252
     C      1.477660311865     0.356697993493     0.936642922772
     N      2.721179077998     0.746496982598     0.900328822780
     H      1.077735385255     0.541286680948    -1.181034130465
     H     -1.176344702277    -0.164210926563    -1.125473241573
     H      1.125076930710     0.101473795323     1.941472180938
     H     -0.861544838025    -0.519083145713     1.977691822916
     H      3.299903642928     0.803958066925     1.735702529635
     H      3.150434815537     1.008343157890     0.013181432676
     H     -3.319979393370    -1.246135711320     1.747981203866
     H     -3.289269971323    -0.969438720547    -0.084790863329
14

     C     -2.737383185364    -0.938670965786     0.874970671189
     C     -1.434125737967    -0.557556042047     1.026494459126
     C     -0.670619935849    -0.149824560031    -0.150156849253
     C      0.639703071210     0.265049453508    -0.214896663421
     C      1.477328220459     0.356312252666     0.938590640163
     N      2.722505991781     0.747155007882     0.898626031722
     H      1.074192870057     0.540291549714    -1.181747265504
     H     -1.194092989208    -0.171173916916    -1.115350068466
     H      1.111904686886     0.097897299120     1.938048819268
     H     -0.914996303023    -0.537805414287     1.992667937367
     H      3.296751470825     0.802750970579     1.737304883554
     H      3.157967129295     1.010425627204     0.014872647344
     H     -3.322827799463    -1.246966552891     1.747633985599
     H     -3.258586496282    -0.959126387462    -0.090427937666
14

     C     -2.731653752530    -0.937977567687     0.882374808901
     C     -1.437072521308    -0.557079111410     1.016970610631
     C     -0.669779472972    -0.149467570443    -0.150827093560
     C      0.639914346236     0.264950328402    -0.213764244540
     C      1.476960094300     0.355884655665     0.940749701523
     N      2.723976887041     0.747884434528     0.896738473294
     H      1.070265961710     0.539188438244    -1.182537781784
     H     -1.213767116828    -0.178892451181    -1.104128444633
     H      1.097303142127     0.093932722538     1.934253993624
     H     -0.974247708408    -0.558559208875     2.009269088120
     H      3.293257261132     0.801412893972     1.739081106556
     H      3.166316763417     1.012734062221     0.016747373246
     H     -3.325985281941    -1.247887547867     1.747249091185
     H     -3.224573602184    -0.947695078177    -0.096676682705
14

     C     -2.725924319696    -0.937284169588     0.889778946613
     C     -1.440019304649    -0.556602180773     1.007446762136
     C     -0.668939010095    -0.149110580855    -0.151497337867
     C      0.640125621262     0.264851203296    -0.212631825659
     C      1.476591968141     0.355457058664     0.942908762883
     N      2.725447782301     0.748613861174     0.894850914866
     H      1.066339053363     0.538085326774    -1.183328298064
     H     -1.233441244448    -0.186610985446    -1.092906820800
     H      1.082701597368     0.089968145956     1.930459167980
     H     -1.033499113793    -0.579313003463     2.025870238873
     H      3.289763051439     0.800074817365     1.740857329558
     H      3.174666397539     1.015042497238     0.018622099148
     H     -3.329142764419    -1.248808542843     1.746864196771
     H     -3.190560708086    -0.936263768892    -0.102925427744
14

     C     -2.720755723668    -0.936658646125     0.896458315738
     C     -1.442677636305    -0.556171935430     0.998855174289
     C     -0.668180817580    -0.148788535895    -0.152101973991
     C      0.640316215216     0.264761781247    -0.211610255828
     C      1.476259876735     0.355071317837     0.944856480274
     N      2.726774696084     0.749271886458     0.893148123808
     H      1.062796538165     0.537090195540    -1.184041433103
     H     -1.251189531379    -0.193573975799    -1.082783647693
     H      1.069529353544     0.086391649753     1.927035806310
     H     -1.086950578791    -0.598035272037     2.040846353324
     H      3.286610879336     0.798867721019     1.742459683477
     H      3.182198711297     1.017124966552     0.020313313816
     H     -3.331991170512    -1.249639384414     1.746516978504
     H     -3.159877233045    -0.925951435807    -0.108562502081
14

     C     -2.716653902635    -0.936162227895     0.901759093088
     C     -1.444787300253    -0.555830490792     0.992036851569
     C     -0.667579112594    -0.148532959568    -0.152581815935
     C      0.640467471435     0.264690815507    -0.210799533420
     C      1.475996327503     0.354765192184     0.946402197547
     N      2.727827740825     0.749794098280     0.891796781174
     H      1.059985182186     0.536300454922    -1.184607380275
     H     -1.265274651637    -0.199099836230    -1.074749852029
     H      1.059075801659     0.083553326295     1.924319011106
     H     -1.129369901588    -0.612893348503     2.052731465044
     H      3.284109301392     0.797909763935     1.743731318747
     H      3.188176389342     1.018777623556     0.021655469376
     H     -3.334251678386    -1.250298744018     1.746241424527
     H     -3.135526689381    -0.917767521933    -0.113036109603
14

     C     -2.714020371421    -0.935843507772     0.905162401644
     C     -1.446141787885    -0.555611269840     0.987659218909
     C     -0.667192794212    -0.148368869465    -0.152889893428
     C      0.640564583905     0.264645252697    -0.210279017593
     C      1.475827118481     0.354568647416     0.947394609126
     N      2.728503837167     0.750129378909     0.890929165795
     H      1.058180180538     0.535793410233    -1.184970740726
     H     -1.274317855513    -0.202647657019    -1.069591837701
     H      1.052364208204     0.081731010460     1.922574721212
     H     -1.156604783317    -0.622432820813     2.060362176491
     H      3.282503189484     0.797294717627     1.744547758847
     H      3.192014294895     1.019838694670     0.022517186291
     H     -3.335703013781    -1.250722078943     1.746064507984
     H     -3.119892677968    -0.912513125783    -0.115908342439
14

     C     -2.713112918408    -0.935733684302     0.906335101851
     C     -1.446608512515    -0.555535731448     0.986150789495
     C     -0.667059677970    -0.148312327869    -0.152996049698
     C      0.640598046582     0.264629552822    -0.210099660062
     C      1.475768813025     0.354500922704     0.947736570851
     N      2.728736804089     0.750244908740     0.890630205910
     H      1.057558219357     0.535618694540    -1.185095946205
     H     -1.277433931205    -0.203870152749    -1.067814507091
     H      1.050051550709     0.081103083217     1.921973679877
     H     -1.165989283998    -0.625719898954     2.062991540462
     H      3.281949761037     0.797082787112     1.744829084933
     H      3.193336747022     1.020204314858     0.022814113703
     H     -3.336203109876    -1.250867950217     1.746003546697
     H     -3.114505564773    -0.910702584259    -0.116898046424
14

     C     -2.714020371421    -0.935843507772     0.905162401644
     C     -1.446141787885    -0.555611269840     0.987659218909
     C     -0.667192794212    -0.148368869465    -0.152889893428
     C      0.640564583905     0.264645252697    -0.210279017593
     C      1.475827118481     0.354568647416     0.947394609126
     N      2.728503837167     0.750129378909     0.890929165795
     H      1.058180180538     0.535793410233    -1.184970740726
     H     -1.274317855513    -0.202647657019    -1.069591837701
     H      1.052364208204     0.081731010460     1.922574721212
     H     -1.156604783317    -0.622432820813     2.060362176491
     H      3.282503189484     0.797294717627     1.744547758847
     H      3.192014294895     1.019838694670     0.022517186291
     H     -3.335703013781    -1.250722078943     1.746064507984
     H     -3.119892677968    -0.912513125783    -0.115908342439
14

     C     -2.716653902635    -0.936162227895     0.901759093088
     C     -1.444787300253    -0.555830490792     0.992036851569
     C     -0.667579112594    -0.148532959568    -0.152581815935
     C      0.640467471435     0.264690815507    -0.210799533420
     C      1.475996327503     0.354765192184     0.946402197547
     N      2.727827740825     0.749794098280     0.891796781174
     H      1.059985182186     0.536300454922    -1.184607380275
     H     -1.265274651637    -0.199099836230    -1.074749852029
     H      1.059075801659     0.083553326295     1.924319011106
     H     -1.129369901588    -0.612893348503     2.052731465044
     H      3.284109301392     0.797909763935     1.743731318747
     H      3.188176389342     1.018777623556     0.021655469376
     H     -3.334251678386    -1.250298744018     1.746241424527
     H     -3.135526689381    -0.917767521933    -0.113036109603
14

     C     -2.720755723668    -0.936658646125     0.896458315738
     C     -1.442677636305    -0.556171935430     0.998855174289
     C     -0.668180817580    -0.148788535895    -0.152101973991
     C      0.640316215216     0.264761781247    -0.211610255828
     C      1.476259876735     0.355071317837     0.944856480274
     N      2.726774696084     0.749271886458     0.893148123808
     H      1.062796538165     0.537090195540    -1.184041433103
     H     -1.251189531379    -0.193573975799    -1.082783647693
     H      1.069529353544     0.086391649753     1.927035806310
     H     -1.086950578791    -0.598035272037     2.040846353324
     H      3.286610879336     0.798867721019     1.742459683477
     H      3.182198711297     1.017124966552     0.020313313816
     H     -3.331991170512    -1.249639384414     1.746516978504
     H     -3.159877233045    -0.925951435807    -0.108562502081
14

     C     -2.725924319696    -0.937284169588     0.889778946613
     C     -1.440019304649    -0.556602180773     1.007446762136
     C     -0.668939010095    -0.149110580855    -0.151497337867
     C      0.640125621262     0.264851203296    -0.212631825659
     C      1.476591968141     0.355457058664     0.942908762883
     N      2.725447782301     0.748613861174     0.894850914866
     H      1.066339053363     0.538085326774    -1.183328298064
     H     -1.233441244448    -0.186610985446    -1.092906820800
     H      1.082701597368     0.089968145956     1.930459167980
     H     -1.033499113793    -0.579313003463     2.025870238873
     H      3.289763051439     0.800074817365     1.740857329558
     H      3.174666397539     1.015042497238     0.018622099148
     H     -3.329142764419    -1.248808542843     1.746864196771
     H     -3.190560708086    -0.936263768892    -0.102925427744
