14

     C     -2.731653752530    -0.937977567687     0.882374808901
     C     -1.437072521308    -0.557079111410     1.016970610631
     C     -0.669779472972    -0.149467570443    -0.150827093560
     C      0.639914346236     0.264950328402    -0.213764244540
     C      1.476960094300     0.355884655665     0.940749701523
     N      2.723976887041     0.747884434528     0.896738473294
     H      1.070265961710     0.539188438244    -1.182537781784
     H     -1.213767116828    -0.178892451181    -1.104128444633
     H      1.097303142127     0.093932722538     1.934253993624
     H     -0.974247708408    -0.558559208875     2.009269088120
     H      3.293257261132     0.801412893972     1.739081106556
     H      3.166316763417     1.012734062221     0.016747373246
     H     -3.325985281941    -1.247887547867     1.747249091185
     H     -3.224573602184    -0.947695078177    -0.096676682705
14

     C     -2.731808394905    -0.937477265809     0.882447804229
     C     -1.435396640034    -0.562494871576     1.016181597859
     C     -0.671431227046    -0.144131798088    -0.150049648850
     C      0.640854011569     0.261914196100    -0.214205273616
     C      1.474434751648     0.364050977021     0.941936690619
     N      2.726858237166     0.738565993171     0.895383030304
     H      1.078195534964     0.513554534662    -1.186271055349
     H     -1.214562305184    -0.176319820387    -1.103754527957
     H      1.097451741849     0.093446888940     1.934181509284
     H     -0.975681192830    -0.553924069313     2.009945721120
     H      3.289858933469     0.812402275596     1.740679308258
     H      3.145549183521     1.079893262344     0.026521434652
     H     -3.331210370210    -1.231000587102     1.749709691275
     H     -3.220619415610    -0.960471953037    -0.098540233390
14

     C     -2.731947899807    -0.937025936964     0.882513654266
     C     -1.433884805695    -0.567380499404     1.015469819154
     C     -0.672921295922    -0.139318328308    -0.149348305845
     C      0.641701695912     0.259175261581    -0.214603131693
     C      1.472156607129     0.371417921945     0.943007488953
     N      2.729457540664     0.730159705780     0.894160267518
     H      1.085348906339     0.490429856164    -1.189638890087
     H     -1.215279654963    -0.173999016619    -1.103417212850
     H      1.097585795595     0.093008612120     1.934116120215
     H     -0.976974357808    -0.549742649506     2.010556120567
     H      3.286793257795     0.822315939979     1.742121066842
     H      3.126814479042     1.140478452033     0.035338742827
     H     -3.335923990433    -1.215766639716     1.751929430685
     H     -3.217052292369    -0.971998138364    -0.100221366750
14

     C     -2.732058611525    -0.936667760365     0.882565913151
     C     -1.432685007171    -0.571257755600     1.014904948376
     C     -0.674103821278    -0.135498337061    -0.148791716885
     C      0.642374422015     0.257001630841    -0.214918873651
     C      1.470348661403     0.377264362539     0.943857279322
     N      2.731520359601     0.723488438334     0.893189877476
     H      1.091025854005     0.472078007401    -1.192311618867
     H     -1.215848946972    -0.172157216321    -1.103149518066
     H      1.097692181250     0.092660793667     1.934064227157
     H     -0.978000619346    -0.546424255958     2.011040536312
     H      3.284360323805     0.830183468579     1.743265252933
     H      3.111946533386     1.188559130799     0.042336198214
     H     -3.339664740623    -1.203676910619     1.753691025854
     H     -3.214221407336    -0.981145370830    -0.101555521739
14

     C     -2.732129692822    -0.936437796832     0.882599465421
     C     -1.431914689100    -0.573747107315     1.014542279011
     C     -0.674863049292    -0.133045751708    -0.148434364775
     C      0.642806338761     0.255606073999    -0.215121592466
     C      1.469187888793     0.381018008463     0.944402878324
     N      2.732844770884     0.719205220972     0.892566848718
     H      1.094670678770     0.460295395195    -1.194027616375
     H     -1.216214454940    -0.170974707738    -1.102977647434
     H      1.097760485046     0.092437480473     1.934030909763
     H     -0.978659519813    -0.544293716151     2.011351550364
     H      3.282798284029     0.835234732880     1.743999865623
     H      3.102400724665     1.219428826808     0.046828841125
     H     -3.342066450086    -1.195914826729     1.754822039575
     H     -3.212403867263    -0.987018255590    -0.102412101970
14

     C     -2.732154185769    -0.936358556799     0.882611026745
     C     -1.431649255582    -0.574604879458     1.014417311665
     C     -0.675124661437    -0.132200648390    -0.148311229630
     C      0.642955167129     0.255125197884    -0.215191444610
     C      1.468787913810     0.382311426700     0.944590878927
     N      2.733301131911     0.717729324853     0.892352167639
     H      1.095926599792     0.456235383723    -1.194618908820
     H     -1.216340400403    -0.170567243050    -1.102918424851
     H      1.097784020929     0.092360531991     1.934019429371
     H     -0.978886561441    -0.543559582166     2.011458718503
     H      3.282260041804     0.836975279938     1.744252995906
     H      3.099111463146     1.230065799132     0.048376900371
     H     -3.342894022767    -1.193240194900     1.755211760343
     H     -3.211777585636    -0.989041913764    -0.102707259402
14

     C     -2.732129692822    -0.936437796832     0.882599465421
     C     -1.431914689100    -0.573747107315     1.014542279011
     C     -0.674863049292    -0.133045751708    -0.148434364775
     C      0.642806338761     0.255606073999    -0.215121592466
     C      1.469187888793     0.381018008463     0.944402878324
     N      2.732844770884     0.719205220972     0.892566848718
     H      1.094670678770     0.460295395195    -1.194027616375
     H     -1.216214454940    -0.170974707738    -1.102977647434
     H      1.097760485046     0.092437480473     1.934030909763
     H     -0.978659519813    -0.544293716151     2.011351550364
     H      3.282798284029     0.835234732880     1.743999865623
     H      3.102400724665     1.219428826808     0.046828841125
     H     -3.342066450086    -1.195914826729     1.754822039575
     H     -3.212403867263    -0.987018255590    -0.102412101970
14

     C     -2.732058611525    -0.936667760365     0.882565913151
     C     -1.432685007171    -0.571257755600     1.014904948376
     C     -0.674103821278    -0.135498337061    -0.148791716885
     C      0.642374422015     0.257001630841    -0.214918873651
     C      1.470348661403     0.377264362539     0.943857279322
     N      2.731520359601     0.723488438334     0.893189877476
     H      1.091025854005     0.472078007401    -1.192311618867
     H     -1.215848946972    -0.172157216321    -1.103149518066
     H      1.097692181250     0.092660793667     1.934064227157
     H     -0.978000619346    -0.546424255958     2.011040536312
     H      3.284360323805     0.830183468579     1.743265252933
     H      3.111946533386     1.188559130799     0.042336198214
     H     -3.339664740623    -1.203676910619     1.753691025854
     H     -3.214221407336    -0.981145370830    -0.101555521739
14

     C     -2.731947899807    -0.937025936964     0.882513654266
     C     -1.433884805695    -0.567380499404     1.015469819154
     C     -0.672921295922    -0.139318328308    -0.149348305845
     C      0.641701695912     0.259175261581    -0.214603131693
     C      1.472156607129     0.371417921945     0.943007488953
     N      2.729457540664     0.730159705780     0.894160267518
     H      1.085348906339     0.490429856164    -1.189638890087
     H     -1.215279654963    -0.173999016619    -1.103417212850
     H      1.097585795595     0.093008612120     1.934116120215
     H     -0.976974357808    -0.549742649506     2.010556120567
     H      3.286793257795     0.822315939979     1.742121066842
     H      3.126814479042     1.140478452033     0.035338742827
     H     -3.335923990433    -1.215766639716     1.751929430685
     H     -3.217052292369    -0.971998138364    -0.100221366750
14

     C     -2.731808394905    -0.937477265809     0.882447804229
     C     -1.435396640034    -0.562494871576     1.016181597859
     C     -0.671431227046    -0.144131798088    -0.150049648850
     C      0.640854011569     0.261914196100    -0.214205273616
     C      1.474434751648     0.364050977021     0.941936690619
     N      2.726858237166     0.738565993171     0.895383030304
     H      1.078195534964     0.513554534662    -1.186271055349
     H     -1.214562305184    -0.176319820387    -1.103754527957
     H      1.097451741849     0.093446888940     1.934181509284
     H     -0.975681192830    -0.553924069313     2.009945721120
     H      3.289858933469     0.812402275596     1.740679308258
     H      3.145549183521     1.079893262344     0.026521434652
     H     -3.331210370210    -1.231000587102     1.749709691275
     H     -3.220619415610    -0.960471953037    -0.098540233390
14

     C     -2.731653752530    -0.937977567687     0.882374808901
     C     -1.437072521308    -0.557079111410     1.016970610631
     C     -0.669779472972    -0.149467570443    -0.150827093560
     C      0.639914346236     0.264950328402    -0.213764244540
     C      1.476960094300     0.355884655665     0.940749701523
     N      2.723976887041     0.747884434528     0.896738473294
     H      1.070265961710     0.539188438244    -1.182537781784
     H     -1.213767116828    -0.178892451181    -1.104128444633
     H      1.097303142127     0.093932722538     1.934253993624
     H     -0.974247708408    -0.558559208875     2.009269088120
     H      3.293257261132     0.801412893972     1.739081106556
     H      3.166316763417     1.012734062221     0.016747373246
     H     -3.325985281941    -1.247887547867     1.747249091185
     H     -3.224573602184    -0.947695078177    -0.096676682705
14

     C     -2.731499110155    -0.938477869565     0.882301813573
     C     -1.438748402582    -0.551663351244     1.017759623403
     C     -0.668127718898    -0.154803342798    -0.151604538270
     C      0.638974680903     0.267986460704    -0.213323215464
     C      1.479485436952     0.347718334309     0.939562712427
     N      2.721095536916     0.757202875885     0.898093916284
     H      1.062336388456     0.564822341826    -1.178804508219
     H     -1.212971928472    -0.181465081975    -1.104502361309
     H      1.097154542405     0.094418556136     1.934326477964
     H     -0.972814223986    -0.563194348437     2.008592455120
     H      3.296655588795     0.790423512348     1.737482904854
     H      3.187084343313     0.945574862098     0.006973311840
     H     -3.320760193672    -1.264774508632     1.744788491095
     H     -3.228527788758    -0.934918203317    -0.094813132020
14

     C     -2.731359605253    -0.938929198410     0.882235963536
     C     -1.440260236921    -0.546777723416     1.018471402108
     C     -0.666637650022    -0.159616812578    -0.152305881275
     C      0.638126996560     0.270725395223    -0.212925357387
     C      1.481763581471     0.340351389385     0.938491914093
     N      2.718496233418     0.765609163276     0.899316679070
     H      1.055183017081     0.587947020324    -1.175436673481
     H     -1.212254578693    -0.183785885743    -1.104839676416
     H      1.097020488659     0.094856832956     1.934391867033
     H     -0.971521059008    -0.567375768244     2.007982055673
     H      3.299721264469     0.780509847965     1.736041146270
     H      3.205819047792     0.884989672409    -0.001843996335
     H     -3.316046573449    -1.280008456018     1.742568751685
     H     -3.232094911999    -0.923392017990    -0.093131998660
14

     C     -2.731248893535    -0.939287375009     0.882183704651
     C     -1.441460035445    -0.542900467220     1.019036272886
     C     -0.665455124666    -0.163436803825    -0.152862470235
     C      0.637454270457     0.272899025963    -0.212609615429
     C      1.483571527197     0.334504948791     0.937642123724
     N      2.716433414481     0.772280430722     0.900287069112
     H      1.049506069415     0.606298869087    -1.172763944701
     H     -1.211685286684    -0.185627686041    -1.105107371200
     H      1.096914103004     0.095204651409     1.934443760091
     H     -0.970494797470    -0.570694161792     2.007497639928
     H      3.302154198459     0.772642319365     1.734896960179
     H      3.220686993448     0.836908993643    -0.008841451722
     H     -3.312305823259    -1.292098185115     1.740807156516
     H     -3.234925797032    -0.914244785524    -0.091797843671
14

     C     -2.731177812238    -0.939517338542     0.882150152381
     C     -1.442230353516    -0.540411115505     1.019398942251
     C     -0.664695896652    -0.165889389178    -0.153219822345
     C      0.637022353711     0.274294582805    -0.212406896614
     C      1.484732299807     0.330751302867     0.937096524722
     N      2.715109003198     0.776563648084     0.900910097870
     H      1.045861244650     0.618081481293    -1.171047947193
     H     -1.211319778716    -0.186810194624    -1.105279241832
     H      1.096845799208     0.095427964603     1.934477077485
     H     -0.969835897003    -0.572824701599     2.007186625876
     H      3.303716238235     0.767591055064     1.734162347489
     H      3.230232802169     0.806039297634    -0.013334094633
     H     -3.309904113796    -1.299860269005     1.739676142795
     H     -3.236743337105    -0.908371900764    -0.090941263440
14

     C     -2.731153319291    -0.939596578575     0.882138591057
     C     -1.442495787034    -0.539553343362     1.019523909597
     C     -0.664434284507    -0.166734492496    -0.153342957490
     C      0.636873525343     0.274775458920    -0.212337044470
     C      1.485132274790     0.329457884630     0.936908524119
     N      2.714652642171     0.778039544203     0.901124778949
     H      1.044605323628     0.622141492765    -1.170456654748
     H     -1.211193833253    -0.187217659312    -1.105338464415
     H      1.096822263325     0.095504913085     1.934488557877
     H     -0.969608855375    -0.573558835584     2.007079457737
     H      3.304254480460     0.765850508006     1.733909217206
     H      3.233522063688     0.795402325310    -0.014882153879
     H     -3.309076541115    -1.302534900834     1.739286422027
     H     -3.237369618732    -0.906348242590    -0.090646106008
14

     C     -2.731177812238    -0.939517338542     0.882150152381
     C     -1.442230353516    -0.540411115505     1.019398942251
     C     -0.664695896652    -0.165889389178    -0.153219822345
     C      0.637022353711     0.274294582805    -0.212406896614
     C      1.484732299807     0.330751302867     0.937096524722
     N      2.715109003198     0.776563648084     0.900910097870
     H      1.045861244650     0.618081481293    -1.171047947193
     H     -1.211319778716    -0.186810194624    -1.105279241832
     H      1.096845799208     0.095427964603     1.934477077485
     H     -0.969835897003    -0.572824701599     2.007186625876
     H      3.303716238235     0.767591055064     1.734162347489
     H      3.230232802169     0.806039297634    -0.013334094633
     H     -3.309904113796    -1.299860269005     1.739676142795
     H     -3.236743337105    -0.908371900764    -0.090941263440
14

     C     -2.731248893535    -0.939287375009     0.882183704651
     C     -1.441460035445    -0.542900467220     1.019036272886
     C     -0.665455124666    -0.163436803825    -0.152862470235
     C      0.637454270457     0.272899025963    -0.212609615429
     C      1.483571527197     0.334504948791     0.937642123724
     N      2.716433414481     0.772280430722     0.900287069112
     H      1.049506069415     0.606298869087    -1.172763944701
     H     -1.211685286684    -0.185627686041    -1.105107371200
     H      1.096914103004     0.095204651409     1.934443760091
     H     -0.970494797470    -0.570694161792     2.007497639928
     H      3.302154198459     0.772642319365     1.734896960179
     H      3.220686993448     0.836908993643    -0.008841451722
     H     -3.312305823259    -1.292098185115     1.740807156516
     H     -3.234925797032    -0.914244785524    -0.091797843671
14

     C     -2.731359605253    -0.938929198410     0.882235963536
     C     -1.440260236921    -0.546777723416     1.018471402108
     C     -0.666637650022    -0.159616812578    -0.152305881275
     C      0.638126996560     0.270725395223    -0.212925357387
     C      1.481763581471     0.340351389385     0.938491914093
     N      2.718496233418     0.765609163276     0.899316679070
     H      1.055183017081     0.587947020324    -1.175436673481
     H     -1.212254578693    -0.183785885743    -1.104839676416
     H      1.097020488659     0.094856832956     1.934391867033
     H     -0.971521059008    -0.567375768244     2.007982055673
     H      3.299721264469     0.780509847965     1.736041146270
     H      3.205819047792     0.884989672409    -0.001843996335
     H     -3.316046573449    -1.280008456018     1.742568751685
     H     -3.232094911999    -0.923392017990    -0.093131998660
14

     C     -2.731499110155    -0.938477869565     0.882301813573
     C     -1.438748402582    -0.551663351244     1.017759623403
     C     -0.668127718898    -0.154803342798    -0.151604538270
     C      0.638974680903     0.267986460704    -0.213323215464
     C      1.479485436952     0.347718334309     0.939562712427
     N      2.721095536916     0.757202875885     0.898093916284
     H      1.062336388456     0.564822341826    -1.178804508219
     H     -1.212971928472    -0.181465081975    -1.104502361309
     H      1.097154542405     0.094418556136     1.934326477964
     H     -0.972814223986    -0.563194348437     2.008592455120
     H      3.296655588795     0.790423512348     1.737482904854
     H      3.187084343313     0.945574862098     0.006973311840
     H     -3.320760193672    -1.264774508632     1.744788491095
     H     -3.228527788758    -0.934918203317    -0.094813132020
