14

     C     -2.731653752530    -0.937977567687     0.882374808901
     C     -1.437072521308    -0.557079111410     1.016970610631
     C     -0.669779472972    -0.149467570443    -0.150827093560
     C      0.639914346236     0.264950328402    -0.213764244540
     C      1.476960094300     0.355884655665     0.940749701523
     N      2.723976887041     0.747884434528     0.896738473294
     H      1.070265961710     0.539188438244    -1.182537781784
     H     -1.213767116828    -0.178892451181    -1.104128444633
     H      1.097303142127     0.093932722538     1.934253993624
     H     -0.974247708408    -0.558559208875     2.009269088120
     H      3.293257261132     0.801412893972     1.739081106556
     H      3.166316763417     1.012734062221     0.016747373246
     H     -3.325985281941    -1.247887547867     1.747249091185
     H     -3.224573602184    -0.947695078177    -0.096676682705
14

     C     -2.736710923081    -0.921630597849     0.884759580139
     C     -1.432477880739    -0.571927724129     1.014806192284
     C     -0.667764706929    -0.155978856659    -0.151776898643
     C      0.641670714527     0.259274513327    -0.214592610237
     C      1.478970087260     0.349383670287     0.939802471633
     N      2.720388308586     0.759489073529     0.898427650154
     H      1.068983949841     0.543334138581    -1.181935450108
     H     -1.215031633067    -0.174807307332    -1.103533969569
     H      1.103548940380     0.073726752387     1.931311783976
     H     -0.961259450342    -0.600540265906     2.003148736517
     H      3.289635868867     0.813118033345     1.740785931588
     H      3.158242733521     1.038846242592     0.020548226561
     H     -3.330685802061    -1.232690810121     1.749466516908
     H     -3.238382087414    -0.903068643489    -0.090166928597
14

     C     -2.741273062543    -0.906883783315     0.886910913352
     C     -1.428332995602    -0.585322851180     1.012853642285
     C     -0.665947160225    -0.161852772814    -0.152633730187
     C      0.643255157252     0.254154286578    -0.215339889728
     C      1.480783328105     0.343519046653     0.938947963204
     N      2.717151005194     0.769957769611     0.899951478613
     H      1.067827430227     0.547074028885    -1.181392078852
     H     -1.216172369646    -0.171122045825    -1.102997685866
     H      1.109183356383     0.055498683377     1.928657578308
     H     -0.949542573470    -0.638411924576     1.997627487573
     H      3.286368963709     0.823677392121     1.742323876467
     H      3.150959045926     1.062402380815     0.023977025872
     H     -3.334926202521    -1.218981634947     1.751466885551
     H     -3.250838901900    -0.862810555158    -0.084294394578
14

     C     -2.744893596919    -0.895180645038     0.888618221056
     C     -1.425043596133    -0.595953284195     1.011304089832
     C     -0.664504746993    -0.166514339068    -0.153313715550
     C      0.644512578118     0.250090851623    -0.215932934090
     C      1.482222324188     0.338864854986     0.938269821476
     N      2.714581866675     0.778265773861     0.901160795726
     H      1.066909611064     0.550042022635    -1.180960856983
     H     -1.217077663321    -0.168197405734    -1.102572088710
     H      1.113654854240     0.041032805906     1.926551188764
     H     -0.940244007336    -0.668467043067     1.993245799601
     H      3.283776333096     0.832057346693     1.743544396434
     H      3.145178678723     1.081096637954     0.026698136411
     H     -3.338291403380    -1.208101971929     1.753054387094
     H     -3.260724685849    -0.830861555366    -0.079633925192
14

     C     -2.747218123079    -0.887666767734     0.889714380079
     C     -1.422931671670    -0.602778442327     1.010309215916
     C     -0.663578660692    -0.169507248837    -0.153750293027
     C      0.645319892009     0.247481965786    -0.216313692008
     C      1.483146216544     0.335876679993     0.937834427685
     N      2.712932378209     0.783599840937     0.901937225106
     H      1.066320334888     0.551947591923    -1.180683995500
     H     -1.217658897639    -0.166319671209    -1.102298838516
     H      1.116525732587     0.031745140850     1.925198803428
     H     -0.934273960381    -0.687763616973     1.990432582751
     H      3.282111761776     0.837437608720     1.744328018490
     H      3.141467454527     1.093099089870     0.028445196921
     H     -3.340451995331    -1.201116798287     1.754073625826
     H     -3.267071749850    -0.810349034814    -0.076641719657
14

     C     -2.748019100206    -0.885077662065     0.890092090737
     C     -1.422203952095    -0.605130231542     1.009966405728
     C     -0.663259553100    -0.170538535260    -0.153900727374
     C      0.645598073418     0.246583004992    -0.216444892245
     C      1.483464568154     0.334847025062     0.937684401209
     N      2.712364003219     0.785437835191     0.902204764438
     H      1.066117284155     0.552604206350    -1.180588595534
     H     -1.217859177336    -0.165672647986    -1.102204682915
     H      1.117514969848     0.028544829577     1.924732803199
     H     -0.932216822396    -0.694412763196     1.989463214288
     H      3.281538189589     0.839291520668     1.744598036248
     H      3.140188653821     1.097234852944     0.029047192946
     H     -3.341196484579    -1.198709871484     1.754424831558
     H     -3.269258799055    -0.803280901932    -0.075610675895
14

     C     -2.747218123079    -0.887666767734     0.889714380079
     C     -1.422931671670    -0.602778442327     1.010309215916
     C     -0.663578660692    -0.169507248837    -0.153750293027
     C      0.645319892009     0.247481965786    -0.216313692008
     C      1.483146216544     0.335876679993     0.937834427685
     N      2.712932378209     0.783599840937     0.901937225106
     H      1.066320334888     0.551947591923    -1.180683995500
     H     -1.217658897639    -0.166319671209    -1.102298838516
     H      1.116525732587     0.031745140850     1.925198803428
     H     -0.934273960381    -0.687763616973     1.990432582751
     H      3.282111761776     0.837437608720     1.744328018490
     H      3.141467454527     1.093099089870     0.028445196921
     H     -3.340451995331    -1.201116798287     1.754073625826
     H     -3.267071749850    -0.810349034814    -0.076641719657
14

     C     -2.744893596919    -0.895180645038     0.888618221056
     C     -1.425043596133    -0.595953284195     1.011304089832
     C     -0.664504746993    -0.166514339068    -0.153313715550
     C      0.644512578118     0.250090851623    -0.215932934090
     C      1.482222324188     0.338864854986     0.938269821476
     N      2.714581866675     0.778265773861     0.901160795726
     H      1.066909611064     0.550042022635    -1.180960856983
     H     -1.217077663321    -0.168197405734    -1.102572088710
     H      1.113654854240     0.041032805906     1.926551188764
     H     -0.940244007336    -0.668467043067     1.993245799601
     H      3.283776333096     0.832057346693     1.743544396434
     H      3.145178678723     1.081096637954     0.026698136411
     H     -3.338291403380    -1.208101971929     1.753054387094
     H     -3.260724685849    -0.830861555366    -0.079633925192
14

     C     -2.741273062543    -0.906883783315     0.886910913352
     C     -1.428332995602    -0.585322851180     1.012853642285
     C     -0.665947160225    -0.161852772814    -0.152633730187
     C      0.643255157252     0.254154286578    -0.215339889728
     C      1.480783328105     0.343519046653     0.938947963204
     N      2.717151005194     0.769957769611     0.899951478613
     H      1.067827430227     0.547074028885    -1.181392078852
     H     -1.216172369646    -0.171122045825    -1.102997685866
     H      1.109183356383     0.055498683377     1.928657578308
     H     -0.949542573470    -0.638411924576     1.997627487573
     H      3.286368963709     0.823677392121     1.742323876467
     H      3.150959045926     1.062402380815     0.023977025872
     H     -3.334926202521    -1.218981634947     1.751466885551
     H     -3.250838901900    -0.862810555158    -0.084294394578
14

     C     -2.736710923081    -0.921630597849     0.884759580139
     C     -1.432477880739    -0.571927724129     1.014806192284
     C     -0.667764706929    -0.155978856659    -0.151776898643
     C      0.641670714527     0.259274513327    -0.214592610237
     C      1.478970087260     0.349383670287     0.939802471633
     N      2.720388308586     0.759489073529     0.898427650154
     H      1.068983949841     0.543334138581    -1.181935450108
     H     -1.215031633067    -0.174807307332    -1.103533969569
     H      1.103548940380     0.073726752387     1.931311783976
     H     -0.961259450342    -0.600540265906     2.003148736517
     H      3.289635868867     0.813118033345     1.740785931588
     H      3.158242733521     1.038846242592     0.020548226561
     H     -3.330685802061    -1.232690810121     1.749466516908
     H     -3.238382087414    -0.903068643489    -0.090166928597
14

     C     -2.731653752530    -0.937977567687     0.882374808901
     C     -1.437072521308    -0.557079111410     1.016970610631
     C     -0.669779472972    -0.149467570443    -0.150827093560
     C      0.639914346236     0.264950328402    -0.213764244540
     C      1.476960094300     0.355884655665     0.940749701523
     N      2.723976887041     0.747884434528     0.896738473294
     H      1.070265961710     0.539188438244    -1.182537781784
     H     -1.213767116828    -0.178892451181    -1.104128444633
     H      1.097303142127     0.093932722538     1.934253993624
     H     -0.974247708408    -0.558559208875     2.009269088120
     H      3.293257261132     0.801412893972     1.739081106556
     H      3.166316763417     1.012734062221     0.016747373246
     H     -3.325985281941    -1.247887547867     1.747249091185
     H     -3.224573602184    -0.947695078177    -0.096676682705
14

     C     -2.726596581979    -0.954324537525     0.879990037663
     C     -1.441667161877    -0.542230498691     1.019135028978
     C     -0.671794239015    -0.142956284227    -0.149877288477
     C      0.638157977945     0.270626143477    -0.212935878843
     C      1.474950101340     0.362385641043     0.941696931413
     N      2.727565465496     0.736279795527     0.895049296434
     H      1.071547973579     0.535042737907    -1.183140113460
     H     -1.212502600589    -0.182977595030    -1.104722919697
     H      1.091057343874     0.114138692689     1.937196203272
     H     -0.987235966474    -0.516578151844     2.015389439723
     H      3.296878653397     0.789707754599     1.737376281524
     H      3.174390793313     0.986621881850     0.012946519931
     H     -3.321284761821    -1.263084285613     1.745031665462
     H     -3.210765116954    -0.992321512865    -0.103186436813
14

     C     -2.722034442517    -0.969071352059     0.877838704450
     C     -1.445812047014    -0.528835371640     1.021087578977
     C     -0.673611785719    -0.137082368072    -0.149020456933
     C      0.636573535220     0.275746370226    -0.212188599352
     C      1.473136860495     0.368250264677     0.942551439842
     N      2.730802768888     0.725811099445     0.893525467975
     H      1.072704493193     0.531302847603    -1.183683484716
     H     -1.211361864010    -0.186662856537    -1.105259203400
     H      1.085422927871     0.132366761699     1.939850408940
     H     -0.998952843346    -0.478706493174     2.020910688667
     H      3.300145558555     0.779148395823     1.735838336645
     H      3.181674480908     0.963065743627     0.009517720620
     H     -3.317044361361    -1.276793460787     1.743031296819
     H     -3.198308302468    -1.032579601196    -0.109058970832
14

     C     -2.718413908141    -0.980774490336     0.876131396746
     C     -1.449101446483    -0.518204938625     1.022637131430
     C     -0.675054198951    -0.132420801818    -0.148340471570
     C      0.635316114354     0.279809805181    -0.211595554990
     C      1.471697864412     0.372904456344     0.943229581570
     N      2.733371907407     0.717503095195     0.892316150862
     H      1.073622312356     0.528334853853    -1.184114706585
     H     -1.210456570335    -0.189587496628    -1.105684800556
     H      1.080951430014     0.146832639170     1.941956798484
     H     -1.008251409480    -0.448651374683     2.025292376639
     H      3.302738189168     0.770768441251     1.734617816678
     H      3.187454848111     0.944371486488     0.006796610081
     H     -3.313679160502    -1.287673123805     1.741443795276
     H     -3.188422518519    -1.064528600988    -0.113719440218
14

     C     -2.716089381981    -0.988288367640     0.875035237723
     C     -1.451213370946    -0.511379780493     1.023632005346
     C     -0.675980285252    -0.129427892049    -0.147903894093
     C      0.634508800463     0.282418691018    -0.211214797072
     C      1.470773972056     0.375892631337     0.943664975361
     N      2.735021395873     0.712169028119     0.891539721482
     H      1.074211588532     0.526429284565    -1.184391568068
     H     -1.209875336017    -0.191465231153    -1.105958050750
     H      1.078080551667     0.156120304226     1.943309183820
     H     -1.014221456435    -0.429354800777     2.028105593489
     H      3.304402760488     0.765388179224     1.733834194622
     H      3.191166072307     0.932369034572     0.005049549571
     H     -3.311518568551    -1.294658297447     1.740424556544
     H     -3.182075454518    -1.085041121540    -0.116711645753
14

     C     -2.715288404854    -0.990877473309     0.874657527065
     C     -1.451941090521    -0.509027991278     1.023974815534
     C     -0.676299392844    -0.128396605626    -0.147753459746
     C      0.634230619054     0.283317651812    -0.211083596835
     C      1.470455620446     0.376922286268     0.943815001837
     N      2.735589770863     0.710331033865     0.891272182150
     H      1.074414639265     0.525772670138    -1.184486968034
     H     -1.209675056320    -0.192112254376    -1.106052206351
     H      1.077091314406     0.159320615499     1.943775184049
     H     -1.016278594420    -0.422705654554     2.029074961952
     H      3.304976332675     0.763534267276     1.733564176864
     H      3.192444873013     0.928233271498     0.004447553546
     H     -3.310774079303    -1.297065224250     1.740073350812
     H     -3.179888405313    -1.092109254422    -0.117742689515
14

     C     -2.716089381981    -0.988288367640     0.875035237723
     C     -1.451213370946    -0.511379780493     1.023632005346
     C     -0.675980285252    -0.129427892049    -0.147903894093
     C      0.634508800463     0.282418691018    -0.211214797072
     C      1.470773972056     0.375892631337     0.943664975361
     N      2.735021395873     0.712169028119     0.891539721482
     H      1.074211588532     0.526429284565    -1.184391568068
     H     -1.209875336017    -0.191465231153    -1.105958050750
     H      1.078080551667     0.156120304226     1.943309183820
     H     -1.014221456435    -0.429354800777     2.028105593489
     H      3.304402760488     0.765388179224     1.733834194622
     H      3.191166072307     0.932369034572     0.005049549571
     H     -3.311518568551    -1.294658297447     1.740424556544
     H     -3.182075454518    -1.085041121540    -0.116711645753
14

     C     -2.718413908141    -0.980774490336     0.876131396746
     C     -1.449101446483    -0.518204938625     1.022637131430
     C     -0.675054198951    -0.132420801818    -0.148340471570
     C      0.635316114354     0.279809805181    -0.211595554990
     C      1.471697864412     0.372904456344     0.943229581570
     N      2.733371907407     0.717503095195     0.892316150862
     H      1.073622312356     0.528334853853    -1.184114706585
     H     -1.210456570335    -0.189587496628    -1.105684800556
     H      1.080951430014     0.146832639170     1.941956798484
     H     -1.008251409480    -0.448651374683     2.025292376639
     H      3.302738189168     0.770768441251     1.734617816678
     H      3.187454848111     0.944371486488     0.006796610081
     H     -3.313679160502    -1.287673123805     1.741443795276
     H     -3.188422518519    -1.064528600988    -0.113719440218
14

     C     -2.722034442517    -0.969071352059     0.877838704450
     C     -1.445812047014    -0.528835371640     1.021087578977
     C     -0.673611785719    -0.137082368072    -0.149020456933
     C      0.636573535220     0.275746370226    -0.212188599352
     C      1.473136860495     0.368250264677     0.942551439842
     N      2.730802768888     0.725811099445     0.893525467975
     H      1.072704493193     0.531302847603    -1.183683484716
     H     -1.211361864010    -0.186662856537    -1.105259203400
     H      1.085422927871     0.132366761699     1.939850408940
     H     -0.998952843346    -0.478706493174     2.020910688667
     H      3.300145558555     0.779148395823     1.735838336645
     H      3.181674480908     0.963065743627     0.009517720620
     H     -3.317044361361    -1.276793460787     1.743031296819
     H     -3.198308302468    -1.032579601196    -0.109058970832
14

     C     -2.726596581979    -0.954324537525     0.879990037663
     C     -1.441667161877    -0.542230498691     1.019135028978
     C     -0.671794239015    -0.142956284227    -0.149877288477
     C      0.638157977945     0.270626143477    -0.212935878843
     C      1.474950101340     0.362385641043     0.941696931413
     N      2.727565465496     0.736279795527     0.895049296434
     H      1.071547973579     0.535042737907    -1.183140113460
     H     -1.212502600589    -0.182977595030    -1.104722919697
     H      1.091057343874     0.114138692689     1.937196203272
     H     -0.987235966474    -0.516578151844     2.015389439723
     H      3.296878653397     0.789707754599     1.737376281524
     H      3.174390793313     0.986621881850     0.012946519931
     H     -3.321284761821    -1.263084285613     1.745031665462
     H     -3.210765116954    -0.992321512865    -0.103186436813
