UNITS=BOHR
14
C     -5.037514400630    -1.965442141183     1.547299074785
C     -2.710048969579    -0.796670648725     2.017924364614
C     -1.328844500879    -0.244860428524    -0.275875027509
C      1.093800875291     0.523458396949    -0.332602320108
C      2.898944925930     0.608497059076     1.770863734596
N      5.130996023162     1.352553845286     1.687062244331
H      1.869502142211     0.765297651346    -2.231591110567
H     -2.722941568237    -0.230286283647    -2.241674266452
H      1.892864715876     0.324410097929     3.560097277797
H     -1.760263924910    -0.464715939300     3.820449009714
H      6.229757637439     1.528911037158     3.475848348474
H      5.860594303532     1.756435282883    -0.151661325994
H     -6.242856706325    -2.421851878004     3.208738397226
H     -5.815595097742    -2.041558249071    -0.358231768025
# momenta
   -12.318590865156      0.039101045009     -6.448854381102
     0.976209252589      0.357234502863      5.029051862999
    -3.071207188834     -1.926664331823     -8.117972201980
    16.420814644333      4.940024019389     11.757201687689
    13.021554553117      4.431816636733     -9.586077848127
   -13.450370312906     -7.854431341993     16.922593454836
    -6.770408106079     -0.294445696084      4.034068494335
    -4.365677553567     -3.038860885272      1.188350176900
     5.200426289603      0.315303535013     -2.583641735934
     1.845476105894     -0.612615787982      1.099473465491
    -2.752503566307      3.334198623939     -6.632423326452
     3.974041023968      0.613686253105     -6.647883185481
     1.496367640186      0.676226195212     -3.448429138016
    -0.206672265517     -0.980023034401      3.432413790293
